tb_feature_sram_burst_reader.vcd
$date
	Mon Feb  9 02:06:29 2026
$end
$version
	Icarus Verilog
$end
$timescale
	1ps
$end
$scope module tb_feature_sram_burst_reader $end
$var wire 16 ! mem_tag [15:0] $end
$var wire 1 " mem_rd_valid $end
$var wire 32 # mem_addr [31:0] $end
$var wire 256 $ feat_vec [255:0] $end
$var wire 1 % feat_valid $end
$var wire 16 & feat_tag [15:0] $end
$var wire 1 ' cmd_ready $end
$var parameter 32 ( ADDR_W $end
$var parameter 32 ) BEATS $end
$var parameter 32 * FEAT_W $end
$var parameter 32 + MEM_W $end
$var parameter 32 , QDEP $end
$var parameter 32 - READ_LATENCY $end
$var parameter 32 . TAG_W $end
$var parameter 32 / TIMEOUT_CYC $end
$var parameter 1 0 USE_RTAG $end
$var reg 1 1 bubble_en $end
$var reg 32 2 burst_base [31:0] $end
$var reg 1 3 clk $end
$var reg 32 4 cmd_addr [31:0] $end
$var reg 16 5 cmd_beats [15:0] $end
$var reg 16 6 cmd_tag [15:0] $end
$var reg 1 7 cmd_valid $end
$var reg 1 8 en $end
$var reg 256 9 exp_feat [255:0] $end
$var reg 16 : exp_tag [15:0] $end
$var reg 1 ; feat_ready $end
$var reg 256 < hold_feat [255:0] $end
$var reg 16 = hold_tag [15:0] $end
$var reg 1 > in_burst $end
$var reg 1 ? mem_rd_ready $end
$var reg 64 @ mem_rdata [63:0] $end
$var reg 16 A mem_rtag [15:0] $end
$var reg 1 B mem_rvalid $end
$var reg 32 C pop_addr [31:0] $end
$var reg 1 D rst $end
$var integer 32 E beat_idx [31:0] $end
$var integer 32 F i [31:0] $end
$var integer 32 G q_count [31:0] $end
$var integer 32 H q_rptr [31:0] $end
$var integer 32 I q_wptr [31:0] $end
$scope function data_fn $end
$var reg 32 J a [31:0] $end
$var reg 64 K x [63:0] $end
$upscope $end
$scope module dut $end
$var wire 1 3 clk $end
$var wire 32 L cmd_addr [31:0] $end
$var wire 16 M cmd_beats [15:0] $end
$var wire 1 N cmd_fire $end
$var wire 16 O cmd_tag [15:0] $end
$var wire 1 7 cmd_valid $end
$var wire 1 8 en $end
$var wire 1 ; feat_ready $end
$var wire 1 P go $end
$var wire 1 Q mem_fire $end
$var wire 1 ? mem_rd_ready $end
$var wire 64 R mem_rdata [63:0] $end
$var wire 16 S mem_rtag [15:0] $end
$var wire 1 B mem_rvalid $end
$var wire 1 T out_fire $end
$var wire 1 D rst $end
$var parameter 32 U ADDR_W $end
$var parameter 32 V BEATS_PER_FEAT $end
$var parameter 32 W FEAT_W $end
$var parameter 32 X LAT $end
$var parameter 32 Y MEM_W $end
$var parameter 32 Z READ_LATENCY $end
$var parameter 32 [ TAG_W $end
$var parameter 1 \ USE_RTAG $end
$var reg 32 ] base_addr_q [31:0] $end
$var reg 16 ^ beats_q [15:0] $end
$var reg 1 ' cmd_ready $end
$var reg 16 _ data_cnt_q [15:0] $end
$var reg 256 ` feat_buf_q [255:0] $end
$var reg 16 a feat_tag [15:0] $end
$var reg 1 % feat_valid $end
$var reg 256 b feat_vec [255:0] $end
$var reg 32 c issue_addr_q [31:0] $end
$var reg 16 d issue_cnt_q [15:0] $end
$var reg 32 e mem_addr [31:0] $end
$var reg 1 " mem_rd_valid $end
$var reg 16 f mem_tag [15:0] $end
$var reg 2 g st [1:0] $end
$var reg 2 h st_n [1:0] $end
$var reg 16 i tag_q [15:0] $end
$var integer 32 j ii [31:0] $end
$upscope $end
$scope begin wait_first_fire $end
$var integer 32 k k [31:0] $end
$upscope $end
$scope task build_expected $end
$var reg 32 l a0 [31:0] $end
$var integer 32 m b [31:0] $end
$var integer 32 n beats [31:0] $end
$upscope $end
$scope task expect_eq_feat $end
$var reg 256 o exp [255:0] $end
$var reg 256 p got [255:0] $end
$var reg 1600 q msg [1599:0] $end
$upscope $end
$scope task expect_eq_tag $end
$var reg 16 r exp [15:0] $end
$var reg 16 s got [15:0] $end
$var reg 1600 t msg [1599:0] $end
$upscope $end
$scope task fatal_msg $end
$var reg 1600 u msg [1599:0] $end
$upscope $end
$scope task q_pop $end
$var reg 32 v a [31:0] $end
$upscope $end
$scope task q_push $end
$var reg 32 w a [31:0] $end
$upscope $end
$scope task send_cmd_safe $end
$var reg 32 x a [31:0] $end
$var reg 16 y b [15:0] $end
$var reg 1 z done $end
$var reg 16 { t [15:0] $end
$var integer 32 | k [31:0] $end
$upscope $end
$scope task wait_feat_fire $end
$var reg 1600 } why [1599:0] $end
$var integer 32 ~ k [31:0] $end
$upscope $end
$scope task wait_feat_valid $end
$var integer 32 !" k [31:0] $end
$upscope $end
$upscope $end
$enddefinitions $end
$comment Show the parameter values. $end
$dumpall
0\
b10000 [
b1 Z
b1000000 Y
b1 X
b100000000 W
b100 V
b100000 U
00
b1001110001000 /
b10000 .
b1 -
b100000 ,
b1000000 +
b100000000 *
b100 )
b100000 (
$end
#0
$dumpvars
bx !"
bx ~
bx }
bx |
bx {
xz
bx y
bx x
bx w
bx v
bx u
bx t
bx s
bx r
bx q
bx p
bx o
bx n
bx m
bx l
bx k
bx j
bx i
b0 h
bx g
b0 f
b0 e
bx d
bx c
b0 b
b0 a
bx `
bx _
bx ^
bx ]
0T
bx S
bx R
0Q
0P
b0 O
0N
b0 M
b0 L
bx K
bx J
bx I
bx H
bx G
bx F
bx E
1D
bx C
xB
bx A
bx @
1?
x>
bx =
bx <
1;
bx :
bx 9
08
07
b0 6
b0 5
b0 4
03
bx 2
01
0'
b0 &
0%
b0 $
b0 #
0"
b0 !
$end
#5000
b0 `
b0 c
b0 _
b0 d
b0 i
b0 ^
b0 ]
b0 g
b0 G
b0 H
b0 I
b0 A
b0 S
b0 @
b0 R
0B
b0 2
0>
b0 E
b10 j
b10 F
13
#10000
03
#15000
b10 F
b10 j
13
#20000
03
#25000
b10 j
b10 F
13
#30000
03
#35000
b10 F
b10 j
13
#40000
03
#45000
1'
1P
b1010010110100101000000000000000000000000000000000101100110110001 K
b1111101011 J
b100 m
b1010010110100101000000000000000000000000000000000101100110110001101001011010010100000000000000000000000000000000010110011011000010100101101001010000000000000000000000000000000001011001101100111010010110100101000000000000000000000000000000000101100110110010 9
b0 F
b100 n
b1111101000 l
b1010000100000000 :
0D
18
13
#50000
b1010000100000000 {
b100 y
b1111101000 x
0;
03
#55000
b0 F
13
#60000
b1 h
1N
b0 |
0z
17
b1010000100000000 6
b1010000100000000 O
b100 5
b100 M
b1111101000 4
b1111101000 L
03
#65000
1Q
0N
b1010000100000000 &
b1010000100000000 a
b1010000100000000 !
b1010000100000000 f
b1111101000 #
b1111101000 e
1"
0'
b1111101000 c
b1010000100000000 i
b100 ^
b1111101000 ]
b1 g
b1111101000 2
1>
b10 j
b0 F
1z
13
#70000
b0 !"
07
03
#75000
b1111101001 #
b1111101001 e
b1 E
b1111101001 c
b1 d
b0 F
b10 j
b1 !"
13
#80000
03
#85000
b1111101010 #
b1111101010 e
b1111101010 c
b10 d
b10 E
b10 !"
b10 j
b0 F
13
#90000
03
#95000
b1111101011 #
b1111101011 e
b10 h
b1010000100000000 A
b1010000100000000 S
b1010010110100101000000000000000000000000000000000101100110110010 @
b1010010110100101000000000000000000000000000000000101100110110010 R
1B
b11 E
b1111101011 c
b11 d
b1010010110100101000000000000000000000000000000000101100110110010 K
b1111101000 J
b1111101000 C
b1 H
b1111101000 v
b0 G
b1 I
b1111101000 w
b0 F
b10 j
b11 !"
13
#100000
03
#105000
0Q
b1010010110100101000000000000000000000000000000000101100110110010 $
b1010010110100101000000000000000000000000000000000101100110110010 b
b1111101100 #
b1111101100 e
0"
b1010010110100101000000000000000000000000000000000101100110110011 @
b1010010110100101000000000000000000000000000000000101100110110011 R
1B
b1 _
b1010010110100101000000000000000000000000000000000101100110110010 `
b1111101100 c
b100 d
b10 g
b100 E
b1010010110100101000000000000000000000000000000000101100110110011 K
b1111101001 J
b1111101001 C
b10 H
b1111101001 v
b0 G
b10 I
b100 !"
b10 j
b1111101001 w
b0 F
13
#110000
03
#115000
b10100101101001010000000000000000000000000000000001011001101100111010010110100101000000000000000000000000000000000101100110110010 $
b10100101101001010000000000000000000000000000000001011001101100111010010110100101000000000000000000000000000000000101100110110010 b
b1010010110100101000000000000000000000000000000000101100110110000 @
b1010010110100101000000000000000000000000000000000101100110110000 R
1B
b10 _
b10100101101001010000000000000000000000000000000001011001101100111010010110100101000000000000000000000000000000000101100110110010 `
b1010010110100101000000000000000000000000000000000101100110110000 K
b1111101010 J
b1111101010 C
b11 H
b1111101010 v
b0 G
b11 I
b101 !"
b1111101010 w
b0 F
13
#120000
03
#125000
b11 h
b101001011010010100000000000000000000000000000000010110011011000010100101101001010000000000000000000000000000000001011001101100111010010110100101000000000000000000000000000000000101100110110010 $
b101001011010010100000000000000000000000000000000010110011011000010100101101001010000000000000000000000000000000001011001101100111010010110100101000000000000000000000000000000000101100110110010 b
b1010010110100101000000000000000000000000000000000101100110110001 @
b1010010110100101000000000000000000000000000000000101100110110001 R
1B
b11 _
b101001011010010100000000000000000000000000000000010110011011000010100101101001010000000000000000000000000000000001011001101100111010010110100101000000000000000000000000000000000101100110110010 `
b1010010110100101000000000000000000000000000000000101100110110001 K
b1111101011 J
b1111101011 C
b100 H
b1111101011 v
b0 G
b100 I
b110 !"
b1111101011 w
b0 F
13
#130000
03
#135000
b1010010110100101000000000000000000000000000000000101100110110001101001011010010100000000000000000000000000000000010110011011000010100101101001010000000000000000000000000000000001011001101100111010010110100101000000000000000000000000000000000101100110110010 $
b1010010110100101000000000000000000000000000000000101100110110001101001011010010100000000000000000000000000000000010110011011000010100101101001010000000000000000000000000000000001011001101100111010010110100101000000000000000000000000000000000101100110110010 b
1%
b100 _
b1010010110100101000000000000000000000000000000000101100110110001101001011010010100000000000000000000000000000000010110011011000010100101101001010000000000000000000000000000000001011001101100111010010110100101000000000000000000000000000000000101100110110010 `
b11 g
0B
b111 !"
b0 F
13
#140000
03
#145000
b11000100110000101110011011010010110001100111010001000000110011001100101011000010111010001011111011101000110000101100111001000000110110101101001011100110110110101100001011101000110001101101000 t
b1010000100000000 r
b1010000100000000 s
b11000100110000101110011011010010110001100111010001000000110011001100101011000010111010001011111011101100110010101100011001000000110110101101001011100110110110101100001011101000110001101101000 q
b1010010110100101000000000000000000000000000000000101100110110001101001011010010100000000000000000000000000000000010110011011000010100101101001010000000000000000000000000000000001011001101100111010010110100101000000000000000000000000000000000101100110110010 o
b1010010110100101000000000000000000000000000000000101100110110001101001011010010100000000000000000000000000000000010110011011000010100101101001010000000000000000000000000000000001011001101100111010010110100101000000000000000000000000000000000101100110110010 p
b0 F
b1000 !"
13
#150000
b0 h
1T
b0 ~
b110001001100001011100110110100101100011 }
1;
03
#155000
0T
0%
1'
0>
b0 g
b0 F
13
#160000
b1010010110100101000000000000000000000000000000000101110110001001 K
b11111010011 J
b100 m
b1010010110100101000000000000000000000000000000000101110110001001101001011010010100000000000000000000000000000000010111011000100010100101101001010000000000000000000000000000000001011101100010111010010110100101000000000000000000000000000000000101110110001010 9
b11111010000 l
b1011111011101111 :
03
#165000
b0 F
13
#170000
b1011111011101111 {
b11111010000 x
0;
03
#175000
b0 F
13
#180000
b1 h
1N
0z
17
b1011111011101111 6
b1011111011101111 O
b11111010000 4
b11111010000 L
03
#185000
1Q
0N
b1011111011101111 &
b1011111011101111 a
b0 $
b0 b
b1011111011101111 !
b1011111011101111 f
b11111010000 #
b11111010000 e
1"
0'
b0 `
b11111010000 c
b0 _
b0 d
b1011111011101111 i
b11111010000 ]
b1 g
b0 E
b11111010000 2
1>
b0 F
b10 j
1z
13
#190000
b0 k
07
03
#195000
b11111010001 #
b11111010001 e
b1 E
b11111010001 c
b1 d
b10 j
b0 F
13
#200000
0Q
0?
03
#205000
b0 F
13
#210000
03
#215000
b1011111011101111 A
b1011111011101111 S
b1010010110100101000000000000000000000000000000000101110110001010 @
b1010010110100101000000000000000000000000000000000101110110001010 R
1B
b1010010110100101000000000000000000000000000000000101110110001010 K
b11111010000 J
b11111010000 C
b101 H
b11111010000 v
b0 G
b101 I
b11111010000 w
b0 F
13
#220000
03
#225000
b1010010110100101000000000000000000000000000000000101110110001010 $
b1010010110100101000000000000000000000000000000000101110110001010 b
b1 _
b1010010110100101000000000000000000000000000000000101110110001010 `
0B
b0 F
13
#230000
03
#235000
b0 F
13
#240000
03
#245000
b0 F
13
#250000
1Q
b0 !"
1?
03
#255000
b11111010010 #
b11111010010 e
b10 E
b11111010010 c
b10 d
b0 F
b10 j
b1 !"
13
#260000
03
#265000
b11111010011 #
b11111010011 e
b10 h
b11111010011 c
b11 d
b11 E
b10 !"
b10 j
b0 F
13
#270000
03
#275000
0Q
b11111010100 #
b11111010100 e
0"
b1010010110100101000000000000000000000000000000000101110110001011 @
b1010010110100101000000000000000000000000000000000101110110001011 R
1B
b100 E
b11111010100 c
b100 d
b10 g
b1010010110100101000000000000000000000000000000000101110110001011 K
b11111010001 J
b11111010001 C
b110 H
b11111010001 v
b0 G
b110 I
b11111010001 w
b0 F
b10 j
b11 !"
13
#280000
03
#285000
b10100101101001010000000000000000000000000000000001011101100010111010010110100101000000000000000000000000000000000101110110001010 $
b10100101101001010000000000000000000000000000000001011101100010111010010110100101000000000000000000000000000000000101110110001010 b
b1010010110100101000000000000000000000000000000000101110110001000 @
b1010010110100101000000000000000000000000000000000101110110001000 R
1B
b10 _
b10100101101001010000000000000000000000000000000001011101100010111010010110100101000000000000000000000000000000000101110110001010 `
b1010010110100101000000000000000000000000000000000101110110001000 K
b11111010010 J
b11111010010 C
b111 H
b11111010010 v
b0 G
b111 I
b100 !"
b11111010010 w
b0 F
13
#290000
03
#295000
b11 h
b101001011010010100000000000000000000000000000000010111011000100010100101101001010000000000000000000000000000000001011101100010111010010110100101000000000000000000000000000000000101110110001010 $
b101001011010010100000000000000000000000000000000010111011000100010100101101001010000000000000000000000000000000001011101100010111010010110100101000000000000000000000000000000000101110110001010 b
b1010010110100101000000000000000000000000000000000101110110001001 @
b1010010110100101000000000000000000000000000000000101110110001001 R
1B
b11 _
b101001011010010100000000000000000000000000000000010111011000100010100101101001010000000000000000000000000000000001011101100010111010010110100101000000000000000000000000000000000101110110001010 `
b1010010110100101000000000000000000000000000000000101110110001001 K
b11111010011 J
b11111010011 C
b1000 H
b11111010011 v
b0 G
b1000 I
b101 !"
b11111010011 w
b0 F
13
#300000
03
#305000
b1010010110100101000000000000000000000000000000000101110110001001101001011010010100000000000000000000000000000000010111011000100010100101101001010000000000000000000000000000000001011101100010111010010110100101000000000000000000000000000000000101110110001010 $
b1010010110100101000000000000000000000000000000000101110110001001101001011010010100000000000000000000000000000000010111011000100010100101101001010000000000000000000000000000000001011101100010111010010110100101000000000000000000000000000000000101110110001010 b
1%
b100 _
b1010010110100101000000000000000000000000000000000101110110001001101001011010010100000000000000000000000000000000010111011000100010100101101001010000000000000000000000000000000001011101100010111010010110100101000000000000000000000000000000000101110110001010 `
b11 g
0B
b110 !"
b0 F
13
#310000
03
#315000
b11100110111010001100001011011000110110000111010001000000110011001100101011000010111010001011111011101000110000101100111001000000110110101101001011100110110110101100001011101000110001101101000 t
b1011111011101111 r
b1011111011101111 s
b11100110111010001100001011011000110110000111010001000000110011001100101011000010111010001011111011101100110010101100011001000000110110101101001011100110110110101100001011101000110001101101000 q
b1010010110100101000000000000000000000000000000000101110110001001101001011010010100000000000000000000000000000000010111011000100010100101101001010000000000000000000000000000000001011101100010111010010110100101000000000000000000000000000000000101110110001010 o
b1010010110100101000000000000000000000000000000000101110110001001101001011010010100000000000000000000000000000000010111011000100010100101101001010000000000000000000000000000000001011101100010111010010110100101000000000000000000000000000000000101110110001010 p
b0 F
b111 !"
13
#320000
b0 h
1T
b111001101110100011000010110110001101100 }
1;
03
#325000
0T
0%
1'
b0 g
0>
b0 F
13
#330000
03
#335000
b0 F
13
#340000
b1100101011111110 {
b101110111000 x
b1010010110100101000000000000000000000000000000000101000111100001 K
b101110111011 J
b100 m
b1010010110100101000000000000000000000000000000000101000111100001101001011010010100000000000000000000000000000000010100011110000010100101101001010000000000000000000000000000000001010001111000111010010110100101000000000000000000000000000000000101000111100010 9
b101110111000 l
b1100101011111110 :
0;
11
03
#345000
b0 F
13
#350000
b1 h
1N
0z
17
b1100101011111110 6
b1100101011111110 O
b101110111000 4
b101110111000 L
03
#355000
1Q
0N
b1100101011111110 &
b1100101011111110 a
b0 $
b0 b
b1100101011111110 !
b1100101011111110 f
b101110111000 #
b101110111000 e
1"
0'
b0 E
b101110111000 2
1>
b0 `
b101110111000 c
b0 _
b0 d
b1100101011111110 i
b101110111000 ]
b1 g
b0 F
b10 j
1z
13
#360000
b0 !"
07
03
#365000
b101110111001 #
b101110111001 e
b101110111001 c
b1 d
b1 E
b10 j
b0 F
b1 !"
13
#370000
03
#375000
b101110111010 #
b101110111010 e
b10 E
b101110111010 c
b10 d
b10 !"
b0 F
b10 j
13
#380000
03
#385000
b101110111011 #
b101110111011 e
b10 h
b1100101011111110 A
b1100101011111110 S
b1010010110100101000000000000000000000000000000000101000111100010 @
b1010010110100101000000000000000000000000000000000101000111100010 R
1B
b101110111011 c
b11 d
b11 E
b1010010110100101000000000000000000000000000000000101000111100010 K
b101110111000 J
b101110111000 C
b1001 H
b101110111000 v
b0 G
b1001 I
b10 j
b101110111000 w
b0 F
b11 !"
13
#390000
03
#395000
0Q
b1010010110100101000000000000000000000000000000000101000111100010 $
b1010010110100101000000000000000000000000000000000101000111100010 b
b101110111100 #
b101110111100 e
0"
b1010010110100101000000000000000000000000000000000101000111100011 @
b1010010110100101000000000000000000000000000000000101000111100011 R
1B
b100 E
b1 _
b1010010110100101000000000000000000000000000000000101000111100010 `
b101110111100 c
b100 d
b10 g
b1010010110100101000000000000000000000000000000000101000111100011 K
b101110111001 J
b101110111001 C
b1010 H
b101110111001 v
b0 G
b1010 I
b100 !"
b10 j
b101110111001 w
b0 F
13
#400000
03
#405000
b10100101101001010000000000000000000000000000000001010001111000111010010110100101000000000000000000000000000000000101000111100010 $
b10100101101001010000000000000000000000000000000001010001111000111010010110100101000000000000000000000000000000000101000111100010 b
0B
b10 _
b10100101101001010000000000000000000000000000000001010001111000111010010110100101000000000000000000000000000000000101000111100010 `
b1 G
b1011 I
b101 !"
b101110111010 w
b0 F
13
#410000
03
#415000
b1010010110100101000000000000000000000000000000000101000111100000 @
b1010010110100101000000000000000000000000000000000101000111100000 R
1B
b1010010110100101000000000000000000000000000000000101000111100000 K
b101110111010 J
b101110111010 C
b1011 H
b101110111010 v
b1 G
b1100 I
b110 !"
b101110111011 w
b0 F
13
#420000
03
#425000
b101001011010010100000000000000000000000000000000010100011110000010100101101001010000000000000000000000000000000001010001111000111010010110100101000000000000000000000000000000000101000111100010 $
b101001011010010100000000000000000000000000000000010100011110000010100101101001010000000000000000000000000000000001010001111000111010010110100101000000000000000000000000000000000101000111100010 b
b11 _
b101001011010010100000000000000000000000000000000010100011110000010100101101001010000000000000000000000000000000001010001111000111010010110100101000000000000000000000000000000000101000111100010 `
0B
b111 !"
b0 F
13
#430000
03
#435000
b11 h
b1010010110100101000000000000000000000000000000000101000111100001 @
b1010010110100101000000000000000000000000000000000101000111100001 R
1B
b1010010110100101000000000000000000000000000000000101000111100001 K
b101110111011 J
b101110111011 C
b0 G
b1100 H
b101110111011 v
b0 F
b1000 !"
13
#440000
03
#445000
b1010010110100101000000000000000000000000000000000101000111100001101001011010010100000000000000000000000000000000010100011110000010100101101001010000000000000000000000000000000001010001111000111010010110100101000000000000000000000000000000000101000111100010 $
b1010010110100101000000000000000000000000000000000101000111100001101001011010010100000000000000000000000000000000010100011110000010100101101001010000000000000000000000000000000001010001111000111010010110100101000000000000000000000000000000000101000111100010 b
1%
b100 _
b1010010110100101000000000000000000000000000000000101000111100001101001011010010100000000000000000000000000000000010100011110000010100101101001010000000000000000000000000000000001010001111000111010010110100101000000000000000000000000000000000101000111100010 `
b11 g
0B
b1001 !"
b0 F
13
#450000
03
#455000
b1100010011101010110001001100010011011000110010100111010001000000110011001100101011000010111010001011111011101000110000101100111001000000110110101101001011100110110110101100001011101000110001101101000 t
b1100101011111110 r
b1100101011111110 s
b1100010011101010110001001100010011011000110010100111010001000000110011001100101011000010111010001011111011101100110010101100011001000000110110101101001011100110110110101100001011101000110001101101000 q
b1010010110100101000000000000000000000000000000000101000111100001101001011010010100000000000000000000000000000000010100011110000010100101101001010000000000000000000000000000000001010001111000111010010110100101000000000000000000000000000000000101000111100010 o
b1010010110100101000000000000000000000000000000000101000111100001101001011010010100000000000000000000000000000000010100011110000010100101101001010000000000000000000000000000000001010001111000111010010110100101000000000000000000000000000000000101000111100010 p
b0 F
b1010 !"
13
#460000
b0 h
1T
b11000100111010101100010011000100110110001100101 }
1;
03
#465000
0T
0%
1'
b0 g
0>
b0 F
13
#470000
b1010010110100101000000000000000000000000000000000101010111111001 K
b111110100011 J
b100 m
b1010010110100101000000000000000000000000000000000101010111111001101001011010010100000000000000000000000000000000010101011111100010100101101001010000000000000000000000000000000001010101111110111010010110100101000000000000000000000000000000000101010111111010 9
b111110100000 l
b1001000110100 :
01
03
#475000
b0 F
13
#480000
b1001000110100 {
b111110100000 x
0;
03
#485000
b0 F
13
#490000
b1 h
1N
0z
17
b1001000110100 6
b1001000110100 O
b111110100000 4
b111110100000 L
03
#495000
1Q
0N
b1001000110100 &
b1001000110100 a
b0 $
b0 b
b1001000110100 !
b1001000110100 f
b111110100000 #
b111110100000 e
1"
0'
b0 E
b111110100000 2
1>
b0 `
b111110100000 c
b0 _
b0 d
b1001000110100 i
b111110100000 ]
b1 g
b0 F
b10 j
1z
13
#500000
b0 !"
07
03
#505000
b111110100001 #
b111110100001 e
b111110100001 c
b1 d
b1 E
b10 j
b0 F
b1 !"
13
#510000
03
#515000
b111110100010 #
b111110100010 e
b10 E
b111110100010 c
b10 d
b10 !"
b0 F
b10 j
13
#520000
03
#525000
b111110100011 #
b111110100011 e
b10 h
b1001000110100 A
b1001000110100 S
b1010010110100101000000000000000000000000000000000101010111111010 @
b1010010110100101000000000000000000000000000000000101010111111010 R
1B
b111110100011 c
b11 d
b11 E
b1010010110100101000000000000000000000000000000000101010111111010 K
b111110100000 J
b111110100000 C
b1101 H
b111110100000 v
b0 G
b1101 I
b10 j
b111110100000 w
b0 F
b11 !"
13
#530000
03
#535000
0Q
b1010010110100101000000000000000000000000000000000101010111111010 $
b1010010110100101000000000000000000000000000000000101010111111010 b
b111110100100 #
b111110100100 e
0"
b1010010110100101000000000000000000000000000000000101010111111011 @
b1010010110100101000000000000000000000000000000000101010111111011 R
1B
b100 E
b1 _
b1010010110100101000000000000000000000000000000000101010111111010 `
b111110100100 c
b100 d
b10 g
b1010010110100101000000000000000000000000000000000101010111111011 K
b111110100001 J
b111110100001 C
b1110 H
b111110100001 v
b0 G
b1110 I
b100 !"
b10 j
b111110100001 w
b0 F
13
#540000
03
#545000
b10100101101001010000000000000000000000000000000001010101111110111010010110100101000000000000000000000000000000000101010111111010 $
b10100101101001010000000000000000000000000000000001010101111110111010010110100101000000000000000000000000000000000101010111111010 b
b1010010110100101000000000000000000000000000000000101010111111000 @
b1010010110100101000000000000000000000000000000000101010111111000 R
1B
b10 _
b10100101101001010000000000000000000000000000000001010101111110111010010110100101000000000000000000000000000000000101010111111010 `
b1010010110100101000000000000000000000000000000000101010111111000 K
b111110100010 J
b111110100010 C
b1111 H
b111110100010 v
b0 G
b1111 I
b101 !"
b111110100010 w
b0 F
13
#550000
03
#555000
b11 h
b101001011010010100000000000000000000000000000000010101011111100010100101101001010000000000000000000000000000000001010101111110111010010110100101000000000000000000000000000000000101010111111010 $
b101001011010010100000000000000000000000000000000010101011111100010100101101001010000000000000000000000000000000001010101111110111010010110100101000000000000000000000000000000000101010111111010 b
b1010010110100101000000000000000000000000000000000101010111111001 @
b1010010110100101000000000000000000000000000000000101010111111001 R
1B
b11 _
b101001011010010100000000000000000000000000000000010101011111100010100101101001010000000000000000000000000000000001010101111110111010010110100101000000000000000000000000000000000101010111111010 `
b1010010110100101000000000000000000000000000000000101010111111001 K
b111110100011 J
b111110100011 C
b10000 H
b111110100011 v
b0 G
b10000 I
b110 !"
b111110100011 w
b0 F
13
#560000
03
#565000
b1010010110100101000000000000000000000000000000000101010111111001101001011010010100000000000000000000000000000000010101011111100010100101101001010000000000000000000000000000000001010101111110111010010110100101000000000000000000000000000000000101010111111010 $
b1010010110100101000000000000000000000000000000000101010111111001101001011010010100000000000000000000000000000000010101011111100010100101101001010000000000000000000000000000000001010101111110111010010110100101000000000000000000000000000000000101010111111010 b
1%
b100 _
b1010010110100101000000000000000000000000000000000101010111111001101001011010010100000000000000000000000000000000010101011111100010100101101001010000000000000000000000000000000001010101111110111010010110100101000000000000000000000000000000000101010111111010 `
b11 g
0B
b111 !"
b0 F
13
#570000
03
#575000
b1001000110100 =
b1010010110100101000000000000000000000000000000000101010111111001101001011010010100000000000000000000000000000000010101011111100010100101101001010000000000000000000000000000000001010101111110111010010110100101000000000000000000000000000000000101010111111010 <
b0 F
b1000 !"
13
#580000
03
#585000
b0 F
13
#590000
03
#595000
b0 F
13
#600000
03
#605000
b0 F
13
#610000
03
#615000
b0 F
13
#620000
03
#625000
b0 F
13
#630000
03
#635000
b0 F
13
#640000
03
#645000
b0 F
13
#650000
03
#655000
b0 F
13
#660000
b0 h
1T
b11000100110000101100011011010110111000001110010011001010111001101110011011101010111001001100101 }
1;
03
#665000
0T
0%
1'
b0 g
0>
b0 F
13
