tb_feature_sram_tile_burst_fetch_top.vcd
$date
	Mon Feb  9 02:19:45 2026
$end
$version
	Icarus Verilog
$end
$timescale
	1ps
$end
$scope module tb_feature_sram_tile_burst_fetch_top $end
$var wire 1 ! mem_fire $end
$var wire 1 " rd_ready_in $end
$var wire 16 # mem_tag [15:0] $end
$var wire 1 $ mem_rd_valid $end
$var wire 2 % mem_bank [1:0] $end
$var wire 32 & mem_addr [31:0] $end
$var wire 256 ' feat_vec [255:0] $end
$var wire 1 ( feat_valid $end
$var wire 16 ) feat_tag [15:0] $end
$var parameter 32 * ADDR_W $end
$var parameter 32 + BANKS $end
$var parameter 32 , BANK_W $end
$var parameter 32 - BASE_ADDR_WORD $end
$var parameter 32 . BEATS $end
$var parameter 32 / FEAT_W $end
$var parameter 32 0 IW $end
$var parameter 32 1 JW $end
$var parameter 32 2 MEM_W $end
$var parameter 32 3 QDEP $end
$var parameter 32 4 READ_LATENCY $end
$var parameter 32 5 TAG_W $end
$var parameter 32 6 TILES_X $end
$var parameter 32 7 TILES_Y $end
$var parameter 32 8 TIMEOUT_CYC $end
$var parameter 1 9 USE_RTAG $end
$var reg 1 : bubble_en $end
$var reg 1 ; clk $end
$var reg 1 < en $end
$var reg 64 = exp_base_full [63:0] $end
$var reg 256 > exp_feat [255:0] $end
$var reg 16 ? exp_tag [15:0] $end
$var reg 1 @ feat_ready $end
$var reg 256 A hold_feat [255:0] $end
$var reg 16 B hold_tag [15:0] $end
$var reg 1 C in_burst $end
$var reg 1 D mem_rd_ready $end
$var reg 64 E mem_rdata [63:0] $end
$var reg 16 F mem_rtag [15:0] $end
$var reg 1 G mem_rvalid $end
$var reg 64 H pop_fw [63:0] $end
$var reg 16 I rd_tag [15:0] $end
$var reg 2 J rd_tile_i [1:0] $end
$var reg 3 K rd_tile_j [2:0] $end
$var reg 1 L rd_valid $end
$var reg 1 M rst $end
$var integer 32 N beat_idx [31:0] $end
$var integer 32 O q_count [31:0] $end
$var integer 32 P q_rptr [31:0] $end
$var integer 32 Q q_wptr [31:0] $end
$scope function base_word_full_fn $end
$var integer 32 R linear [31:0] $end
$var integer 32 S ti [31:0] $end
$var integer 32 T tj [31:0] $end
$upscope $end
$scope function data_fn $end
$var reg 64 U full_word [63:0] $end
$var reg 64 V x [63:0] $end
$upscope $end
$scope function full_word_from_bank_addr $end
$var reg 32 W a [31:0] $end
$var reg 2 X b [1:0] $end
$upscope $end
$scope module dut $end
$var wire 1 ; clk $end
$var wire 1 < en $end
$var wire 1 @ feat_ready $end
$var wire 1 D mem_rd_ready $end
$var wire 64 Y mem_rdata [63:0] $end
$var wire 16 Z mem_rtag [15:0] $end
$var wire 1 G mem_rvalid $end
$var wire 16 [ rd_tag [15:0] $end
$var wire 2 \ rd_tile_i [1:0] $end
$var wire 3 ] rd_tile_j [2:0] $end
$var wire 1 L rd_valid $end
$var wire 1 M rst $end
$var wire 1 " rd_ready_in $end
$var wire 256 ^ feat_vec [255:0] $end
$var wire 1 ( feat_valid $end
$var wire 16 _ feat_tag [15:0] $end
$var wire 1 ` enc_cmd_valid $end
$var wire 16 a enc_cmd_tag [15:0] $end
$var wire 1 b enc_cmd_ready $end
$var wire 16 c enc_cmd_beats [15:0] $end
$var wire 32 d enc_base_full_word [31:0] $end
$var wire 16 e br_mem_tag_full [15:0] $end
$var wire 1 f br_mem_rd_valid_full $end
$var wire 32 g br_full_word_addr [31:0] $end
$var parameter 32 h ADDR_W $end
$var parameter 32 i BANKS $end
$var parameter 32 j BANK_W $end
$var parameter 32 k BASE_ADDR_WORD $end
$var parameter 32 l FEAT_W $end
$var parameter 32 m MEM_W $end
$var parameter 32 n READ_LATENCY $end
$var parameter 32 o TAG_W $end
$var parameter 32 p TILES_X $end
$var parameter 32 q TILES_Y $end
$var parameter 1 r USE_RTAG $end
$var reg 32 s mem_addr [31:0] $end
$var reg 2 t mem_bank [1:0] $end
$var reg 1 $ mem_rd_valid $end
$var reg 16 u mem_tag [15:0] $end
$scope module u_br $end
$var wire 1 ; clk $end
$var wire 1 v cmd_fire $end
$var wire 1 < en $end
$var wire 1 @ feat_ready $end
$var wire 1 w go $end
$var wire 1 x mem_fire $end
$var wire 1 D mem_rd_ready $end
$var wire 64 y mem_rdata [63:0] $end
$var wire 16 z mem_rtag [15:0] $end
$var wire 1 G mem_rvalid $end
$var wire 1 { out_fire $end
$var wire 1 M rst $end
$var wire 1 ` cmd_valid $end
$var wire 16 | cmd_tag [15:0] $end
$var wire 16 } cmd_beats [15:0] $end
$var wire 32 ~ cmd_addr [31:0] $end
$var parameter 32 !" ADDR_W $end
$var parameter 32 "" BEATS_PER_FEAT $end
$var parameter 32 #" FEAT_W $end
$var parameter 32 $" LAT $end
$var parameter 32 %" MEM_W $end
$var parameter 32 &" READ_LATENCY $end
$var parameter 32 '" TAG_W $end
$var parameter 1 (" USE_RTAG $end
$var reg 32 )" base_addr_q [31:0] $end
$var reg 16 *" beats_q [15:0] $end
$var reg 1 b cmd_ready $end
$var reg 16 +" data_cnt_q [15:0] $end
$var reg 256 ," feat_buf_q [255:0] $end
$var reg 16 -" feat_tag [15:0] $end
$var reg 1 ( feat_valid $end
$var reg 256 ." feat_vec [255:0] $end
$var reg 32 /" issue_addr_q [31:0] $end
$var reg 16 0" issue_cnt_q [15:0] $end
$var reg 32 1" mem_addr [31:0] $end
$var reg 1 f mem_rd_valid $end
$var reg 16 2" mem_tag [15:0] $end
$var reg 2 3" st [1:0] $end
$var reg 2 4" st_n [1:0] $end
$var reg 16 5" tag_q [15:0] $end
$var integer 32 6" ii [31:0] $end
$upscope $end
$scope module u_enc $end
$var wire 1 ; clk $end
$var wire 1 < en $end
$var wire 1 7" go $end
$var wire 1 b mem_rd_ready $end
$var wire 1 8" pop $end
$var wire 1 9" push $end
$var wire 16 :" rd_tag [15:0] $end
$var wire 2 ;" rd_tile_i [1:0] $end
$var wire 3 <" rd_tile_j [2:0] $end
$var wire 1 L rd_valid $end
$var wire 1 M rst $end
$var parameter 32 =" BANKS $end
$var parameter 32 >" BANK_W $end
$var parameter 32 ?" BASE_ADDR_WORD $end
$var parameter 32 @" BEATS $end
$var parameter 32 A" FEAT_W $end
$var parameter 32 B" IW $end
$var parameter 32 C" JW $end
$var parameter 32 D" MEM_W $end
$var parameter 32 E" TAG_W $end
$var parameter 32 F" TILES_X $end
$var parameter 32 G" TILES_Y $end
$var parameter 32 H" WORDS_PER_TILE $end
$var reg 64 I" base_word [63:0] $end
$var reg 2 J" bi [1:0] $end
$var reg 3 K" bj [2:0] $end
$var reg 16 L" btag [15:0] $end
$var reg 1 M" full $end
$var reg 64 N" linear_idx [63:0] $end
$var reg 32 O" mem_addr [31:0] $end
$var reg 2 P" mem_bank [-1:0] $end
$var reg 16 Q" mem_beats [15:0] $end
$var reg 1 ` mem_rd_valid $end
$var reg 16 R" mem_tag [15:0] $end
$var reg 1 " rd_ready_in $end
$upscope $end
$upscope $end
$scope begin $unm_blk_78 $end
$var reg 64 S" got_fw [63:0] $end
$upscope $end
$scope begin wait_first_fire $end
$var integer 32 T" k [31:0] $end
$upscope $end
$scope task build_expected_feat $end
$var reg 64 U" base_full [63:0] $end
$var reg 256 V" exp [255:0] $end
$var integer 32 W" b [31:0] $end
$upscope $end
$scope task expect_eq_feat $end
$var reg 256 X" exp [255:0] $end
$var reg 256 Y" got [255:0] $end
$var reg 1600 Z" msg [1599:0] $end
$upscope $end
$scope task expect_eq_tag $end
$var reg 16 [" exp [15:0] $end
$var reg 16 \" got [15:0] $end
$var reg 1600 ]" msg [1599:0] $end
$upscope $end
$scope task fatal_msg $end
$var reg 1600 ^" msg [1599:0] $end
$upscope $end
$scope task q_pop $end
$var reg 64 _" fw [63:0] $end
$upscope $end
$scope task q_push $end
$var reg 64 `" fw [63:0] $end
$upscope $end
$scope task send_tile_req $end
$var reg 1 a" done $end
$var reg 16 b" tagv [15:0] $end
$var integer 32 c" k [31:0] $end
$var integer 32 d" ti [31:0] $end
$var integer 32 e" tj [31:0] $end
$upscope $end
$scope task wait_feat_fire $end
$var reg 1600 f" why [1599:0] $end
$var integer 32 g" k [31:0] $end
$upscope $end
$scope task wait_feat_valid $end
$var integer 32 h" k [31:0] $end
$upscope $end
$upscope $end
$enddefinitions $end
$comment Show the parameter values. $end
$dumpall
b100 H"
b100 G"
b1000 F"
b10000 E"
b1000000 D"
b11 C"
b10 B"
b100000000 A"
b100 @"
b1100100 ?"
b1 >"
b1 ="
0("
b10000 '"
b1 &"
b1000000 %"
b1 $"
b100000000 #"
b100 ""
b100000 !"
0r
b100 q
b1000 p
b10000 o
b1 n
b1000000 m
b100000000 l
b1100100 k
b10 j
b100 i
b100000 h
09
b1001110001000 8
b100 7
b1000 6
b10000 5
b1 4
b1000000 3
b1000000 2
b11 1
b10 0
b100000000 /
b100 .
b1100100 -
b10 ,
b100 +
b100000 *
$end
#0
$dumpvars
bx h"
bx g"
bx f"
b0 e"
b0 d"
bx c"
bx b"
xa"
bx `"
bx _"
bx ^"
bx ]"
bx \"
bx ["
bx Z"
bx Y"
bx X"
bx W"
bx V"
bx U"
bx T"
bx S"
b0 R"
b0 Q"
bx P"
bx O"
bx N"
xM"
bx L"
bx K"
bx J"
bx I"
b0 <"
b0 ;"
b0 :"
09"
08"
07"
bx 6"
bx 5"
b0 4"
bx 3"
b0 2"
b0 1"
bx 0"
bx /"
b0 ."
b0 -"
bx ,"
bx +"
bx *"
bx )"
bx ~
b0 }
b0 |
0{
bx z
bx y
0x
0w
0v
b0 u
b0 t
b0 s
b0 g
0f
b0 e
bx d
b0 c
0b
b0 a
0`
b0 _
b0 ^
b0 ]
b0 \
b0 [
bx Z
bx Y
bx X
bx W
bx V
bx U
b0 T
b0 S
b0 R
bx Q
bx P
bx O
bx N
1M
0L
b0 K
b0 J
b0 I
bx H
xG
bx F
bx E
1D
xC
bx B
bx A
1@
bx ?
bx >
bx =
0<
0;
0:
b0 )
0(
b0 '
b0 &
b0 %
0$
b0 #
0"
0!
$end
#5000
b1100100 d
b1100100 ~
b1100100 O"
b0 P"
b1100100 I"
b0 N"
b0 L"
b0 K"
b0 J"
0M"
b0 ,"
b0 /"
b0 +"
b0 0"
b0 5"
b0 *"
b0 )"
b0 3"
b0 =
0C
b0 N
b0 O
b0 P
b0 Q
b0 F
b0 Z
b0 z
b0 E
b0 Y
b0 y
0G
b10 6"
1;
#10000
0;
#15000
b10 6"
1;
#20000
0;
#25000
b10 6"
1;
#30000
0;
#35000
b10 6"
1;
#40000
0;
#45000
1b
b100 c
b100 }
b100 Q"
1"
1w
17"
b1010010110100101000000000000000000000000000000000101101011001001101001011010010100000000000000000000000000000000010110101100100010100101101001010000000000000000000000000000000001011010110010111010010110100101000000000000000000000000000000000101101011001010 >
b1010010110100101000000000000000000000000000000000101101011001001 V
b10010011 U
b100 W"
b1010010110100101000000000000000000000000000000000101101011001001101001011010010100000000000000000000000000000000010110101100100010100101101001010000000000000000000000000000000001011010110010111010010110100101000000000000000000000000000000000101101011001010 V"
b10010000 U"
b10010000 =
b1011 R
b1 S
b11 T
b1010000100000000 ?
0M
1<
1;
#50000
0@
0;
#55000
1;
#60000
b1010000100000000 b"
b11 e"
b1 d"
0;
#65000
1;
#70000
19"
b0 c"
0a"
1L
b1010000100000000 I
b1010000100000000 [
b1010000100000000 :"
b11 K
b11 ]
b11 <"
b1 J
b1 \
b1 ;"
0;
#75000
b1 4"
1v
18"
b10010000 d
b10010000 ~
b10010000 O"
19"
b10010000 I"
b1011 N"
b1010000100000000 a
b1010000100000000 |
b1010000100000000 R"
1`
1"
b1010000100000000 L"
b11 K"
b1 J"
1M"
1a"
1;
#80000
09"
b0 h"
0L
0;
#85000
1!
1x
b100100 &
b100100 s
b1010000100000000 #
b1010000100000000 u
1$
08"
0v
0`
b1010000100000000 )
b1010000100000000 _
b1010000100000000 -"
b1010000100000000 e
b1010000100000000 2"
b10010000 g
b10010000 1"
1f
0b
0M"
b10010000 /"
b1010000100000000 5"
b100 *"
b10010000 )"
b1 3"
b10 6"
b1 h"
1;
#90000
0;
#95000
b1 %
b1 t
b10010001 g
b10010001 1"
b1 N
1C
b10010001 /"
b1 0"
b1 O
b1 Q
b10010000 `"
b10010000 S"
b0 X
b100100 W
b10 h"
b10 6"
1;
#100000
0;
#105000
b10 %
b10 t
b10010010 g
b10010010 1"
b10 N
b1010000100000000 F
b1010000100000000 Z
b1010000100000000 z
b1010010110100101000000000000000000000000000000000101101011001010 E
b1010010110100101000000000000000000000000000000000101101011001010 Y
b1010010110100101000000000000000000000000000000000101101011001010 y
1G
b10010010 /"
b10 0"
b10 Q
b10010001 `"
b10010001 S"
b1 X
b1010010110100101000000000000000000000000000000000101101011001010 V
b10010000 U
b10010000 H
b1 O
b1 P
b10010000 _"
b10 6"
b11 h"
1;
#110000
0;
#115000
b11 %
b11 t
b1010010110100101000000000000000000000000000000000101101011001010 '
b1010010110100101000000000000000000000000000000000101101011001010 ^
b1010010110100101000000000000000000000000000000000101101011001010 ."
b10010011 g
b10010011 1"
b10 4"
b11 N
b1010010110100101000000000000000000000000000000000101101011001011 E
b1010010110100101000000000000000000000000000000000101101011001011 Y
b1010010110100101000000000000000000000000000000000101101011001011 y
b1 +"
b1010010110100101000000000000000000000000000000000101101011001010 ,"
b10010011 /"
b11 0"
1G
b11 Q
b10010010 `"
b10010010 S"
b10 X
b1010010110100101000000000000000000000000000000000101101011001011 V
b10010001 U
b10010001 H
b1 O
b10 P
b10010001 _"
b100 h"
b10 6"
1;
#120000
0;
#125000
0!
0x
b100101 &
b100101 s
b0 %
b0 t
0$
b10100101101001010000000000000000000000000000000001011010110010111010010110100101000000000000000000000000000000000101101011001010 '
b10100101101001010000000000000000000000000000000001011010110010111010010110100101000000000000000000000000000000000101101011001010 ^
b10100101101001010000000000000000000000000000000001011010110010111010010110100101000000000000000000000000000000000101101011001010 ."
b10010100 g
b10010100 1"
0f
0C
b100 N
b1010010110100101000000000000000000000000000000000101101011001000 E
b1010010110100101000000000000000000000000000000000101101011001000 Y
b1010010110100101000000000000000000000000000000000101101011001000 y
b10 +"
b10100101101001010000000000000000000000000000000001011010110010111010010110100101000000000000000000000000000000000101101011001010 ,"
b10010100 /"
b100 0"
b10 3"
1G
b100 Q
b10010011 `"
b10010011 S"
b11 X
b1010010110100101000000000000000000000000000000000101101011001000 V
b10010010 U
b10010010 H
b1 O
b11 P
b10010010 _"
b10 6"
b101 h"
1;
#130000
0;
#135000
b101001011010010100000000000000000000000000000000010110101100100010100101101001010000000000000000000000000000000001011010110010111010010110100101000000000000000000000000000000000101101011001010 '
b101001011010010100000000000000000000000000000000010110101100100010100101101001010000000000000000000000000000000001011010110010111010010110100101000000000000000000000000000000000101101011001010 ^
b101001011010010100000000000000000000000000000000010110101100100010100101101001010000000000000000000000000000000001011010110010111010010110100101000000000000000000000000000000000101101011001010 ."
b11 4"
b1010010110100101000000000000000000000000000000000101101011001001 E
b1010010110100101000000000000000000000000000000000101101011001001 Y
b1010010110100101000000000000000000000000000000000101101011001001 y
b11 +"
b101001011010010100000000000000000000000000000000010110101100100010100101101001010000000000000000000000000000000001011010110010111010010110100101000000000000000000000000000000000101101011001010 ,"
1G
b1010010110100101000000000000000000000000000000000101101011001001 V
b10010011 U
b10010011 H
b0 O
b100 P
b10010011 _"
b110 h"
1;
#140000
0;
#145000
b1010010110100101000000000000000000000000000000000101101011001001101001011010010100000000000000000000000000000000010110101100100010100101101001010000000000000000000000000000000001011010110010111010010110100101000000000000000000000000000000000101101011001010 '
b1010010110100101000000000000000000000000000000000101101011001001101001011010010100000000000000000000000000000000010110101100100010100101101001010000000000000000000000000000000001011010110010111010010110100101000000000000000000000000000000000101101011001010 ^
b1010010110100101000000000000000000000000000000000101101011001001101001011010010100000000000000000000000000000000010110101100100010100101101001010000000000000000000000000000000001011010110010111010010110100101000000000000000000000000000000000101101011001010 ."
1(
b100 +"
b1010010110100101000000000000000000000000000000000101101011001001101001011010010100000000000000000000000000000000010110101100100010100101101001010000000000000000000000000000000001011010110010111010010110100101000000000000000000000000000000000101101011001010 ,"
b11 3"
0G
b111 h"
1;
#150000
0;
#155000
b11000100110000101110011011010010110001100111010001000000110011001100101011000010111010001011111011101000110000101100111001000000110110101101001011100110110110101100001011101000110001101101000 ]"
b1010000100000000 ["
b1010000100000000 \"
b11000100110000101110011011010010110001100111010001000000110011001100101011000010111010001011111011101100110010101100011001000000110110101101001011100110110110101100001011101000110001101101000 Z"
b1010010110100101000000000000000000000000000000000101101011001001101001011010010100000000000000000000000000000000010110101100100010100101101001010000000000000000000000000000000001011010110010111010010110100101000000000000000000000000000000000101101011001010 X"
b1010010110100101000000000000000000000000000000000101101011001001101001011010010100000000000000000000000000000000010110101100100010100101101001010000000000000000000000000000000001011010110010111010010110100101000000000000000000000000000000000101101011001010 Y"
b1000 h"
1;
#160000
b0 4"
1{
b0 g"
b110001001100001011100110110100101100011 f"
1@
0;
#165000
0{
0(
1b
b0 3"
1;
#170000
b1010010110100101000000000000000000000000000000000101101011100001101001011010010100000000000000000000000000000000010110101110000010100101101001010000000000000000000000000000000001011010111000111010010110100101000000000000000000000000000000000101101011100010 >
b1010010110100101000000000000000000000000000000000101101011100001 V
b10111011 U
b100 W"
b1010010110100101000000000000000000000000000000000101101011100001101001011010010100000000000000000000000000000000010110101110000010100101101001010000000000000000000000000000000001011010111000111010010110100101000000000000000000000000000000000101101011100010 V"
b10111000 U"
b10111000 =
b10101 R
b10 S
b101 T
b1011111011101111 ?
0;
#175000
1;
#180000
0@
0;
#185000
1;
#190000
b1011111011101111 b"
b101 e"
b10 d"
b0 N
0;
#195000
1;
#200000
19"
0a"
1L
b1011111011101111 I
b1011111011101111 [
b1011111011101111 :"
b101 K
b101 ]
b101 <"
b10 J
b10 \
b10 ;"
0;
#205000
b1 4"
1v
18"
b10111000 d
b10111000 ~
b10111000 O"
19"
b10111000 I"
b10101 N"
b1011111011101111 a
b1011111011101111 |
b1011111011101111 R"
1`
1"
b1011111011101111 L"
b101 K"
b10 J"
1M"
1a"
1;
#210000
09"
b0 T"
0L
0;
#215000
1!
1x
b101110 &
b101110 s
b1011111011101111 #
b1011111011101111 u
1$
08"
0v
b1011111011101111 )
b1011111011101111 _
b1011111011101111 -"
b0 '
b0 ^
b0 ."
b1011111011101111 e
b1011111011101111 2"
b10111000 g
b10111000 1"
1f
0b
0`
b0 ,"
b10111000 /"
b0 +"
b0 0"
b1011111011101111 5"
b10111000 )"
b1 3"
0M"
b10 6"
b1 T"
1;
#220000
0;
#225000
b1 %
b1 t
b10111001 g
b10111001 1"
b1 N
1C
b10111001 /"
b1 0"
b1 O
b101 Q
b10111000 `"
b10111000 S"
b0 X
b101110 W
b10 T"
b10 6"
1;
#230000
0x
0!
0D
0;
#235000
b1011111011101111 F
b1011111011101111 Z
b1011111011101111 z
b1010010110100101000000000000000000000000000000000101101011100010 E
b1010010110100101000000000000000000000000000000000101101011100010 Y
b1010010110100101000000000000000000000000000000000101101011100010 y
1G
b1010010110100101000000000000000000000000000000000101101011100010 V
b10111000 U
b10111000 H
b0 O
b101 P
b10111000 _"
1;
#240000
0;
#245000
b1010010110100101000000000000000000000000000000000101101011100010 '
b1010010110100101000000000000000000000000000000000101101011100010 ^
b1010010110100101000000000000000000000000000000000101101011100010 ."
b1 +"
b1010010110100101000000000000000000000000000000000101101011100010 ,"
0G
1;
#250000
0;
#255000
1;
#260000
0;
#265000
1;
#270000
0;
#275000
1;
#280000
0;
#285000
1;
#290000
1x
1!
b0 h"
1D
0;
#295000
b10 %
b10 t
b10111010 g
b10111010 1"
b10 N
b10111010 /"
b10 0"
b1 O
b110 Q
b10111001 `"
b10111001 S"
b1 X
b10 6"
b1 h"
1;
#300000
0;
#305000
b11 %
b11 t
b10111011 g
b10111011 1"
b10 4"
b11 N
b1010010110100101000000000000000000000000000000000101101011100011 E
b1010010110100101000000000000000000000000000000000101101011100011 Y
b1010010110100101000000000000000000000000000000000101101011100011 y
1G
b10111011 /"
b11 0"
b111 Q
b10111010 `"
b10111010 S"
b10 X
b1010010110100101000000000000000000000000000000000101101011100011 V
b10111001 U
b10111001 H
b1 O
b110 P
b10111001 _"
b10 h"
b10 6"
1;
#310000
0;
#315000
0!
0x
b101111 &
b101111 s
b0 %
b0 t
0$
b10100101101001010000000000000000000000000000000001011010111000111010010110100101000000000000000000000000000000000101101011100010 '
b10100101101001010000000000000000000000000000000001011010111000111010010110100101000000000000000000000000000000000101101011100010 ^
b10100101101001010000000000000000000000000000000001011010111000111010010110100101000000000000000000000000000000000101101011100010 ."
b10111100 g
b10111100 1"
0f
0C
b100 N
b1010010110100101000000000000000000000000000000000101101011100000 E
b1010010110100101000000000000000000000000000000000101101011100000 Y
b1010010110100101000000000000000000000000000000000101101011100000 y
b10 +"
b10100101101001010000000000000000000000000000000001011010111000111010010110100101000000000000000000000000000000000101101011100010 ,"
b10111100 /"
b100 0"
b10 3"
1G
b1000 Q
b10111011 `"
b10111011 S"
b11 X
b1010010110100101000000000000000000000000000000000101101011100000 V
b10111010 U
b10111010 H
b1 O
b111 P
b10111010 _"
b10 6"
b11 h"
1;
#320000
0;
#325000
b101001011010010100000000000000000000000000000000010110101110000010100101101001010000000000000000000000000000000001011010111000111010010110100101000000000000000000000000000000000101101011100010 '
b101001011010010100000000000000000000000000000000010110101110000010100101101001010000000000000000000000000000000001011010111000111010010110100101000000000000000000000000000000000101101011100010 ^
b101001011010010100000000000000000000000000000000010110101110000010100101101001010000000000000000000000000000000001011010111000111010010110100101000000000000000000000000000000000101101011100010 ."
b11 4"
b1010010110100101000000000000000000000000000000000101101011100001 E
b1010010110100101000000000000000000000000000000000101101011100001 Y
b1010010110100101000000000000000000000000000000000101101011100001 y
b11 +"
b101001011010010100000000000000000000000000000000010110101110000010100101101001010000000000000000000000000000000001011010111000111010010110100101000000000000000000000000000000000101101011100010 ,"
1G
b1010010110100101000000000000000000000000000000000101101011100001 V
b10111011 U
b10111011 H
b0 O
b1000 P
b10111011 _"
b100 h"
1;
#330000
0;
#335000
b1010010110100101000000000000000000000000000000000101101011100001101001011010010100000000000000000000000000000000010110101110000010100101101001010000000000000000000000000000000001011010111000111010010110100101000000000000000000000000000000000101101011100010 '
b1010010110100101000000000000000000000000000000000101101011100001101001011010010100000000000000000000000000000000010110101110000010100101101001010000000000000000000000000000000001011010111000111010010110100101000000000000000000000000000000000101101011100010 ^
b1010010110100101000000000000000000000000000000000101101011100001101001011010010100000000000000000000000000000000010110101110000010100101101001010000000000000000000000000000000001011010111000111010010110100101000000000000000000000000000000000101101011100010 ."
1(
b100 +"
b1010010110100101000000000000000000000000000000000101101011100001101001011010010100000000000000000000000000000000010110101110000010100101101001010000000000000000000000000000000001011010111000111010010110100101000000000000000000000000000000000101101011100010 ,"
b11 3"
0G
b101 h"
1;
#340000
0;
#345000
b11100110111010001100001011011000110110000111010001000000110011001100101011000010111010001011111011101000110000101100111001000000110110101101001011100110110110101100001011101000110001101101000 ]"
b1011111011101111 ["
b1011111011101111 \"
b11100110111010001100001011011000110110000111010001000000110011001100101011000010111010001011111011101100110010101100011001000000110110101101001011100110110110101100001011101000110001101101000 Z"
b1010010110100101000000000000000000000000000000000101101011100001101001011010010100000000000000000000000000000000010110101110000010100101101001010000000000000000000000000000000001011010111000111010010110100101000000000000000000000000000000000101101011100010 X"
b1010010110100101000000000000000000000000000000000101101011100001101001011010010100000000000000000000000000000000010110101110000010100101101001010000000000000000000000000000000001011010111000111010010110100101000000000000000000000000000000000101101011100010 Y"
b110 h"
1;
#350000
b0 4"
1{
b111001101110100011000010110110001101100 f"
1@
0;
#355000
0{
0(
1b
b0 3"
1;
#360000
b1010010110100101000000000000000000000000000000000101101011011001101001011010010100000000000000000000000000000000010110101101100010100101101001010000000000000000000000000000000001011010110110111010010110100101000000000000000000000000000000000101101011011010 >
b1010010110100101000000000000000000000000000000000101101011011001 V
b10000011 U
b100 W"
b1010010110100101000000000000000000000000000000000101101011011001101001011010010100000000000000000000000000000000010110101101100010100101101001010000000000000000000000000000000001011010110110111010010110100101000000000000000000000000000000000101101011011010 V"
b10000000 U"
b10000000 =
b111 R
b0 S
b111 T
b1100101011111110 ?
0;
#365000
1;
#370000
0@
1:
0;
#375000
1;
#380000
b1100101011111110 b"
b111 e"
b0 d"
b0 N
0;
#385000
1;
#390000
19"
0a"
1L
b1100101011111110 I
b1100101011111110 [
b1100101011111110 :"
b111 K
b111 ]
b111 <"
b0 J
b0 \
b0 ;"
0;
#395000
b1 4"
1v
18"
b10000000 d
b10000000 ~
b10000000 O"
19"
b10000000 I"
b111 N"
b1100101011111110 a
b1100101011111110 |
b1100101011111110 R"
1`
1"
b1100101011111110 L"
b111 K"
b0 J"
1M"
1a"
1;
#400000
09"
b0 h"
0L
0;
#405000
1!
1x
b100000 &
b100000 s
b1100101011111110 #
b1100101011111110 u
1$
08"
0v
0`
b1100101011111110 )
b1100101011111110 _
b1100101011111110 -"
b0 '
b0 ^
b0 ."
b1100101011111110 e
b1100101011111110 2"
b10000000 g
b10000000 1"
1f
0b
0M"
b0 ,"
b10000000 /"
b0 +"
b0 0"
b1100101011111110 5"
b10000000 )"
b1 3"
b10 6"
b1 h"
1;
#410000
0;
#415000
b1 %
b1 t
b10000001 g
b10000001 1"
b1 N
1C
b10000001 /"
b1 0"
b1 O
b1001 Q
b10000000 `"
b10000000 S"
b0 X
b100000 W
b10 h"
b10 6"
1;
#420000
0;
#425000
b10 %
b10 t
b10000010 g
b10000010 1"
b10 N
b1100101011111110 F
b1100101011111110 Z
b1100101011111110 z
b1010010110100101000000000000000000000000000000000101101011011010 E
b1010010110100101000000000000000000000000000000000101101011011010 Y
b1010010110100101000000000000000000000000000000000101101011011010 y
1G
b10000010 /"
b10 0"
b1010 Q
b10000001 `"
b10000001 S"
b1 X
b1010010110100101000000000000000000000000000000000101101011011010 V
b10000000 U
b10000000 H
b1 O
b1001 P
b10000000 _"
b10 6"
b11 h"
1;
#430000
0;
#435000
b11 %
b11 t
b1010010110100101000000000000000000000000000000000101101011011010 '
b1010010110100101000000000000000000000000000000000101101011011010 ^
b1010010110100101000000000000000000000000000000000101101011011010 ."
b10000011 g
b10000011 1"
b10 4"
b11 N
b1010010110100101000000000000000000000000000000000101101011011011 E
b1010010110100101000000000000000000000000000000000101101011011011 Y
b1010010110100101000000000000000000000000000000000101101011011011 y
b1 +"
b1010010110100101000000000000000000000000000000000101101011011010 ,"
b10000011 /"
b11 0"
1G
b1011 Q
b10000010 `"
b10000010 S"
b10 X
b1010010110100101000000000000000000000000000000000101101011011011 V
b10000001 U
b10000001 H
b1 O
b1010 P
b10000001 _"
b100 h"
b10 6"
1;
#440000
0;
#445000
0!
0x
b100001 &
b100001 s
b0 %
b0 t
0$
b10100101101001010000000000000000000000000000000001011010110110111010010110100101000000000000000000000000000000000101101011011010 '
b10100101101001010000000000000000000000000000000001011010110110111010010110100101000000000000000000000000000000000101101011011010 ^
b10100101101001010000000000000000000000000000000001011010110110111010010110100101000000000000000000000000000000000101101011011010 ."
b10000100 g
b10000100 1"
0f
0C
b100 N
b10 +"
b10100101101001010000000000000000000000000000000001011010110110111010010110100101000000000000000000000000000000000101101011011010 ,"
b10000100 /"
b100 0"
b10 3"
0G
b10 O
b1100 Q
b10000011 `"
b10000011 S"
b11 X
b10 6"
b101 h"
1;
#450000
0;
#455000
b1010010110100101000000000000000000000000000000000101101011011000 E
b1010010110100101000000000000000000000000000000000101101011011000 Y
b1010010110100101000000000000000000000000000000000101101011011000 y
1G
b1010010110100101000000000000000000000000000000000101101011011000 V
b10000010 U
b10000010 H
b1 O
b1011 P
b10000010 _"
b110 h"
1;
#460000
0;
#465000
b101001011010010100000000000000000000000000000000010110101101100010100101101001010000000000000000000000000000000001011010110110111010010110100101000000000000000000000000000000000101101011011010 '
b101001011010010100000000000000000000000000000000010110101101100010100101101001010000000000000000000000000000000001011010110110111010010110100101000000000000000000000000000000000101101011011010 ^
b101001011010010100000000000000000000000000000000010110101101100010100101101001010000000000000000000000000000000001011010110110111010010110100101000000000000000000000000000000000101101011011010 ."
b11 +"
b101001011010010100000000000000000000000000000000010110101101100010100101101001010000000000000000000000000000000001011010110110111010010110100101000000000000000000000000000000000101101011011010 ,"
0G
b111 h"
1;
#470000
0;
#475000
b11 4"
b1010010110100101000000000000000000000000000000000101101011011001 E
b1010010110100101000000000000000000000000000000000101101011011001 Y
b1010010110100101000000000000000000000000000000000101101011011001 y
1G
b1010010110100101000000000000000000000000000000000101101011011001 V
b10000011 U
b10000011 H
b0 O
b1100 P
b10000011 _"
b1000 h"
1;
#480000
0;
#485000
b1010010110100101000000000000000000000000000000000101101011011001101001011010010100000000000000000000000000000000010110101101100010100101101001010000000000000000000000000000000001011010110110111010010110100101000000000000000000000000000000000101101011011010 '
b1010010110100101000000000000000000000000000000000101101011011001101001011010010100000000000000000000000000000000010110101101100010100101101001010000000000000000000000000000000001011010110110111010010110100101000000000000000000000000000000000101101011011010 ^
b1010010110100101000000000000000000000000000000000101101011011001101001011010010100000000000000000000000000000000010110101101100010100101101001010000000000000000000000000000000001011010110110111010010110100101000000000000000000000000000000000101101011011010 ."
1(
b100 +"
b1010010110100101000000000000000000000000000000000101101011011001101001011010010100000000000000000000000000000000010110101101100010100101101001010000000000000000000000000000000001011010110110111010010110100101000000000000000000000000000000000101101011011010 ,"
b11 3"
0G
b1001 h"
1;
#490000
0;
