tb_nb_fetch_scheduler_9req.vcd
$date
	Sun Feb  8 23:20:10 2026
$end
$version
	Icarus Verilog
$end
$timescale
	1ps
$end
$scope module tb_nb_fetch_scheduler_9req $end
$var wire 1 ! sched_done_pulse $end
$var wire 1 " sched_busy $end
$var wire 1 # rd_valid $end
$var wire 3 $ rd_tile_j [2:0] $end
$var wire 2 % rd_tile_i [1:0] $end
$var wire 16 & rd_tag [15:0] $end
$var wire 1 ' nb_ready $end
$var parameter 32 ( IDX_W $end
$var parameter 32 ) IW $end
$var parameter 32 * JW $end
$var parameter 32 + TAG_W $end
$var parameter 32 , TILES_X $end
$var parameter 32 - TILES_Y $end
$var reg 1 . b_accepted $end
$var reg 1 / clk $end
$var reg 1 0 done_seen $end
$var reg 1 1 en $end
$var reg 2 2 hold_i [1:0] $end
$var reg 3 3 hold_j [2:0] $end
$var reg 16 4 hold_tag [15:0] $end
$var reg 1 5 injected $end
$var reg 2 6 nb_i0 [1:0] $end
$var reg 2 7 nb_i1 [1:0] $end
$var reg 2 8 nb_i2 [1:0] $end
$var reg 2 9 nb_i3 [1:0] $end
$var reg 2 : nb_i4 [1:0] $end
$var reg 2 ; nb_i5 [1:0] $end
$var reg 2 < nb_i6 [1:0] $end
$var reg 2 = nb_i7 [1:0] $end
$var reg 2 > nb_i8 [1:0] $end
$var reg 3 ? nb_j0 [2:0] $end
$var reg 3 @ nb_j1 [2:0] $end
$var reg 3 A nb_j2 [2:0] $end
$var reg 3 B nb_j3 [2:0] $end
$var reg 3 C nb_j4 [2:0] $end
$var reg 3 D nb_j5 [2:0] $end
$var reg 3 E nb_j6 [2:0] $end
$var reg 3 F nb_j7 [2:0] $end
$var reg 3 G nb_j8 [2:0] $end
$var reg 16 H nb_tag [15:0] $end
$var reg 1 I nb_valid $end
$var reg 1 J rd_ready $end
$var reg 1 K rst $end
$var reg 16 L tag_A [15:0] $end
$var reg 16 M tag_B [15:0] $end
$var integer 32 N base_iA [31:0] $end
$var integer 32 O base_iB [31:0] $end
$var integer 32 P base_jA [31:0] $end
$var integer 32 Q base_jB [31:0] $end
$var integer 32 R cnt2 [31:0] $end
$var integer 32 S rr [31:0] $end
$var integer 32 T seen_cnt [31:0] $end
$var integer 32 U stall_cycles [31:0] $end
$var integer 32 V token [31:0] $end
$scope function pack_tag $end
$var reg 16 W base [15:0] $end
$var integer 32 X token [31:0] $end
$upscope $end
$scope module dut $end
$var wire 1 / clk $end
$var wire 1 1 en $end
$var wire 1 Y finishing_last $end
$var wire 1 Z go $end
$var wire 1 [ nb_fire $end
$var wire 2 \ nb_i0 [1:0] $end
$var wire 2 ] nb_i1 [1:0] $end
$var wire 2 ^ nb_i2 [1:0] $end
$var wire 2 _ nb_i3 [1:0] $end
$var wire 2 ` nb_i4 [1:0] $end
$var wire 2 a nb_i5 [1:0] $end
$var wire 2 b nb_i6 [1:0] $end
$var wire 2 c nb_i7 [1:0] $end
$var wire 2 d nb_i8 [1:0] $end
$var wire 3 e nb_j0 [2:0] $end
$var wire 3 f nb_j1 [2:0] $end
$var wire 3 g nb_j2 [2:0] $end
$var wire 3 h nb_j3 [2:0] $end
$var wire 3 i nb_j4 [2:0] $end
$var wire 3 j nb_j5 [2:0] $end
$var wire 3 k nb_j6 [2:0] $end
$var wire 3 l nb_j7 [2:0] $end
$var wire 3 m nb_j8 [2:0] $end
$var wire 16 n nb_tag [15:0] $end
$var wire 1 I nb_valid $end
$var wire 1 o rd_fire $end
$var wire 1 J rd_ready $end
$var wire 1 K rst $end
$var wire 16 p tag_packed [15:0] $end
$var parameter 32 q IDX_W $end
$var parameter 32 r IW $end
$var parameter 32 s JW $end
$var parameter 32 t TAG_W $end
$var parameter 32 u TILES_X $end
$var parameter 32 v TILES_Y $end
$var reg 2 w bi0 [1:0] $end
$var reg 2 x bi1 [1:0] $end
$var reg 2 y bi2 [1:0] $end
$var reg 2 z bi3 [1:0] $end
$var reg 2 { bi4 [1:0] $end
$var reg 2 | bi5 [1:0] $end
$var reg 2 } bi6 [1:0] $end
$var reg 2 ~ bi7 [1:0] $end
$var reg 2 !" bi8 [1:0] $end
$var reg 3 "" bj0 [2:0] $end
$var reg 3 #" bj1 [2:0] $end
$var reg 3 $" bj2 [2:0] $end
$var reg 3 %" bj3 [2:0] $end
$var reg 3 &" bj4 [2:0] $end
$var reg 3 '" bj5 [2:0] $end
$var reg 3 (" bj6 [2:0] $end
$var reg 3 )" bj7 [2:0] $end
$var reg 3 *" bj8 [2:0] $end
$var reg 16 +" btag [15:0] $end
$var reg 1 ," busy $end
$var reg 4 -" idx [3:0] $end
$var reg 1 ' nb_ready $end
$var reg 16 ." rd_tag [15:0] $end
$var reg 2 /" rd_tile_i [1:0] $end
$var reg 3 0" rd_tile_j [2:0] $end
$var reg 1 # rd_valid $end
$var reg 1 " sched_busy $end
$var reg 1 ! sched_done_pulse $end
$upscope $end
$scope task calc_bundle_exp $end
$var integer 32 1" base_i [31:0] $end
$var integer 32 2" base_j [31:0] $end
$var integer 32 3" oi0 [31:0] $end
$var integer 32 4" oi1 [31:0] $end
$var integer 32 5" oi2 [31:0] $end
$var integer 32 6" oi3 [31:0] $end
$var integer 32 7" oi4 [31:0] $end
$var integer 32 8" oi5 [31:0] $end
$var integer 32 9" oi6 [31:0] $end
$var integer 32 :" oi7 [31:0] $end
$var integer 32 ;" oi8 [31:0] $end
$var integer 32 <" oj0 [31:0] $end
$var integer 32 =" oj1 [31:0] $end
$var integer 32 >" oj2 [31:0] $end
$var integer 32 ?" oj3 [31:0] $end
$var integer 32 @" oj4 [31:0] $end
$var integer 32 A" oj5 [31:0] $end
$var integer 32 B" oj6 [31:0] $end
$var integer 32 C" oj7 [31:0] $end
$var integer 32 D" oj8 [31:0] $end
$upscope $end
$scope task consume_9req_check $end
$var reg 16 E" base_tag [15:0] $end
$upscope $end
$scope task expect_eq_hex $end
$var reg 16 F" exp [15:0] $end
$var reg 16 G" got [15:0] $end
$var reg 1600 H" msg [1599:0] $end
$upscope $end
$scope task expect_eq_int $end
$var reg 1600 I" msg [1599:0] $end
$var integer 32 J" exp [31:0] $end
$var integer 32 K" got [31:0] $end
$upscope $end
$scope task expect_rd_held $end
$var reg 1600 L" msg [1599:0] $end
$upscope $end
$scope task fatal_msg $end
$var reg 1600 M" msg [1599:0] $end
$upscope $end
$scope task load_bundle_values $end
$var integer 32 N" base_i [31:0] $end
$var integer 32 O" base_j [31:0] $end
$var integer 32 P" t0 [31:0] $end
$var integer 32 Q" t1 [31:0] $end
$var integer 32 R" t2 [31:0] $end
$var integer 32 S" t3 [31:0] $end
$var integer 32 T" t4 [31:0] $end
$var integer 32 U" t5 [31:0] $end
$var integer 32 V" t6 [31:0] $end
$var integer 32 W" t7 [31:0] $end
$var integer 32 X" t8 [31:0] $end
$var integer 32 Y" u0 [31:0] $end
$var integer 32 Z" u1 [31:0] $end
$var integer 32 [" u2 [31:0] $end
$var integer 32 \" u3 [31:0] $end
$var integer 32 ]" u4 [31:0] $end
$var integer 32 ^" u5 [31:0] $end
$var integer 32 _" u6 [31:0] $end
$var integer 32 `" u7 [31:0] $end
$var integer 32 a" u8 [31:0] $end
$upscope $end
$scope task prep_next_bundle_only $end
$var integer 32 b" base_i [31:0] $end
$var integer 32 c" base_j [31:0] $end
$var integer 32 d" t0 [31:0] $end
$var integer 32 e" t1 [31:0] $end
$var integer 32 f" t2 [31:0] $end
$var integer 32 g" t3 [31:0] $end
$var integer 32 h" t4 [31:0] $end
$var integer 32 i" t5 [31:0] $end
$var integer 32 j" t6 [31:0] $end
$var integer 32 k" t7 [31:0] $end
$var integer 32 l" t8 [31:0] $end
$var integer 32 m" u0 [31:0] $end
$var integer 32 n" u1 [31:0] $end
$var integer 32 o" u2 [31:0] $end
$var integer 32 p" u3 [31:0] $end
$var integer 32 q" u4 [31:0] $end
$var integer 32 r" u5 [31:0] $end
$var integer 32 s" u6 [31:0] $end
$var integer 32 t" u7 [31:0] $end
$var integer 32 u" u8 [31:0] $end
$upscope $end
$scope task send_bundle $end
$var reg 16 v" tag_in [15:0] $end
$upscope $end
$scope task snap_rd $end
$upscope $end
$scope task wait_busy_drop $end
$var reg 1600 w" msg [1599:0] $end
$var integer 32 x" k [31:0] $end
$var integer 32 y" max_cycles [31:0] $end
$upscope $end
$upscope $end
$enddefinitions $end
$comment Show the parameter values. $end
$dumpall
b100 v
b1000 u
b10000 t
b11 s
b10 r
b100 q
b100 -
b1000 ,
b10000 +
b11 *
b10 )
b100 (
$end
#0
$dumpvars
bx y"
bx x"
bx w"
bx v"
bx u"
bx t"
bx s"
bx r"
bx q"
bx p"
bx o"
bx n"
bx m"
bx l"
bx k"
bx j"
bx i"
bx h"
bx g"
bx f"
bx e"
bx d"
bx c"
bx b"
bx a"
bx `"
bx _"
bx ^"
bx ]"
bx \"
bx ["
bx Z"
bx Y"
bx X"
bx W"
bx V"
bx U"
bx T"
bx S"
bx R"
bx Q"
bx P"
bx O"
bx N"
bx M"
bx L"
bx K"
bx J"
bx I"
bx H"
bx G"
bx F"
bx E"
bx D"
bx C"
bx B"
bx A"
bx @"
bx ?"
bx >"
bx ="
bx <"
bx ;"
bx :"
bx 9"
bx 8"
bx 7"
bx 6"
bx 5"
bx 4"
bx 3"
bx 2"
bx 1"
bx 0"
bx /"
bx ."
bx -"
x,"
bx +"
bx *"
bx )"
bx ("
bx '"
bx &"
bx %"
bx $"
bx #"
bx ""
bx !"
bx ~
bx }
bx |
bx {
bx z
bx y
bx x
bx w
bx p
0o
b0 n
b0 m
b0 l
b0 k
b0 j
b0 i
b0 h
b0 g
b0 f
b0 e
b0 d
b0 c
b0 b
b0 a
b0 `
b0 _
b0 ^
b0 ]
b0 \
0[
0Z
0Y
bx X
bx W
bx V
bx U
bx T
bx S
bx R
bx Q
bx P
bx O
bx N
bx M
bx L
1K
0J
0I
b0 H
b0 G
b0 F
b0 E
b0 D
b0 C
b0 B
b0 A
b0 @
b0 ?
b0 >
b0 =
b0 <
b0 ;
b0 :
b0 9
b0 8
b0 7
b0 6
x5
bx 4
bx 3
bx 2
01
x0
0/
x.
0'
bx &
bx %
bx $
0#
0"
0!
$end
#5000
b0 &
b0 ."
b0 $
b0 0"
b0 %
b0 /"
b0 +"
b0 *"
b0 !"
b0 )"
b0 ~
b0 ("
b0 }
b0 '"
b0 |
b0 &"
b0 {
b0 %"
b0 z
b0 $"
b0 y
b0 #"
b0 x
b0 ""
b0 w
b0 p
b0 -"
0,"
1/
#10000
0/
#15000
1/
#20000
0/
#25000
1/
#30000
0/
#35000
1/
#40000
0/
#45000
1'
1Z
b1010010111000000 v"
b1010010111000000 L
b10 G
b10 m
b10 >
b10 d
b1 F
b1 l
b10 =
b10 c
b10 <
b10 b
b10 D
b10 j
b1 ;
b1 a
b1 C
b1 i
b1 :
b1 `
b1 9
b1 _
b10 A
b10 g
b1 @
b1 f
b10 a"
b10 X"
b1 `"
b10 W"
b0 _"
b10 V"
b10 ^"
b1 U"
b1 ]"
b1 T"
b0 \"
b1 S"
b10 ["
b0 R"
b1 Z"
b0 Q"
b0 Y"
b0 P"
b10 D"
b10 ;"
b1 C"
b10 :"
b0 B"
b10 9"
b10 A"
b1 8"
b1 @"
b1 7"
b0 ?"
b1 6"
b10 >"
b0 5"
b1 ="
b0 4"
b0 <"
b0 3"
b0 2"
b0 1"
b0 O"
b0 N"
0K
11
1/
#50000
1[
1I
b1010010111000000 H
b1010010111000000 n
0/
#55000
0[
b1010010111000000 &
b1010010111000000 ."
1#
1"
0'
b1010010111000000 p
1,"
b1010010111000000 +"
b10 *"
b10 !"
b1 )"
b10 ~
b10 }
b10 '"
b1 |
b1 &"
b1 {
b1 z
b10 $"
b1 #"
1/
#60000
0I
0/
#65000
1/
#70000
0/
#75000
00
b0 U
b0 T
b1010010111000000 E"
1/
#80000
0/
#85000
b1 U
b1010010111000000 4
b0 3
b0 2
b10010000101010011010100100100 S
1/
#90000
0/
#95000
1o
1J
b10 U
b1110011011101000110000101101100011011000010000001101000011011110110110001100100 L"
b11000000100010010101111010000001 S
1/
#100000
0/
#105000
b1 $
b1 0"
b1010010111000001 &
b1010010111000001 ."
b1010010111000001 p
b1 -"
b1 T
b11100100110010001011111011101000110000101100111001000000110110101101001011100110110110101100001011101000110001101101000 H"
b1010010111000000 F"
b1010010111000000 W
b0 X
b1010010111000000 G"
b11100100110010001011111011101000110100101101100011001010101111101101010001000000110110101101001011100110110110101100001011101000110001101101000 I"
b0 J"
b0 K"
b0 V
b0 U
b10000100100001001101011000001001 S
1/
#110000
0/
#115000
b10 $
b10 0"
b1010010111000010 &
b1010010111000010 ."
b1010010111000010 p
b10 -"
b10 T
b1010010111000001 F"
b1 X
b1010010111000001 G"
b1 J"
b1 K"
b11100100110010001011111011101000110100101101100011001010101111101101010001000000110110101101001011100110110110101100001011101000110001101101000 I"
b1 V
b10110001111100000101011001100011 S
1/
#120000
0/
#125000
b1 %
b1 /"
b0 $
b0 0"
b1010010111000011 &
b1010010111000011 ."
0o
b1010010111000011 p
b11 -"
0J
b11 T
b1010010111000010 F"
b10 X
b1010010111000010 G"
b11100100110010001011111011101000110100101101100011001010101111101101010001000000110110101101001011100110110110101100001011101000110001101101000 I"
b10 J"
b10 K"
b10 V
b110101110010111101100001101 S
1/
#130000
0/
#135000
b1 U
b1010010111000011 4
b1 2
b1000110110111111001100110001101 S
1/
#140000
0/
#145000
1o
1J
b10 U
b10110010110000101000010001100101 S
1/
#150000
0/
#155000
b1 $
b1 0"
b1 %
b1 /"
b1010010111000100 &
b1010010111000100 ."
b1010010111000100 p
b100 -"
b100 T
b1010010111000011 F"
b11 X
b1010010111000011 G"
b11100100110010001011111011101000110100101101100011001010101111101101010001000000110110101101001011100110110110101100001011101000110001101101000 I"
b0 J"
b0 K"
b11 V
b0 U
b10001001001101110101001000010010 S
1/
#160000
0/
#165000
b10 $
b10 0"
b1 %
b1 /"
b1010010111000101 &
b1010010111000101 ."
b1010010111000101 p
b101 -"
b101 T
b1010010111000100 F"
b100 X
b1010010111000100 G"
b11100100110010001011111011101000110100101101100011001010101111101101010001000000110110101101001011100110110110101100001011101000110001101101000 I"
b1 J"
b1 K"
b100 V
b111100111110001100000001 S
1/
#170000
0/
#175000
b0 $
b0 0"
b10 %
b10 /"
b1010010111000110 &
b1010010111000110 ."
0o
b1010010111000110 p
b110 -"
0J
b110 T
b1010010111000101 F"
b101 X
b1010010111000101 G"
b10 J"
b10 K"
b11100100110010001011111011101000110100101101100011001010101111101101010001000000110110101101001011100110110110101100001011101000110001101101000 I"
b101 V
b110110101111100110100001101 S
1/
#180000
0/
#185000
b1 U
b1010010111000110 4
b10 2
b111011001000111111000101110110 S
1/
#190000
0/
#195000
b10 U
b11110100011011100110100111101 S
1/
#200000
0/
#205000
b11 U
b1110110110101000101011111101101 S
1/
#210000
0/
#215000
1o
1J
b100 U
b1000110001011011111011110001100 S
1/
#220000
0/
#225000
b1 $
b1 0"
b10 %
b10 /"
b1010010111000111 &
b1010010111000111 ."
0o
b1010010111000111 p
b111 -"
0J
b111 T
b1010010111000110 F"
b110 X
b1010010111000110 G"
b0 J"
b0 K"
b11100100110010001011111011101000110100101101100011001010101111101101010001000000110110101101001011100110110110101100001011101000110001101101000 I"
b110 V
b0 U
b1111100111111011110100111111001 S
1/
#230000
0/
#235000
1o
1J
b1 U
b1010010111000111 4
b1 3
b11100011001101110010010011000110 S
1/
#240000
0/
#245000
1'
1!
b10 $
b10 0"
b10 %
b10 /"
1Y
b1010010111001000 &
b1010010111001000 ."
b1010010111001000 p
b1000 -"
b1000 T
b1010010111000111 F"
b111 X
b1010010111000111 G"
b11100100110010001011111011101000110100101101100011001010101111101101010001000000110110101101001011100110110110101100001011101000110001101101000 I"
b1 J"
b1 K"
b111 V
b0 U
b11100010111101111000010011000101 S
1/
#250000
0/
#255000
0o
0Y
b1010010111000000 &
b1010010111000000 ."
0!
0"
0#
b0 $
b0 0"
b0 %
b0 /"
0J
b1010010111000000 p
b0 -"
0,"
b0 x"
b110000101100110011101000110010101110010001000000110001001110101011011100110010001101100011001010010000001000001 w"
b110010 y"
b1001 T
b1010010111001000 F"
b1000 X
b1010010111001000 G"
b11100100110010001011111011101000110100101101100011001010101111101101010001000000110110101101001011100110110110101100001011101000110001101101000 I"
b10 J"
b10 K"
b1000 V
b0 S
10
1/
#260000
0/
#265000
b1001000110000 v"
b100 G
b100 m
b11 >
b11 d
b11 F
b11 l
b11 =
b11 c
b10 E
b10 k
b11 <
b11 b
b100 D
b100 j
b10 ;
b10 a
b11 C
b11 i
b10 :
b10 `
b10 B
b10 h
b10 9
b10 _
b100 A
b100 g
b1 8
b1 ^
b11 @
b11 f
b1 7
b1 ]
b10 ?
b10 e
b1 6
b1 \
b100 a"
b11 X"
b11 `"
b11 W"
b10 _"
b11 V"
b100 ^"
b10 U"
b11 ]"
b10 T"
b10 \"
b10 S"
b100 ["
b1 R"
b11 Z"
b1 Q"
b10 Y"
b1 P"
b100 D"
b11 ;"
b11 C"
b11 :"
b10 B"
b11 9"
b100 A"
b10 8"
b11 @"
b10 7"
b10 ?"
b10 6"
b100 >"
b1 5"
b11 ="
b1 4"
b10 <"
b1 3"
b10 2"
b1 1"
b10 O"
b1 N"
b101010111110000 M
b100 Q
b10 O
b1001000110000 L
b10 P
b1 N
b1 x"
1/
#270000
1[
1I
b1001000110000 H
b1001000110000 n
0/
#275000
0[
b1001000110000 &
b1001000110000 ."
1#
1"
0'
b1001000110000 p
b10 $
b10 0"
b1 %
b1 /"
1,"
b1001000110000 +"
b100 *"
b11 !"
b11 )"
b11 ~
b10 ("
b11 }
b100 '"
b10 |
b11 &"
b10 {
b10 %"
b10 z
b100 $"
b1 y
b11 #"
b1 x
b10 ""
b1 w
1/
#280000
00
b0 T
0.
05
0I
0/
#285000
1o
1J
b1 U
b1001000110000 4
b10 3
b1 2
b1110010101011111111011111100101 S
1/
#290000
0/
#295000
b11 $
b11 0"
b1 %
b1 /"
b1001000110001 &
b1001000110001 ."
b1001000110001 p
b1 -"
b1 T
b1100010001100100110001000101000010000010010100100100000011100100110010001011111011101000110000101100111001000000110110101101001011100110110110101100001011101000110001101101000 H"
b1001000110000 F"
b1001000110000 W
b0 X
b1001000110000 G"
b1100010001100100110001000101000010000010010100100100000011100100110010001011111011101000110100101101100011001010101111101101010001000000110110101101001011100110110110101100001011101000110001101101000 I"
b10 J"
b10 K"
b0 V
b0 U
b10111011110100100111001001110111 S
1/
#300000
0/
#305000
b100 $
b100 0"
b1 %
b1 /"
b1001000110010 &
b1001000110010 ."
b1001000110010 p
b10 -"
b10 T
b1001000110001 F"
b1 X
b1001000110001 G"
b1100010001100100110001000101000010000010010100100100000011100100110010001011111011101000110100101101100011001010101111101101010001000000110110101101001011100110110110101100001011101000110001101101000 I"
b11 J"
b11 K"
b1 V
b10001001001100101101011000010010 S
1/
#310000
0/
#315000
b10 $
b10 0"
b10 %
b10 /"
b1001000110011 &
b1001000110011 ."
0o
b1001000110011 p
b11 -"
0J
b11 T
b1001000110010 F"
b10 X
b1001000110010 G"
b1100010001100100110001000101000010000010010100100100000011100100110010001011111011101000110100101101100011001010101111101101010001000000110110101101001011100110110110101100001011101000110001101101000 I"
b100 J"
b100 K"
b10 V
b1000111111011001101101110001111 S
1/
#320000
0/
#325000
1o
1J
b1 U
b1001000110011 4
b10 2
b1111001001100000110100111110010 S
1/
#330000
0/
#335000
b11 $
b11 0"
b10 %
b10 /"
b1001000110100 &
b1001000110100 ."
b1001000110100 p
b100 -"
b100 T
b1001000110011 F"
b11 X
b1001000110011 G"
b1100010001100100110001000101000010000010010100100100000011100100110010001011111011101000110100101101100011001010101111101101010001000000110110101101001011100110110110101100001011101000110001101101000 I"
b10 J"
b10 K"
b11 V
b0 U
b11100111011101101001011011001110 S
1/
#340000
0/
#345000
b100 $
b100 0"
b10 %
b10 /"
b1001000110101 &
b1001000110101 ."
b1001000110101 p
b101 -"
b101 T
b1001000110100 F"
b100 X
b1001000110100 G"
b11 J"
b11 K"
b1100010001100100110001000101000010000010010100100100000011100100110010001011111011101000110100101101100011001010101111101101010001000000110110101101001011100110110110101100001011101000110001101101000 I"
b100 V
b11110100000000000111101011101000 S
1/
#350000
0/
#355000
b10 $
b10 0"
b11 %
b11 /"
b1001000110110 &
b1001000110110 ."
b1001000110110 p
b110 -"
b110 T
b1001000110101 F"
b101 X
b1001000110101 G"
b1100010001100100110001000101000010000010010100100100000011100100110010001011111011101000110100101101100011001010101111101101010001000000110110101101001011100110110110101100001011101000110001101101000 I"
b100 J"
b100 K"
b101 V
b11100010110010100100111011000101 S
1/
#360000
0/
#365000
b11 $
b11 0"
b11 %
b11 /"
b1001000110111 &
b1001000110111 ."
b1001000110111 p
b111 -"
b110 G
b110 m
b0 >
b0 d
b101 F
b101 l
b0 =
b0 c
b100 E
b100 k
b0 <
b0 b
b110 D
b110 j
b11 ;
b11 a
b101 C
b101 i
b11 :
b11 `
b100 B
b100 h
b11 9
b11 _
b110 A
b110 g
b10 8
b10 ^
b101 @
b101 f
b10 7
b10 ]
b100 ?
b100 e
b10 6
b10 \
b110 u"
b0 l"
b101 t"
b0 k"
b100 s"
b0 j"
b110 r"
b11 i"
b101 q"
b11 h"
b100 p"
b11 g"
b110 o"
b10 f"
b101 n"
b10 e"
b100 m"
b10 d"
b110 D"
b0 ;"
b101 C"
b0 :"
b100 B"
b0 9"
b110 A"
b11 8"
b101 @"
b11 7"
b100 ?"
b11 6"
b110 >"
b10 5"
b101 ="
b10 4"
b100 <"
b10 3"
b100 2"
b10 1"
b100 c"
b10 b"
b111 T
b1001000110110 F"
b110 X
b1001000110110 G"
b1100010001100100110001000101000010000010010100100100000011100100110010001011111011101000110100101101100011001010101111101101010001000000110110101101001011100110110110101100001011101000110001101101000 I"
b10 J"
b10 K"
b110 V
b101110010110000100100101011100 S
1/
#370000
15
1I
b101010111110000 H
b101010111110000 n
0/
#375000
1[
1'
1!
b100 $
b100 0"
b11 %
b11 /"
1Y
b1001000111000 &
b1001000111000 ."
b1001000111000 p
b1000 -"
b1000 T
b1001000110111 F"
b111 X
b1001000110111 G"
b1100010001100100110001000101000010000010010100100100000011100100110010001011111011101000110100101101100011001010101111101101010001000000110110101101001011100110110110101100001011101000110001101101000 I"
b11 J"
b11 K"
b111 V
b11011110100011100010100010111101 S
1/
#380000
0/
#385000
0[
0'
0Y
b101010111110000 &
b101010111110000 ."
0!
b100 $
b100 0"
b10 %
b10 /"
b101010111110000 +"
b110 *"
b0 !"
b101 )"
b0 ~
b100 ("
b0 }
b110 '"
b11 |
b101 &"
b11 {
b100 %"
b11 z
b110 $"
b10 y
b101 #"
b10 x
b100 ""
b10 w
b101010111110000 p
b0 -"
1,"
1.
b1001 T
b1001000111000 F"
b1000 X
b1001000111000 G"
b100 J"
b100 K"
b1100010001100100110001000101000010000010010100100100000011100100110010001011111011101000110100101101100011001010101111101101010001000000110110101101001011100110110110101100001011101000110001101101000 I"
b1000 V
b10010110101010110101100000101101 S
10
1/
#390000
0o
0J
b0 S
0I
0/
#395000
1/
#400000
0/
#405000
00
b0 T
b101010111110000 E"
b1001 R
1/
#410000
0/
#415000
1o
1J
b1 U
b101010111110000 4
b100 3
b10110010101001110010011001100101 S
1/
#420000
0/
#425000
b101 $
b101 0"
b10 %
b10 /"
b101010111110001 &
b101010111110001 ."
b101010111110001 p
b1 -"
b1 T
b11100100110010001011111011101000110000101100111001000000110110101101001011100110110110101100001011101000110001101101000 H"
b101010111110000 F"
b101010111110000 W
b0 X
b101010111110000 G"
b11100100110010001011111011101000110100101101100011001010101111101101010001000000110110101101001011100110110110101100001011101000110001101101000 I"
b100 J"
b100 K"
b0 V
b0 U
b10110001111011110110001001100011 S
1/
#430000
0/
#435000
b110 $
b110 0"
b10 %
b10 /"
b101010111110010 &
b101010111110010 ."
b101010111110010 p
b10 -"
b10 T
b101010111110001 F"
b1 X
b101010111110001 G"
b11100100110010001011111011101000110100101101100011001010101111101101010001000000110110101101001011100110110110101100001011101000110001101101000 I"
b101 J"
b101 K"
b1 V
b101011100111000011100001010 S
1/
#440000
0/
#445000
b100 $
b100 0"
b11 %
b11 /"
b101010111110011 &
b101010111110011 ."
b101010111110011 p
b11 -"
b11 T
b101010111110010 F"
b10 X
b101010111110010 G"
b11100100110010001011111011101000110100101101100011001010101111101101010001000000110110101101001011100110110110101100001011101000110001101101000 I"
b110 J"
b110 K"
b10 V
b11000000001110110010001010000000 S
1/
#450000
0/
#455000
b101 $
b101 0"
b11 %
b11 /"
b101010111110100 &
b101010111110100 ."
0o
b101010111110100 p
b100 -"
0J
b100 T
b101010111110011 F"
b11 X
b101010111110011 G"
b11100100110010001011111011101000110100101101100011001010101111101101010001000000110110101101001011100110110110101100001011101000110001101101000 I"
b100 J"
b100 K"
b11 V
b10000011001000010000100100000 S
1/
#460000
0/
#465000
1o
1J
b1 U
b101010111110100 4
b101 3
b11 2
b1010101011110000100010110101010 S
1/
#470000
0/
#475000
b110 $
b110 0"
b11 %
b11 /"
b101010111110101 &
b101010111110101 ."
b101010111110101 p
b101 -"
b101 T
b101010111110100 F"
b100 X
b101010111110100 G"
b11100100110010001011111011101000110100101101100011001010101111101101010001000000110110101101001011100110110110101100001011101000110001101101000 I"
b101 J"
b101 K"
b100 V
b0 U
b11001110110011001100110010011101 S
1/
#480000
0/
#485000
b100 $
b100 0"
b0 %
b0 /"
b101010111110110 &
b101010111110110 ."
b101010111110110 p
b110 -"
b110 T
b101010111110101 F"
b101 X
b101010111110101 G"
b11100100110010001011111011101000110100101101100011001010101111101101010001000000110110101101001011100110110110101100001011101000110001101101000 I"
b110 J"
b110 K"
b101 V
b11001011001000000011111010010110 S
1/
#490000
0/
#495000
b101 $
b101 0"
b101010111110111 &
b101010111110111 ."
b101010111110111 p
b111 -"
b111 T
b101010111110110 F"
b110 X
b101010111110110 G"
b11100100110010001011111011101000110100101101100011001010101111101101010001000000110110101101001011100110110110101100001011101000110001101101000 I"
b100 J"
b100 K"
b110 V
b10001001100000111011100000010011 S
1/
#500000
0/
#505000
1'
1!
b110 $
b110 0"
1Y
b101010111111000 &
b101010111111000 ."
b101010111111000 p
b1000 -"
b1000 T
b101010111110111 F"
b111 X
b101010111110111 G"
b11100100110010001011111011101000110100101101100011001010101111101101010001000000110110101101001011100110110110101100001011101000110001101101000 I"
b101 J"
b101 K"
b111 V
b10000110101111000011100000001101 S
1/
#510000
0/
#515000
0o
0Y
b101010111110000 &
b101010111110000 ."
0!
0#
0"
b0 $
b0 0"
0J
b101010111110000 p
b0 -"
0,"
b0 x"
b110000101100110011101000110010101110010001000000110001001110101011011100110010001101100011001010010000001000010 w"
b1001 T
b101010111111000 F"
b1000 X
b101010111111000 G"
b11100100110010001011111011101000110100101101100011001010101111101101010001000000110110101101001011100110110110101100001011101000110001101101000 I"
b110 J"
b110 K"
b1000 V
b0 S
10
1/
#520000
0/
#525000
b1 x"
1/
