tb_sync_edge_top.vcd
$date
	Tue Jan 27 14:23:53 2026
$end
$version
	Icarus Verilog
$end
$timescale
	1ps
$end
$scope module tb_sync_edge_top $end
$var wire 1 ! vs1_rise $end
$var wire 1 " vs1_fall $end
$var wire 1 # vs1 $end
$var wire 1 $ vs0_rise $end
$var wire 1 % vs0_fall $end
$var wire 1 & vs0 $end
$var wire 1 ' hs1_rise $end
$var wire 1 ( hs1_fall $end
$var wire 1 ) hs1 $end
$var wire 1 * hs0_rise $end
$var wire 1 + hs0_fall $end
$var wire 1 , hs0 $end
$var wire 1 - de1_rise $end
$var wire 1 . de1_fall $end
$var wire 1 / de1 $end
$var wire 1 0 de0_rise $end
$var wire 1 1 de0_fall $end
$var wire 1 2 de0 $end
$var reg 1 3 clk $end
$var reg 1 4 de0_prev1 $end
$var reg 1 5 de0_prev2 $end
$var reg 1 6 de_d1 $end
$var reg 1 7 de_d2 $end
$var reg 1 8 de_i $end
$var reg 1 9 exp_de_fall $end
$var reg 1 : exp_de_rise $end
$var reg 1 ; exp_hs_fall $end
$var reg 1 < exp_hs_rise $end
$var reg 1 = exp_vs_fall $end
$var reg 1 > exp_vs_rise $end
$var reg 1 ? hs0_prev1 $end
$var reg 1 @ hs0_prev2 $end
$var reg 1 A hs_d1 $end
$var reg 1 B hs_d2 $end
$var reg 1 C hsync_i $end
$var reg 1 D rst $end
$var reg 1 E vs0_prev1 $end
$var reg 1 F vs0_prev2 $end
$var reg 1 G vs_d1 $end
$var reg 1 H vs_d2 $end
$var reg 1 I vsync_i $end
$scope module u_filter $end
$var wire 1 3 clk $end
$var wire 1 8 de_i $end
$var wire 1 C hsync_i $end
$var wire 1 D rst $end
$var wire 1 I vsync_i $end
$var wire 1 # vsync $end
$var wire 1 ! vs_rise $end
$var wire 1 " vs_fall $end
$var wire 1 ) hsync $end
$var wire 1 ' hs_rise $end
$var wire 1 ( hs_fall $end
$var wire 1 - de_rise $end
$var wire 1 . de_fall $end
$var wire 1 / de $end
$var parameter 1 J DE_INV $end
$var parameter 1 K HS_INV $end
$var parameter 32 L STABLE_CYCLES $end
$var parameter 1 M USE_DEGLITCH $end
$var parameter 1 N VS_INV $end
$scope module u_edge $end
$var wire 1 3 clk $end
$var wire 1 D rst $end
$var wire 1 # vsync $end
$var wire 1 ) hsync $end
$var wire 1 / de $end
$var reg 1 O de_d $end
$var reg 1 . de_fall $end
$var reg 1 - de_rise $end
$var reg 1 P hs_d $end
$var reg 1 ( hs_fall $end
$var reg 1 ' hs_rise $end
$var reg 1 Q vs_d $end
$var reg 1 " vs_fall $end
$var reg 1 ! vs_rise $end
$upscope $end
$scope module u_sync $end
$var wire 1 3 clk $end
$var wire 1 8 de_i $end
$var wire 1 C hsync_i $end
$var wire 1 D rst $end
$var wire 1 I vsync_i $end
$var parameter 1 R DE_INV $end
$var parameter 1 S HS_INV $end
$var parameter 32 T STABLE_CYCLES $end
$var parameter 1 U USE_DEGLITCH $end
$var parameter 1 V VS_INV $end
$var reg 1 / de $end
$var reg 1 W de_ff1 $end
$var reg 1 X de_ff2 $end
$var reg 1 Y de_in $end
$var reg 1 Z hs_ff1 $end
$var reg 1 [ hs_ff2 $end
$var reg 1 \ hs_in $end
$var reg 1 ) hsync $end
$var reg 1 ] vs_ff1 $end
$var reg 1 ^ vs_ff2 $end
$var reg 1 _ vs_in $end
$var reg 1 # vsync $end
$scope begin g_filter $end
$var parameter 32 ` CW $end
$var reg 2 a de_cnt [1:0] $end
$var reg 1 b de_last $end
$var reg 2 c hs_cnt [1:0] $end
$var reg 1 d hs_last $end
$var reg 2 e vs_cnt [1:0] $end
$var reg 1 f vs_last $end
$scope function next_cnt_val $end
$upscope $end
$scope function sat_inc $end
$upscope $end
$scope begin $unm_blk_10 $end
$var reg 2 g hs_cnt_n [1:0] $end
$var reg 1 h same_hs $end
$upscope $end
$scope begin $unm_blk_11 $end
$var reg 2 i de_cnt_n [1:0] $end
$var reg 1 j same_de $end
$upscope $end
$scope begin $unm_blk_9 $end
$var reg 1 k same_vs $end
$var reg 2 l vs_cnt_n [1:0] $end
$upscope $end
$upscope $end
$upscope $end
$upscope $end
$scope module u_nofilter $end
$var wire 1 3 clk $end
$var wire 1 8 de_i $end
$var wire 1 C hsync_i $end
$var wire 1 D rst $end
$var wire 1 I vsync_i $end
$var wire 1 & vsync $end
$var wire 1 $ vs_rise $end
$var wire 1 % vs_fall $end
$var wire 1 , hsync $end
$var wire 1 * hs_rise $end
$var wire 1 + hs_fall $end
$var wire 1 0 de_rise $end
$var wire 1 1 de_fall $end
$var wire 1 2 de $end
$var parameter 1 m DE_INV $end
$var parameter 1 n HS_INV $end
$var parameter 32 o STABLE_CYCLES $end
$var parameter 1 p USE_DEGLITCH $end
$var parameter 1 q VS_INV $end
$scope module u_edge $end
$var wire 1 3 clk $end
$var wire 1 D rst $end
$var wire 1 & vsync $end
$var wire 1 , hsync $end
$var wire 1 2 de $end
$var reg 1 r de_d $end
$var reg 1 1 de_fall $end
$var reg 1 0 de_rise $end
$var reg 1 s hs_d $end
$var reg 1 + hs_fall $end
$var reg 1 * hs_rise $end
$var reg 1 t vs_d $end
$var reg 1 % vs_fall $end
$var reg 1 $ vs_rise $end
$upscope $end
$scope module u_sync $end
$var wire 1 3 clk $end
$var wire 1 8 de_i $end
$var wire 1 C hsync_i $end
$var wire 1 D rst $end
$var wire 1 I vsync_i $end
$var parameter 1 u DE_INV $end
$var parameter 1 v HS_INV $end
$var parameter 32 w STABLE_CYCLES $end
$var parameter 1 x USE_DEGLITCH $end
$var parameter 1 y VS_INV $end
$var reg 1 2 de $end
$var reg 1 z de_ff1 $end
$var reg 1 { de_ff2 $end
$var reg 1 | de_in $end
$var reg 1 } hs_ff1 $end
$var reg 1 ~ hs_ff2 $end
$var reg 1 !" hs_in $end
$var reg 1 , hsync $end
$var reg 1 "" vs_ff1 $end
$var reg 1 #" vs_ff2 $end
$var reg 1 $" vs_in $end
$var reg 1 & vsync $end
$scope begin g_nofilter $end
$upscope $end
$upscope $end
$upscope $end
$scope task expect_pulse $end
$upscope $end
$scope task expect_sig $end
$upscope $end
$scope task tick $end
$upscope $end
$upscope $end
$enddefinitions $end
$comment Show the parameter values. $end
$dumpall
0y
0x
b10 w
0v
0u
0q
0p
b10 o
0n
0m
b10 `
0V
1U
b10 T
0S
0R
0N
1M
b10 L
0K
0J
$end
#0
$dumpvars
0$"
x#"
x""
0!"
x~
x}
0|
x{
xz
xt
xs
xr
bx l
xk
xj
bx i
xh
bx g
xf
bx e
xd
bx c
xb
bx a
0_
x^
x]
0\
x[
xZ
0Y
xX
xW
xQ
xP
xO
0I
xH
xG
xF
xE
1D
0C
xB
xA
x@
x?
x>
x=
x<
x;
x:
x9
08
x7
x6
x5
x4
03
x2
x1
x0
x/
x.
x-
x,
x+
x*
x)
x(
x'
x&
x%
x$
x#
x"
x!
$end
#5000
02
0,
0&
0{
0z
0~
0}
0#"
0""
01
00
0+
0*
0%
0$
0r
0s
0t
b0 a
b0 c
b0 e
0b
0d
0f
0/
0)
0#
0X
0W
0[
0Z
0^
0]
0.
0-
0(
0'
0"
0!
0O
0P
0Q
07
06
0B
0A
0H
0G
13
#10000
03
#15000
13
#20000
03
#25000
13
#25001
0D
#30000
03
#35000
b1 a
b1 c
b1 e
b1 i
1j
b1 g
1h
b1 l
1k
13
#40000
03
#45000
b10 a
b10 c
b10 e
b10 i
b10 g
b10 l
13
#50000
1$"
1_
1I
03
#55000
1G
1]
1""
13
#60000
03
#65000
1&
1#"
1^
1H
13
#70000
03
#75000
b0 e
1f
1t
1$
b0 l
0k
13
#80000
03
#85000
b1 e
0$
b1 l
1k
13
#90000
0$"
0_
0I
03
#95000
1#
b10 e
0G
0]
0""
b10 l
13
#100000
03
#105000
0&
0#"
0^
1Q
1!
0H
13
#110000
03
#115000
b0 e
0f
0!
0t
1%
b0 l
0k
13
#120000
03
#125000
b1 e
0%
b1 l
1k
13
#130000
1!"
1\
1C
03
#135000
0#
b10 e
1A
1Z
1}
b10 l
13
#140000
03
#145000
1,
1~
1[
0Q
1"
1B
13
#150000
03
#155000
b0 c
1d
0"
1s
1*
b0 g
0h
13
#160000
03
#165000
b1 c
0*
b1 g
1h
13
#170000
0!"
0\
0C
03
#175000
1)
b10 c
0A
0Z
0}
b10 g
13
#180000
03
#185000
0,
0~
0[
1P
1'
0B
13
#190000
03
#195000
b0 c
0d
0'
0s
1+
b0 g
0h
13
#200000
03
#205000
b1 c
0+
b1 g
1h
13
#210000
1|
1Y
18
03
#215000
0)
b10 c
16
1W
1z
b10 g
13
#220000
03
#225000
12
1{
1X
0P
1(
17
13
#230000
03
#235000
b0 a
1b
0(
1r
10
b0 i
0j
13
#240000
03
#245000
b1 a
00
b1 i
1j
13
#250000
0|
0Y
08
03
#255000
1/
b10 a
06
0W
0z
b10 i
13
#260000
03
#265000
02
0{
0X
1O
1-
07
13
#270000
03
#275000
b0 a
0b
0-
0r
11
b0 i
0j
13
#280000
03
#285000
b1 a
01
b1 i
1j
13
#290000
03
#295000
0/
b10 a
b10 i
13
#300000
03
#305000
0O
1.
13
#310000
03
#315000
0.
13
#320000
03
#325000
13
#330000
03
#335000
13
#340000
1$"
1_
1I
03
#345000
1""
1]
1G
13
#350000
0$"
0_
0I
03
#355000
1&
1H
0G
1^
0]
1#"
0""
13
#360000
03
#365000
0&
b0 e
1f
0#"
1t
1$
0^
0H
b0 l
0k
13
#370000
03
#375000
0f
0t
1%
0$
13
#380000
03
#385000
b1 e
0%
b1 l
1k
13
#390000
03
#395000
b10 e
b10 l
13
#400000
03
#405000
13
#410000
03
#415000
13
#420000
1$"
1_
1I
03
#425000
1""
1]
1G
13
#430000
03
#435000
1&
1H
1^
1#"
13
#440000
03
#445000
b0 e
1f
1t
1$
b0 l
0k
13
#450000
03
#455000
b1 e
0$
b1 l
1k
13
#460000
03
#465000
1#
b10 e
b10 l
13
#470000
03
#475000
1Q
1!
13
#480000
03
#485000
0!
13
#490000
03
#495000
13
#500000
03
#505000
13
#510000
03
#515000
13
#520000
03
#525000
13
#530000
03
#535000
13
#540000
0$"
0_
0I
03
#545000
0""
0]
0G
13
#550000
03
#555000
0&
0H
0^
0#"
13
#560000
03
#565000
b0 e
0f
0t
1%
b0 l
0k
13
#570000
03
#575000
b1 e
0%
b1 l
1k
13
#580000
03
#585000
0#
b10 e
b10 l
13
#590000
03
#595000
0Q
1"
13
#600000
03
#605000
0"
13
#610000
03
#615000
13
#620000
03
#625000
13
#630000
03
#635000
13
#640000
03
#645000
13
#650000
03
#655000
13
#655001
05
04
0@
0?
0F
0E
#660000
1$"
1_
1I
03
#665000
1""
1]
1G
13
#665001
09
0:
0;
0<
0=
0>
#670000
1|
1!"
0$"
1Y
1\
0_
18
1C
0I
03
#675000
1&
16
1A
1H
0G
1W
1Z
1^
0]
1z
1}
1#"
0""
13
#675001
1E
#680000
0!"
0\
0C
03
#685000
12
1,
0&
b0 e
1f
1{
1~
0}
0#"
1t
1$
1X
1[
0Z
0^
17
1B
0A
0H
b0 l
0k
13
#685001
14
1?
0E
1F
1>
#690000
1!"
1$"
1\
1_
1C
1I
03
#695000
0,
b0 a
1b
b0 c
1d
0f
0B
1A
1G
0[
1Z
1]
1r
1s
0t
10
1*
1%
0$
0~
1}
1""
b0 i
0j
b0 g
0h
13
#695001
15
0?
1@
0F
1:
1<
1=
0>
#700000
03
#705000
1,
1&
b1 a
0d
b1 e
1~
1#"
0s
00
1+
0*
0%
1[
1^
1B
1H
b1 i
1j
b1 l
1k
13
#705001
1?
0@
1E
0:
1;
0<
0=
#710000
0|
0!"
0$"
0Y
0\
0_
08
0C
0I
03
#715000
1/
b10 a
1d
b0 e
1f
06
0A
0G
0W
0Z
0]
1s
1t
0+
1*
1$
0z
0}
0""
b10 i
b0 l
0k
13
#715001
1@
1F
0;
1<
1>
#720000
1$"
1_
1I
03
#725000
02
0,
0&
b1 c
b1 e
0{
0~
0#"
1""
0*
0$
0X
0[
0^
1]
1O
1-
07
0B
0H
1G
b1 g
1h
b1 l
1k
13
#725001
04
0?
0E
0<
0>
#730000
1!"
1\
1C
03
#735000
1&
b0 a
0b
b0 c
0d
b0 e
0f
1A
1H
0-
1Z
1^
0r
0s
0t
11
1+
1%
1}
1#"
b0 i
0j
b0 g
0h
b0 l
0k
13
#735001
05
0@
1E
0F
19
1;
1=
#740000
1|
0!"
0$"
1Y
0\
0_
18
0C
0I
03
#745000
1,
b1 a
b1 c
1f
1z
1~
0}
0""
1t
01
0+
0%
1$
1W
1[
0Z
0]
16
1B
0A
0G
b1 i
1j
b1 g
1h
13
#745001
1?
1F
09
0;
0=
1>
#750000
0|
0Y
08
03
#755000
12
0,
0&
0/
b10 a
b0 c
1d
b1 e
17
06
0B
0H
1X
0W
0[
0^
1s
1*
0$
1{
0z
0~
0#"
b10 i
b0 g
0h
b1 l
1k
13
#755001
14
0?
1@
0E
1<
0>
#760000
1!"
1\
1C
03
#765000
02
b0 a
1b
0d
b0 e
0f
0{
1}
1r
0s
0t
10
1+
0*
1%
0X
1Z
0O
1.
07
1A
b0 i
0j
b0 l
0k
13
#765001
04
15
0@
0F
1:
1;
0<
1=
#770000
1$"
1_
1I
03
#775000
1,
0b
b1 c
b1 e
1B
1G
0.
1[
1]
0r
11
00
0+
0%
1~
1""
b1 g
1h
b1 l
1k
13
#775001
05
1?
19
0:
0;
0=
#780000
0!"
0$"
0\
0_
0C
0I
03
#785000
1&
b1 a
b0 c
1d
b10 e
0}
1#"
0""
1s
01
1*
0Z
1^
0]
0A
1H
0G
b1 i
1j
b0 g
0h
b10 l
13
#785001
1@
1E
09
1<
#790000
1!"
1\
1C
03
#795000
0,
0&
b10 a
b1 c
b0 e
1f
0B
1A
0H
0[
1Z
0^
1t
0*
1$
0~
1}
0#"
b10 i
b1 g
1h
b0 l
0k
13
#795001
0?
0E
1F
0<
1>
#800000
1|
0!"
1Y
0\
18
0C
03
#805000
1,
b0 c
0d
0f
1z
1~
0}
0s
0t
1+
1%
0$
1W
1[
0Z
16
1B
0A
b0 g
0h
13
#805001
1?
0@
0F
1;
1=
0>
#810000
1!"
1\
1C
03
#815000
12
0,
1d
b1 e
17
0B
1A
1X
0[
1Z
1s
0+
1*
0%
1{
0~
1}
b1 l
1k
13
#815001
14
0?
1@
0;
1<
0=
#820000
0!"
0\
0C
03
#825000
1,
b0 a
1b
0d
b10 e
1~
0}
1r
0s
10
1+
0*
1[
0Z
1B
0A
b0 i
0j
b10 l
13
#825001
15
1?
0@
1:
1;
0<
#830000
0|
1!"
1$"
0Y
1\
1_
08
1C
1I
03
#835000
0,
b1 a
1d
06
0B
1A
1G
0W
0[
1Z
1]
1s
00
0+
1*
0z
0~
1}
1""
b1 i
1j
13
#835001
0?
1@
0:
0;
1<
#840000
1|
0!"
1Y
0\
18
0C
03
#845000
02
1,
1&
1/
b10 a
0d
0{
1z
1~
0}
1#"
0s
1+
0*
0X
1W
1[
0Z
1^
07
16
1B
0A
1H
b10 i
13
#845001
04
1?
0@
1E
1;
0<
#850000
1!"
1\
1C
03
#855000
12
0,
b0 a
0b
1d
b0 e
1f
17
0B
1A
1O
1-
1X
0[
1Z
0r
1s
1t
11
0+
1*
1$
1{
0~
1}
b0 i
0j
b0 l
0k
13
#855001
14
05
0?
1@
1F
19
0;
1<
1>
#860000
0|
0$"
0Y
0_
08
0I
03
#865000
1,
1b
0d
b1 e
0z
1~
0""
1r
0s
01
10
1+
0*
0$
0W
1[
0]
0-
06
1B
0G
b1 l
1k
13
#865001
15
1?
0@
09
1:
1;
0<
0>
#870000
1|
1Y
18
03
#875000
02
0&
b1 a
1d
1#
b10 e
07
16
0H
0X
1W
0^
1s
00
0+
1*
0{
1z
0#"
b1 i
1j
b10 l
13
#875001
04
1@
0E
0:
0;
1<
#880000
0|
0Y
08
03
#885000
12
b0 a
0b
b1 c
b0 e
0f
1{
0z
0r
0t
11
0*
1%
1X
0W
1Q
1!
17
06
b0 i
0j
b1 g
1h
b0 l
0k
13
#885001
14
05
0F
19
0<
1=
#890000
1|
1$"
1Y
1_
18
1I
03
#895000
02
1b
1)
b10 c
b1 e
07
16
1G
0!
0X
1W
1]
1r
01
10
0%
0{
1z
1""
b10 g
b1 l
1k
13
#895001
04
15
09
1:
0=
#900000
03
#905000
12
1&
0b
0#
b10 e
1{
1#"
0r
11
00
1X
1^
1P
1'
17
1H
b10 l
13
#905001
14
05
1E
19
0:
#910000
0|
0Y
08
03
#915000
1b
b0 e
1f
06
0Q
0'
1"
0W
1r
1t
01
10
1$
0z
b0 l
0k
13
#915001
15
1F
09
1:
1>
#920000
0!"
0$"
0\
0_
0C
0I
03
#925000
02
b1 a
b1 e
0{
0}
0""
00
0$
0X
0Z
0]
0"
07
0A
0G
b1 i
1j
b1 l
1k
13
#925001
04
0:
0>
#930000
1$"
1_
1I
03
#935000
0,
0&
b0 a
0b
1#
b10 e
0B
0H
1G
0[
0^
1]
0r
11
0~
0#"
1""
b0 i
0j
b10 l
13
#935001
05
0?
0E
19
#940000
1|
0$"
1Y
0_
18
0I
03
#945000
1&
b1 a
b0 c
0d
b0 e
0f
1z
1#"
0""
0s
0t
01
1+
1%
1W
1^
0]
1Q
1!
16
1H
0G
b1 i
1j
b0 g
0h
b0 l
0k
13
#945001
0@
1E
0F
09
1;
1=
#950000
1$"
1_
1I
03
#955000
12
0&
0/
b10 a
b1 c
1f
17
0H
1G
0!
1X
0^
1]
1t
0+
0%
1$
1{
0#"
1""
b10 i
b1 g
1h
13
#955001
14
0E
1F
0;
0=
1>
#960000
1!"
0$"
1\
0_
1C
0I
03
#965000
1&
b0 a
1b
0)
b10 c
0f
1}
1#"
0""
1r
0t
10
1%
0$
1Z
1^
0]
0O
1.
1A
1H
0G
b0 i
0j
b10 g
13
#965001
15
1E
0F
1:
1=
0>
#970000
03
#975000
1,
0&
b1 a
1f
1B
0H
0P
0.
1(
1[
0^
1t
00
0%
1$
1~
0#"
b1 i
1j
13
#975001
1?
0E
1F
0:
0=
1>
#980000
0!"
1$"
0\
1_
0C
1I
03
#985000
1/
b10 a
b0 c
1d
0f
0}
1""
1s
0t
1*
1%
0$
0Z
1]
0(
0A
1G
b10 i
b0 g
0h
13
#985001
1@
0F
1<
1=
0>
#990000
1!"
0$"
1\
0_
1C
0I
03
#995000
0,
1&
b1 c
b1 e
0B
1A
1H
0G
1O
1-
0[
1Z
1^
0]
0*
0%
0~
1}
1#"
0""
b1 g
1h
b1 l
1k
13
#995001
0?
1E
0<
0=
#1000000
03
#1005000
1,
0&
b0 c
0d
b0 e
1f
1~
0#"
0s
1t
1+
1$
1[
0^
0-
1B
0H
b0 g
0h
b0 l
0k
13
#1005001
1?
0@
0E
1F
1;
1>
#1010000
0|
0!"
0Y
0\
08
0C
03
#1015000
1d
0f
06
0A
0W
0Z
1s
0t
0+
1*
1%
0$
0z
0}
13
#1015001
1@
0F
0;
1<
1=
0>
#1020000
1|
1$"
1Y
1_
18
1I
03
#1025000
02
0,
b1 c
b1 e
0{
1z
0~
1""
0*
0%
0X
1W
0[
1]
07
16
0B
1G
b1 g
1h
b1 l
1k
13
#1025001
04
0?
0<
0=
#1030000
0|
0$"
0Y
0_
08
0I
03
#1035000
12
1&
b0 a
0b
b0 c
0d
0#
b10 e
17
06
1H
0G
1X
0W
1^
0]
0r
0s
11
1+
1{
0z
1#"
0""
b0 i
0j
b0 g
0h
b10 l
13
#1035001
14
05
0@
1E
19
1;
#1040000
1|
1!"
1Y
1\
18
1C
03
#1045000
02
0&
1b
b1 c
b0 e
1f
0{
1z
1}
0#"
1r
1t
01
10
0+
1$
0X
1W
1Z
0^
0Q
1"
07
16
1A
0H
b1 g
1h
b0 l
0k
13
#1045001
04
15
0E
1F
09
1:
0;
1>
#1050000
0!"
0\
0C
03
#1055000
12
1,
0b
b10 c
0f
17
1B
0A
0"
1X
1[
0Z
0r
0t
11
00
1%
0$
1{
1~
0}
b10 g
13
#1055001
14
05
1?
0F
19
0:
1=
0>
#1060000
0|
1$"
0Y
1_
08
1I
03
#1065000
0,
1b
b0 c
1d
b1 e
0z
0~
1""
1r
1s
01
10
1*
0%
0W
0[
1]
06
0B
1G
b0 g
0h
b1 l
1k
13
#1065001
15
0?
1@
09
1:
1<
0=
#1070000
0$"
0_
0I
03
#1075000
02
1&
b1 a
0d
b10 e
07
1H
0G
0X
1^
0]
0s
00
1+
0*
0{
1#"
0""
b1 i
1j
b10 l
13
#1075001
04
0@
1E
0:
1;
0<
#1080000
1!"
1$"
1\
1_
1C
1I
03
#1085000
0&
b0 a
0b
b1 c
b0 e
1f
1}
0#"
1""
0r
1t
11
0+
1$
1Z
0^
1]
1A
0H
1G
b0 i
0j
b1 g
1h
b0 l
0k
13
#1085001
05
0E
1F
19
0;
1>
#1090000
1|
1Y
18
03
#1095000
1,
1&
b1 a
b10 c
0f
16
1B
1H
1W
1[
1^
0t
01
1%
0$
1z
1~
1#"
b1 i
1j
b10 g
13
#1095001
1?
1E
0F
09
1=
0>
#1100000
0|
0!"
0Y
0\
08
0C
03
#1105000
12
0/
b10 a
b0 c
1d
1f
1{
0z
0}
1s
1t
1*
0%
1$
1X
0W
0Z
17
06
0A
b10 i
b0 g
0h
13
#1105001
14
1@
1F
1<
0=
1>
#1110000
1|
1!"
0$"
1Y
1\
0_
18
1C
0I
03
#1115000
02
0,
b0 a
1b
b1 c
b1 e
07
16
0B
1A
0G
0O
1.
0X
1W
0[
1Z
0]
1r
10
0*
0$
0{
1z
0~
1}
0""
b0 i
0j
b1 g
1h
b1 l
1k
13
#1115001
04
15
0?
1:
0<
0>
#1120000
0!"
0\
0C
03
#1125000
12
1,
0&
0b
b0 c
0d
1#
b10 e
1{
1~
0}
0#"
0r
0s
11
00
1+
1X
1[
0Z
0^
0.
17
1B
0A
0H
b0 g
0h
b10 l
13
#1125001
14
05
1?
0@
0E
19
0:
1;
#1130000
0|
1!"
0Y
1\
08
1C
03
#1135000
0,
1b
1d
b0 e
0f
06
0B
1A
1Q
1!
0W
0[
1Z
1r
1s
0t
01
10
0+
1*
1%
0z
0~
1}
b0 l
0k
13
#1135001
15
0?
1@
0F
09
1:
0;
1<
1=
#1140000
1$"
1_
1I
03
#1145000
02
1,
b1 a
0d
b1 e
0{
1~
1""
0s
00
1+
0*
0%
0X
1[
1]
0!
07
1B
1G
b1 i
1j
b1 l
1k
13
#1145001
04
1?
0@
0:
1;
0<
0=
#1150000
0$"
0_
0I
03
#1155000
1&
b0 a
0b
1d
0#
b10 e
1H
0G
1^
0]
0r
1s
11
0+
1*
1#"
0""
b0 i
0j
b10 l
13
#1155001
0!"
0\
0C
05
1@
1E
19
0;
1<
#1160000
03
#1165000
0&
b1 a
b1 c
b0 e
1f
0}
0#"
1t
01
0*
1$
0Z
0^
0Q
1"
0A
0H
b1 i
1j
b1 g
1h
b0 l
0k
13
#1170000
03
#1175000
0,
b10 a
1)
b10 c
0f
0B
0"
0[
0t
1%
0$
0~
b10 i
b10 g
13
#1180000
03
#1185000
b0 c
0d
b1 e
0s
1+
0%
1P
1'
b0 g
0h
b1 l
1k
13
#1190000
03
#1195000
b1 c
b10 e
0'
0+
b1 g
1h
b10 l
13
#1200000
1|
1!"
1$"
1Y
1\
1_
18
1C
1I
03
#1205000
0)
b10 c
1z
1}
1""
1W
1Z
1]
16
1A
1G
b10 g
13
#1210000
0|
0!"
0$"
0Y
0\
0_
08
0C
0I
03
#1215000
12
1,
1&
17
06
1B
0A
1H
0G
0P
1(
1X
0W
1[
0Z
1^
0]
1{
0z
1~
0}
1#"
0""
13
#1220000
1|
1!"
1$"
1Y
1\
1_
18
1C
1I
03
#1225000
02
0,
0&
b0 a
1b
b0 c
1d
b0 e
1f
0{
1z
0~
1}
0#"
1""
1r
1s
1t
10
1*
1$
0X
1W
0[
1Z
0^
1]
0(
07
16
0B
1A
0H
1G
b0 i
0j
b0 g
0h
b0 l
0k
13
#1230000
0|
0!"
0$"
0Y
0\
0_
08
0C
0I
03
#1235000
12
1,
1&
0b
0d
0f
17
06
1B
0A
1H
0G
1X
0W
1[
0Z
1^
0]
0r
0s
0t
11
00
1+
0*
1%
0$
1{
0z
1~
0}
1#"
0""
13
#1240000
1|
1!"
1$"
1Y
1\
1_
18
1C
1I
03
#1245000
02
0,
0&
1b
1d
1f
0{
1z
0~
1}
0#"
1""
1r
1s
1t
01
10
0+
1*
0%
1$
0X
1W
0[
1Z
0^
1]
07
16
0B
1A
0H
1G
13
#1250000
0|
0!"
0$"
0Y
0\
0_
08
0C
0I
03
#1255000
12
1,
1&
0b
0d
0f
17
06
1B
0A
1H
0G
1X
0W
1[
0Z
1^
0]
0r
0s
0t
11
00
1+
0*
1%
0$
1{
0z
1~
0}
1#"
0""
13
#1260000
1|
1!"
1$"
1Y
1\
1_
18
1C
1I
03
#1265000
02
0,
0&
1b
1d
1f
0{
1z
0~
1}
0#"
1""
1r
1s
1t
01
10
0+
1*
0%
1$
0X
1W
0[
1Z
0^
1]
07
16
0B
1A
0H
1G
13
#1270000
0|
0!"
0$"
0Y
0\
0_
08
0C
0I
03
#1275000
12
1,
1&
0b
0d
0f
17
06
1B
0A
1H
0G
1X
0W
1[
0Z
1^
0]
0r
0s
0t
11
00
1+
0*
1%
0$
1{
0z
1~
0}
1#"
0""
13
#1280000
1|
1!"
1$"
1Y
1\
1_
18
1C
1I
03
#1285000
02
0,
0&
1b
1d
1f
0{
1z
0~
1}
0#"
1""
1r
1s
1t
01
10
0+
1*
0%
1$
0X
1W
0[
1Z
0^
1]
07
16
0B
1A
0H
1G
13
#1290000
0|
0!"
0$"
0Y
0\
0_
08
0C
0I
03
#1295000
12
1,
1&
0b
0d
0f
17
06
1B
0A
1H
0G
1X
0W
1[
0Z
1^
0]
0r
0s
0t
11
00
1+
0*
1%
0$
1{
0z
1~
0}
1#"
0""
13
#1300000
03
#1305000
02
0,
0&
1b
1d
1f
0{
0~
0#"
1r
1s
1t
01
10
0+
1*
0%
1$
0X
0[
0^
07
0B
0H
13
#1310000
03
#1315000
0b
0d
0f
0r
0s
0t
11
00
1+
0*
1%
0$
13
#1320000
03
#1325000
b1 a
b1 c
b1 e
01
0+
0%
b1 i
1j
b1 g
1h
b1 l
1k
13
#1330000
03
#1335000
b10 a
b10 c
b10 e
b10 i
b10 g
b10 l
13
#1340000
03
#1345000
13
#1350000
1$"
1_
1I
03
#1355000
1G
1]
1""
13
#1360000
03
#1365000
1&
1#"
1^
1H
13
#1370000
03
#1375000
b0 e
1f
1t
1$
b0 l
0k
13
#1380000
03
#1385000
b1 e
0$
b1 l
1k
13
#1390000
03
#1395000
1#
b10 e
b10 l
13
#1400000
03
#1405000
1Q
1!
13
#1410000
03
#1415000
0!
13
#1420000
03
#1425000
13
#1425001
0$"
0_
0I
#1430000
03
#1435000
0G
0]
0""
13
#1440000
03
#1445000
0&
0#"
0^
0H
13
#1450000
03
#1455000
b0 e
0f
0t
1%
b0 l
0k
13
#1460000
03
#1465000
b1 e
0%
b1 l
1k
13
#1470000
03
#1475000
0#
b10 e
b10 l
13
#1480000
1$"
1_
1I
03
#1485000
1""
1]
0Q
1"
1G
13
#1490000
0$"
0_
0I
03
#1495000
1&
1H
0G
0"
1^
0]
1#"
0""
13
#1500000
03
#1505000
0&
b0 e
1f
0#"
1t
1$
0^
0H
b0 l
0k
13
#1510000
03
#1515000
0f
0t
1%
0$
13
#1520000
03
#1525000
b1 e
0%
b1 l
1k
13
#1530000
03
#1535000
b10 e
b10 l
13
#1540000
03
#1545000
13
#1550000
03
#1555000
13
#1560000
03
#1565000
13
#1570000
1D
03
#1575000
b0 a
b0 c
b0 e
13
#1580000
03
#1585000
13
#1585001
0D
#1590000
03
#1595000
b1 a
b1 c
b1 e
b1 i
b1 g
b1 l
13
#1600000
03
#1605000
b10 a
b10 c
b10 e
b10 i
b10 g
b10 l
13
