tb_tile_coord_clamp_3x3.vcd
$date
	Sun Feb  8 22:33:40 2026
$end
$version
	Icarus Verilog
$end
$timescale
	1ps
$end
$scope module tb_tile_coord_clamp_3x3 $end
$var wire 9 ! nb_is_center [8:0] $end
$var wire 1 " nb_valid $end
$var wire 16 # nb_tag [15:0] $end
$var wire 3 $ nb_j8 [2:0] $end
$var wire 3 % nb_j7 [2:0] $end
$var wire 3 & nb_j6 [2:0] $end
$var wire 3 ' nb_j5 [2:0] $end
$var wire 3 ( nb_j4 [2:0] $end
$var wire 3 ) nb_j3 [2:0] $end
$var wire 3 * nb_j2 [2:0] $end
$var wire 3 + nb_j1 [2:0] $end
$var wire 3 , nb_j0 [2:0] $end
$var wire 2 - nb_i8 [1:0] $end
$var wire 2 . nb_i7 [1:0] $end
$var wire 2 / nb_i6 [1:0] $end
$var wire 2 0 nb_i5 [1:0] $end
$var wire 2 1 nb_i4 [1:0] $end
$var wire 2 2 nb_i3 [1:0] $end
$var wire 2 3 nb_i2 [1:0] $end
$var wire 2 4 nb_i1 [1:0] $end
$var wire 2 5 nb_i0 [1:0] $end
$var wire 1 6 center_ready $end
$var parameter 32 7 IW $end
$var parameter 32 8 JW $end
$var parameter 32 9 TAG_W $end
$var parameter 32 : TILES_X $end
$var parameter 32 ; TILES_Y $end
$var reg 2 < center_i [1:0] $end
$var reg 3 = center_j [2:0] $end
$var reg 16 > center_tag [15:0] $end
$var reg 1 ? center_valid $end
$var reg 1 @ clk $end
$var reg 1 A en $end
$var reg 16 B hold_tag [15:0] $end
$var reg 1 C nb_ready $end
$var reg 1 D rst $end
$var integer 32 E hold_i0 [31:0] $end
$var integer 32 F hold_i1 [31:0] $end
$var integer 32 G hold_i2 [31:0] $end
$var integer 32 H hold_i3 [31:0] $end
$var integer 32 I hold_i4 [31:0] $end
$var integer 32 J hold_i5 [31:0] $end
$var integer 32 K hold_i6 [31:0] $end
$var integer 32 L hold_i7 [31:0] $end
$var integer 32 M hold_i8 [31:0] $end
$var integer 32 N hold_j0 [31:0] $end
$var integer 32 O hold_j1 [31:0] $end
$var integer 32 P hold_j2 [31:0] $end
$var integer 32 Q hold_j3 [31:0] $end
$var integer 32 R hold_j4 [31:0] $end
$var integer 32 S hold_j5 [31:0] $end
$var integer 32 T hold_j6 [31:0] $end
$var integer 32 U hold_j7 [31:0] $end
$var integer 32 V hold_j8 [31:0] $end
$scope function clamp_int $end
$var integer 32 W hi [31:0] $end
$var integer 32 X lo [31:0] $end
$var integer 32 Y v [31:0] $end
$upscope $end
$scope module dut $end
$var wire 2 Z center_i [1:0] $end
$var wire 3 [ center_j [2:0] $end
$var wire 16 \ center_tag [15:0] $end
$var wire 1 ? center_valid $end
$var wire 1 @ clk $end
$var wire 1 A en $end
$var wire 1 ] go $end
$var wire 1 ^ in_fire $end
$var wire 9 _ nb_is_center [8:0] $end
$var wire 1 C nb_ready $end
$var wire 1 ` out_fire $end
$var wire 1 D rst $end
$var parameter 32 a I_MAX $end
$var parameter 32 b J_MAX $end
$var parameter 32 c TAG_W $end
$var parameter 32 d TILES_X $end
$var parameter 32 e TILES_Y $end
$var reg 1 6 center_ready $end
$var reg 1 f full $end
$var reg 2 g nb_i0 [1:0] $end
$var reg 2 h nb_i1 [1:0] $end
$var reg 2 i nb_i2 [1:0] $end
$var reg 2 j nb_i3 [1:0] $end
$var reg 2 k nb_i4 [1:0] $end
$var reg 2 l nb_i5 [1:0] $end
$var reg 2 m nb_i6 [1:0] $end
$var reg 2 n nb_i7 [1:0] $end
$var reg 2 o nb_i8 [1:0] $end
$var reg 3 p nb_j0 [2:0] $end
$var reg 3 q nb_j1 [2:0] $end
$var reg 3 r nb_j2 [2:0] $end
$var reg 3 s nb_j3 [2:0] $end
$var reg 3 t nb_j4 [2:0] $end
$var reg 3 u nb_j5 [2:0] $end
$var reg 3 v nb_j6 [2:0] $end
$var reg 3 w nb_j7 [2:0] $end
$var reg 3 x nb_j8 [2:0] $end
$var reg 16 y nb_tag [15:0] $end
$var reg 1 " nb_valid $end
$var integer 32 z ci [31:0] $end
$var integer 32 { cj [31:0] $end
$var integer 32 | i0 [31:0] $end
$var integer 32 } i1 [31:0] $end
$var integer 32 ~ i2 [31:0] $end
$var integer 32 !" i3 [31:0] $end
$var integer 32 "" i4 [31:0] $end
$var integer 32 #" i5 [31:0] $end
$var integer 32 $" i6 [31:0] $end
$var integer 32 %" i7 [31:0] $end
$var integer 32 &" i8 [31:0] $end
$var integer 32 '" j0 [31:0] $end
$var integer 32 (" j1 [31:0] $end
$var integer 32 )" j2 [31:0] $end
$var integer 32 *" j3 [31:0] $end
$var integer 32 +" j4 [31:0] $end
$var integer 32 ," j5 [31:0] $end
$var integer 32 -" j6 [31:0] $end
$var integer 32 ." j7 [31:0] $end
$var integer 32 /" j8 [31:0] $end
$scope function clamp_i $end
$var integer 32 0" v [31:0] $end
$upscope $end
$scope function clamp_j $end
$var integer 32 1" v [31:0] $end
$upscope $end
$upscope $end
$scope task expect_eq_hex $end
$var reg 16 2" exp [15:0] $end
$var reg 16 3" got [15:0] $end
$var reg 1600 4" msg [1599:0] $end
$upscope $end
$scope task expect_eq_int $end
$var reg 1600 5" msg [1599:0] $end
$var integer 32 6" exp [31:0] $end
$var integer 32 7" got [31:0] $end
$upscope $end
$scope task expect_onehot_center $end
$upscope $end
$scope task expect_outputs_held $end
$var reg 1600 8" msg [1599:0] $end
$upscope $end
$scope task recv_and_check_bundle $end
$var reg 16 9" tag [15:0] $end
$var integer 32 :" ci [31:0] $end
$var integer 32 ;" cj [31:0] $end
$var integer 32 <" ei [31:0] $end
$var integer 32 =" ej [31:0] $end
$upscope $end
$scope task send_center $end
$var reg 16 >" tag [15:0] $end
$var integer 32 ?" i [31:0] $end
$var integer 32 @" j [31:0] $end
$upscope $end
$scope task snap_outputs $end
$upscope $end
$upscope $end
$enddefinitions $end
$comment Show the parameter values. $end
$dumpall
b100 e
b1000 d
b10000 c
b111 b
b11 a
b100 ;
b1000 :
b10000 9
b11 8
b10 7
$end
#0
$dumpvars
bx @"
bx ?"
bx >"
bx ="
bx <"
bx ;"
bx :"
bx 9"
bx 8"
bx 7"
bx 6"
bx 5"
bx 4"
bx 3"
bx 2"
b1 1"
b1 0"
b1 /"
b0 ."
b0 -"
b1 ,"
b0 +"
b0 *"
b1 )"
b0 ("
b0 '"
b1 &"
b1 %"
b1 $"
b0 #"
b0 ""
b0 !"
b0 ~
b0 }
b0 |
b0 {
b0 z
bx y
bx x
bx w
bx v
bx u
bx t
bx s
bx r
bx q
bx p
bx o
bx n
bx m
bx l
bx k
bx j
bx i
bx h
bx g
xf
0`
b10000 _
0^
0]
b0 \
b0 [
b0 Z
bx Y
bx X
bx W
bx V
bx U
bx T
bx S
bx R
bx Q
bx P
bx O
bx N
bx M
bx L
bx K
bx J
bx I
bx H
bx G
bx F
bx E
1D
0C
bx B
0A
0@
0?
b0 >
b0 =
b0 <
06
bx 5
bx 4
bx 3
bx 2
bx 1
bx 0
bx /
bx .
bx -
bx ,
bx +
bx *
bx )
bx (
bx '
bx &
bx %
bx $
bx #
0"
b10000 !
$end
#5000
b0 $
b0 x
b0 -
b0 o
b0 %
b0 w
b0 .
b0 n
b0 &
b0 v
b0 /
b0 m
b0 '
b0 u
b0 0
b0 l
b0 (
b0 t
b0 1
b0 k
b0 )
b0 s
b0 2
b0 j
b0 *
b0 r
b0 3
b0 i
b0 +
b0 q
b0 4
b0 h
b0 ,
b0 p
b0 5
b0 g
b0 #
b0 y
0f
1@
#10000
0@
#15000
1@
#20000
0@
#25000
1@
#30000
0@
#35000
1@
#40000
0@
#45000
16
1]
b1001000110100 >"
b11 @"
b10 ?"
0D
1A
1@
#50000
1^
b100 /"
b11 &"
b11 ."
b11 %"
b10 -"
b11 $"
b100 ,"
b10 #"
b11 +"
b10 ""
b10 *"
b10 !"
b11 0"
b100 )"
b1 ~
b11 ("
b1 }
b10 '"
b100 1"
b1 |
b11 {
b10 z
1?
b1001000110100 >
b1001000110100 \
b11 =
b11 [
b10 <
b10 Z
0@
#55000
0^
1"
06
b100 $
b100 x
b11 -
b11 o
b11 %
b11 w
b11 .
b11 n
b10 &
b10 v
b11 /
b11 m
b100 '
b100 u
b10 0
b10 l
b11 (
b11 t
b10 1
b10 k
b10 )
b10 s
b10 2
b10 j
b100 *
b100 r
b1 3
b1 i
b11 +
b11 q
b1 4
b1 h
b10 ,
b10 p
b1 5
b1 g
b1001000110100 #
b1001000110100 y
1f
1@
#60000
b11010010110010001111000001110000010000001101010 5"
b100 6"
b100 7"
b100 ="
b11 <"
b100 Y
b0 X
b111 W
b11011100110001001011111011101000110000101100111001000000110110101101001011100110110110101100001011101000110001101101000 4"
b1001000110100 2"
b1001000110100 3"
b1001000110100 9"
b11 ;"
b10 :"
0?
0@
#65000
1@
#70000
16
1`
1C
0@
#75000
0`
0"
0f
1@
#80000
b10100001 >"
b0 @"
b0 ?"
0C
0@
#85000
1@
#90000
1^
b1 /"
b1 &"
b0 ."
b1 %"
b0 -"
b1 $"
b1 ,"
b0 #"
b0 +"
b0 ""
b0 *"
b0 !"
b1 )"
b0 ~
b0 ("
b0 }
b0 '"
b1 1"
b0 |
b1 0"
b0 {
b0 z
1?
b10100001 >
b10100001 \
b0 =
b0 [
b0 <
b0 Z
0@
#95000
0^
1"
06
b1 $
b1 x
b1 -
b1 o
b0 %
b0 w
b1 .
b1 n
b0 &
b0 v
b1 /
b1 m
b1 '
b1 u
b0 0
b0 l
b0 (
b0 t
b0 1
b0 k
b0 )
b0 s
b0 2
b0 j
b1 *
b1 r
b0 3
b0 i
b0 +
b0 q
b0 4
b0 h
b0 ,
b0 p
b0 5
b0 g
b10100001 #
b10100001 y
1f
1@
#100000
b11010010110010001111000001110000010000001101010 5"
b1 6"
b1 7"
b1 ="
b1 <"
b1 Y
b111 W
b10100001 2"
b10100001 3"
b10100001 9"
b0 ;"
b0 :"
0?
0@
#105000
1@
#110000
16
1`
1C
0@
#115000
0`
0"
0f
1@
#120000
b1011111011101111 >"
b111 @"
b11 ?"
0C
0@
#125000
1@
#130000
1^
b111 /"
b11 &"
b111 ."
b11 %"
b110 -"
b11 $"
b111 ,"
b11 #"
b111 +"
b11 ""
b110 *"
b11 !"
b111 )"
b10 ~
b111 ("
b10 }
b110 '"
b1000 1"
b10 |
b100 0"
b111 {
b11 z
1?
b1011111011101111 >
b1011111011101111 \
b111 =
b111 [
b11 <
b11 Z
0@
#135000
0^
1"
06
b111 $
b111 x
b11 -
b11 o
b111 %
b111 w
b11 .
b11 n
b110 &
b110 v
b11 /
b11 m
b111 '
b111 u
b11 0
b11 l
b111 (
b111 t
b11 1
b11 k
b110 )
b110 s
b11 2
b11 j
b111 *
b111 r
b10 3
b10 i
b111 +
b111 q
b10 4
b10 h
b110 ,
b110 p
b10 5
b10 g
b1011111011101111 #
b1011111011101111 y
1f
1@
#140000
b11010010110010001111000001110000010000001101010 5"
b111 6"
b111 7"
b111 ="
b11 <"
b1000 Y
b111 W
b1011111011101111 2"
b1011111011101111 3"
b1011111011101111 9"
b111 ;"
b11 :"
0?
0@
#145000
1@
#150000
16
1`
1C
0@
#155000
0`
0"
0f
1@
#160000
b111011101110111 >"
b1 @"
b1 ?"
0C
0@
#165000
1@
#170000
1^
b10 /"
b10 &"
b1 ."
b10 %"
b0 -"
b10 $"
b10 ,"
b1 #"
b1 +"
b1 ""
b0 *"
b1 !"
b10 )"
b0 ~
b1 ("
b0 }
b0 '"
b10 1"
b0 |
b10 0"
b1 {
b1 z
1?
b111011101110111 >
b111011101110111 \
b1 =
b1 [
b1 <
b1 Z
0@
#175000
0^
1"
06
b10 $
b10 x
b10 -
b10 o
b1 %
b1 w
b10 .
b10 n
b0 &
b0 v
b10 /
b10 m
b10 '
b10 u
b1 0
b1 l
b1 (
b1 t
b1 1
b1 k
b0 )
b0 s
b1 2
b1 j
b10 *
b10 r
b0 3
b0 i
b1 +
b1 q
b0 4
b0 h
b0 ,
b0 p
b0 5
b0 g
b111011101110111 #
b111011101110111 y
1f
1@
#180000
b10 V
b10 M
b1 U
b10 L
b0 T
b10 K
b10 S
b1 J
b1 R
b1 I
b0 Q
b1 H
b10 P
b0 G
b1 O
b0 F
b0 N
b0 E
b111011101110111 B
0?
0@
#185000
b1100010011000010110001101101011011100000111001001100101011100110111001101110101011100100110010100100000011010000110111101101100011001000010000001101010001110000010000001101000011011110110110001100100 5"
b10 6"
b10 7"
b110001001100001011000110110101101110000011100100110010101110011011100110111010101110010011001010010000001101000011011110110110001100100001000000111010001100001011001110010000001101000011011110110110001100100 4"
b111011101110111 2"
b111011101110111 3"
b110001001100001011000110110101101110000011100100110010101110011011100110111010101110010011001010010000001101000011011110110110001100100 8"
1@
#190000
0@
#195000
b1100010011000010110001101101011011100000111001001100101011100110111001101110101011100100110010100100000011010000110111101101100011001000010000001101010001110000010000001101000011011110110110001100100 5"
b10 6"
b10 7"
1@
#200000
0@
#205000
b1100010011000010110001101101011011100000111001001100101011100110111001101110101011100100110010100100000011010000110111101101100011001000010000001101010001110000010000001101000011011110110110001100100 5"
b10 6"
b10 7"
1@
#210000
0@
#215000
b1100010011000010110001101101011011100000111001001100101011100110111001101110101011100100110010100100000011010000110111101101100011001000010000001101010001110000010000001101000011011110110110001100100 5"
b10 6"
b10 7"
1@
#220000
0@
#225000
b1100010011000010110001101101011011100000111001001100101011100110111001101110101011100100110010100100000011010000110111101101100011001000010000001101010001110000010000001101000011011110110110001100100 5"
b10 6"
b10 7"
1@
#230000
16
1`
1C
0@
#235000
0`
0"
0f
1@
#240000
b1000100010001 >"
b110 @"
b10 ?"
0C
0@
#245000
1@
#250000
1^
b111 /"
b11 &"
b110 ."
b11 %"
b101 -"
b11 $"
b111 ,"
b10 #"
b110 +"
b10 ""
b101 *"
b10 !"
b111 )"
b1 ~
b110 ("
b1 }
b101 '"
b111 1"
b1 |
b11 0"
b110 {
b10 z
1?
b1000100010001 >
b1000100010001 \
b110 =
b110 [
b10 <
b10 Z
0@
#255000
0^
1"
06
b111 $
b111 x
b11 -
b11 o
b110 %
b110 w
b11 .
b11 n
b101 &
b101 v
b11 /
b11 m
b111 '
b111 u
b10 0
b10 l
b110 (
b110 t
b10 1
b10 k
b101 )
b101 s
b10 2
b10 j
b111 *
b111 r
b1 3
b1 i
b110 +
b110 q
b1 4
b1 h
b101 ,
b101 p
b1 5
b1 g
b1000100010001 #
b1000100010001 y
1f
1@
#260000
0?
0@
#265000
1@
#270000
b1 &"
b111 ."
b1 %"
b110 -"
b1 $"
b0 #"
b111 +"
b0 ""
b110 *"
b0 !"
b0 ~
b111 ("
b0 }
b110 '"
b1000 1"
b0 |
b1 0"
b111 {
b0 z
1?
b10001000100010 >
b10001000100010 \
b111 =
b111 [
b0 <
b0 Z
0@
#275000
1@
#280000
0@
#285000
1@
#290000
0@
#295000
1@
#300000
0@
#305000
1@
#310000
1^
16
1`
1C
0@
#315000
b1 -
b1 o
b111 %
b111 w
b1 .
b1 n
b110 &
b110 v
b1 /
b1 m
b0 0
b0 l
b111 (
b111 t
b0 1
b0 k
b110 )
b110 s
b0 2
b0 j
b0 3
b0 i
b111 +
b111 q
b0 4
b0 h
b110 ,
b110 p
b0 5
b0 g
b10001000100010 #
b10001000100010 y
1f
1@
#320000
06
0`
0^
b1101111011101100110010101110010011101110111001001101001011101000110010100100000011101000110000101100111001000000110110101101001011100110110110101100001011101000110001101101000 4"
b10001000100010 2"
b10001000100010 3"
0C
0?
0@
#325000
1@
#330000
16
1`
1C
0@
#335000
0`
0"
0f
1@
#340000
0C
0@
