tb_tile_stats_edge_4x4.vcd
$date
	Fri Jan 30 19:37:45 2026
$end
$version
	Icarus Verilog
$end
$timescale
	1ps
$end
$scope module tb_tile_stats_edge_4x4 $end
$var wire 16 ! y_meta_o [15:0] $end
$var wire 1 " v2_ready $end
$var wire 16 # tile_y_o [15:0] $end
$var wire 16 $ tile_x_o [15:0] $end
$var wire 12 % sumY [11:0] $end
$var wire 1 & stats_tile_err $end
$var wire 5 ' stats_pix_cnt_o [4:0] $end
$var wire 8 ( stats_err_code [7:0] $end
$var wire 8 ) rangeY [7:0] $end
$var wire 1 * out_valid $end
$var wire 8 + minY [7:0] $end
$var wire 8 , meanY [7:0] $end
$var wire 8 - maxY [7:0] $end
$var wire 16 . frame_id_o [15:0] $end
$var wire 32 / edge_sum [31:0] $end
$var wire 32 0 edge_mean [31:0] $end
$var wire 32 1 edge_max [31:0] $end
$var wire 8 2 edge_cnt [7:0] $end
$var parameter 32 3 CNT_W $end
$var parameter 32 4 EDGE_W $end
$var parameter 32 5 SUM_MAX $end
$var parameter 32 6 SUM_W $end
$var parameter 32 7 THR $end
$var parameter 32 8 TILE_H $end
$var parameter 32 9 TILE_PIXELS $end
$var parameter 32 : TILE_W $end
$var parameter 32 ; Y_W $end
$var reg 1 < clk $end
$var reg 16 = frame_id [15:0] $end
$var reg 1 > out_ready $end
$var reg 1 ? pix_in_tile_valid $end
$var reg 1 @ rst $end
$var reg 1 A tile_last $end
$var reg 1 B tile_start $end
$var reg 16 C tile_x_idx [15:0] $end
$var reg 16 D tile_y_idx [15:0] $end
$var reg 1 E v2_valid $end
$var reg 2 F x_mod [1:0] $end
$var reg 8 G y_cur [7:0] $end
$var reg 8 H y_left [7:0] $end
$var reg 16 I y_meta [15:0] $end
$var reg 2 J y_mod [1:0] $end
$var reg 8 K y_up [7:0] $end
$var integer 32 L i [31:0] $end
$scope function iabs $end
$var integer 32 M a [31:0] $end
$upscope $end
$scope function idx $end
$var integer 32 N xm [31:0] $end
$var integer 32 O ym [31:0] $end
$upscope $end
$scope module dut $end
$var wire 1 P bundle_valid $end
$var wire 1 < clk $end
$var wire 8 Q edge_cnt [7:0] $end
$var wire 32 R edge_max [31:0] $end
$var wire 32 S edge_mean [31:0] $end
$var wire 32 T edge_sum [31:0] $end
$var wire 1 U edge_v4_ready $end
$var wire 16 V frame_id [15:0] $end
$var wire 16 W frame_id_o [15:0] $end
$var wire 1 X join_hold $end
$var wire 8 Y maxY [7:0] $end
$var wire 8 Z meanY [7:0] $end
$var wire 8 [ minY [7:0] $end
$var wire 1 > out_ready $end
$var wire 1 * out_valid $end
$var wire 1 ? pix_in_tile_valid $end
$var wire 8 \ rangeY [7:0] $end
$var wire 1 @ rst $end
$var wire 8 ] stats_err_code [7:0] $end
$var wire 1 ^ stats_hold $end
$var wire 5 _ stats_pix_cnt_o [4:0] $end
$var wire 1 & stats_tile_err $end
$var wire 1 ` stats_v3_ready $end
$var wire 12 a sumY [11:0] $end
$var wire 1 A tile_last $end
$var wire 1 B tile_start $end
$var wire 16 b tile_x_idx [15:0] $end
$var wire 16 c tile_x_o [15:0] $end
$var wire 16 d tile_y_idx [15:0] $end
$var wire 16 e tile_y_o [15:0] $end
$var wire 1 " v2_ready $end
$var wire 1 E v2_valid $end
$var wire 2 f x_mod [1:0] $end
$var wire 8 g y_cur [7:0] $end
$var wire 8 h y_left [7:0] $end
$var wire 16 i y_meta [15:0] $end
$var wire 16 j y_meta_o [15:0] $end
$var wire 2 k y_mod [1:0] $end
$var wire 8 l y_up [7:0] $end
$var wire 16 m stats_y_meta_o [15:0] $end
$var wire 1 n stats_v3_valid $end
$var wire 16 o stats_tile_y_o [15:0] $end
$var wire 16 p stats_tile_x_o [15:0] $end
$var wire 1 q stats_tile_err_i $end
$var wire 12 r stats_sumY [11:0] $end
$var wire 20 s stats_sumSq [19:0] $end
$var wire 8 t stats_rangeY [7:0] $end
$var wire 5 u stats_pix_cnt_i [4:0] $end
$var wire 1 v stats_ov_sumsq $end
$var wire 1 w stats_ov_sum $end
$var wire 8 x stats_minY [7:0] $end
$var wire 8 y stats_meanY [7:0] $end
$var wire 8 z stats_maxY [7:0] $end
$var wire 16 { stats_frame_id_o [15:0] $end
$var wire 8 | stats_err_code_i [7:0] $end
$var wire 1 } edge_v4_valid $end
$var wire 1 ~ edge_v2_ready $end
$var wire 32 !" edge_sum_i [31:0] $end
$var wire 32 "" edge_mean_i [31:0] $end
$var wire 32 #" edge_max_i [31:0] $end
$var wire 8 $" edge_cnt_i [7:0] $end
$var parameter 1 %" ASSERT_ON_EDGE $end
$var parameter 1 &" ASSERT_ON_STATS $end
$var parameter 32 '" CNT_W $end
$var parameter 1 (" DO_SUMSQ_STATS $end
$var parameter 32 )" EDGE_MODE $end
$var parameter 32 *" EDGE_THR $end
$var parameter 32 +" EDGE_W $end
$var parameter 32 ," SUMSQ_MAX $end
$var parameter 32 -" SUMSQ_W $end
$var parameter 32 ." SUM_MAX $end
$var parameter 32 /" SUM_W $end
$var parameter 1 0" SUPPORT_PIX_VALID_EDGE $end
$var parameter 1 1" SUPPORT_PIX_VALID_STATS $end
$var parameter 1 2" SUPPORT_TILE_START_EDGE $end
$var parameter 32 3" TILE_H $end
$var parameter 32 4" TILE_PIXELS $end
$var parameter 32 5" TILE_W $end
$var parameter 32 6" Y_W $end
$scope module u_edge $end
$var wire 1 7" accept_in $end
$var wire 1 < clk $end
$var wire 1 8" hit_cnt $end
$var wire 1 9" is_tile_first $end
$var wire 1 :" is_tile_first_xy $end
$var wire 1 ;" pix_eff $end
$var wire 1 ? pix_in_tile_valid $end
$var wire 1 @ rst $end
$var wire 1 A tile_last $end
$var wire 1 B tile_start $end
$var wire 1 E v2_valid $end
$var wire 1 U v4_ready $end
$var wire 1 } v4_valid $end
$var wire 2 <" x_mod [1:0] $end
$var wire 8 =" y_cur [7:0] $end
$var wire 8 >" y_left [7:0] $end
$var wire 2 ?" y_mod [1:0] $end
$var wire 8 @" y_up [7:0] $end
$var wire 1 ~ v2_ready $end
$var wire 32 A" edge_sum [31:0] $end
$var wire 32 B" edge_mean [31:0] $end
$var wire 32 C" edge_max [31:0] $end
$var wire 8 D" edge_cnt [7:0] $end
$var parameter 1 E" ASSERT_ON $end
$var parameter 32 F" CNT_W $end
$var parameter 32 G" EDGE_W $end
$var parameter 32 H" MEAN_W $end
$var parameter 32 I" MODE $end
$var parameter 1 J" SUPPORT_PIX_VALID $end
$var parameter 1 K" SUPPORT_TILE_START $end
$var parameter 32 L" THR $end
$var parameter 32 M" TILE_H $end
$var parameter 32 N" TILE_PIXELS $end
$var parameter 32 O" TILE_W $end
$var parameter 32 P" Y_W $end
$var reg 8 Q" cnt_next [7:0] $end
$var reg 8 R" cnt_r [7:0] $end
$var reg 8 S" dx_abs [7:0] $end
$var reg 8 T" dy_abs [7:0] $end
$var reg 9 U" e_abs_sum [8:0] $end
$var reg 32 V" e_for_max [31:0] $end
$var reg 32 W" e_pix_ext [31:0] $end
$var reg 17 X" e_sq_sum [16:0] $end
$var reg 1 Y" e_thr_hit $end
$var reg 32 Z" max_next [31:0] $end
$var reg 32 [" max_r [31:0] $end
$var reg 8 \" out_cnt [7:0] $end
$var reg 32 ]" out_max [31:0] $end
$var reg 32 ^" out_mean [31:0] $end
$var reg 32 _" out_sum [31:0] $end
$var reg 1 `" out_v $end
$var reg 32 a" sum_next [31:0] $end
$var reg 32 b" sum_r [31:0] $end
$scope function calc_mean $end
$upscope $end
$scope begin $unm_blk_23 $end
$var reg 8 c" m [7:0] $end
$upscope $end
$upscope $end
$scope module u_stats $end
$var wire 1 < clk $end
$var wire 16 d" frame_id [15:0] $end
$var wire 16 e" frame_id_o [15:0] $end
$var wire 1 f" is_tile_first $end
$var wire 1 g" out_hold $end
$var wire 1 w overflow_sum $end
$var wire 1 v overflow_sumsq $end
$var wire 1 ? pix_in_tile_valid $end
$var wire 1 h" pix_ok $end
$var wire 1 @ rst $end
$var wire 20 i" sumSq [19:0] $end
$var wire 1 A tile_last $end
$var wire 16 j" tile_x_idx [15:0] $end
$var wire 16 k" tile_y_idx [15:0] $end
$var wire 1 E v2_valid $end
$var wire 1 ` v3_ready $end
$var wire 2 l" x_mod [1:0] $end
$var wire 16 m" y_cur [15:0] $end
$var wire 8 n" y_in [7:0] $end
$var wire 2 o" y_mod [1:0] $end
$var wire 16 p" y_cur_o [15:0] $end
$var wire 1 n v3_valid $end
$var wire 16 q" tile_y_o [15:0] $end
$var wire 16 r" tile_x_o [15:0] $end
$var wire 1 q tile_err $end
$var wire 12 s" sumY [11:0] $end
$var wire 8 t" rangeY [7:0] $end
$var wire 5 u" pix_cnt_o [4:0] $end
$var wire 8 v" minY [7:0] $end
$var wire 8 w" meanY [7:0] $end
$var wire 8 x" maxY [7:0] $end
$var wire 8 y" err_code [7:0] $end
$var parameter 1 z" ASSERT_ON $end
$var parameter 1 {" DO_SUMSQ $end
$var parameter 32 |" MEAN_SHIFT $end
$var parameter 1 }" SATURATE_SUM $end
$var parameter 1 ~" SATURATE_SUMSQ $end
$var parameter 32 !# SUMSQ_MAX $end
$var parameter 32 "# SUMSQ_W $end
$var parameter 32 ## SUMSQ_W_LOCAL $end
$var parameter 32 $# SUM_MAX $end
$var parameter 32 %# SUM_W $end
$var parameter 32 &# SUM_W_LOCAL $end
$var parameter 1 '# SUPPORT_PIX_VALID $end
$var parameter 32 (# TILE_H $end
$var parameter 32 )# TILE_PIXELS $end
$var parameter 32 *# TILE_W $end
$var parameter 32 +# Y_W $end
$var reg 8 ,# err_code_r [7:0] $end
$var reg 16 -# fid_out_r [15:0] $end
$var reg 1 .# in_tile $end
$var reg 8 /# max_final [7:0] $end
$var reg 8 0# max_out_r [7:0] $end
$var reg 8 1# max_r [7:0] $end
$var reg 12 2# mean_ext [11:0] $end
$var reg 8 3# min_final [7:0] $end
$var reg 8 4# min_out_r [7:0] $end
$var reg 8 5# min_r [7:0] $end
$var reg 1 6# ov_sum_out_r $end
$var reg 1 7# ov_sum_r $end
$var reg 1 8# ov_sumsq_out_r $end
$var reg 1 9# ov_sumsq_r $end
$var reg 5 :# pix_cnt [4:0] $end
$var reg 5 ;# pix_cnt_eff [4:0] $end
$var reg 5 <# pix_cnt_out_r [4:0] $end
$var reg 9 =# range_ext [8:0] $end
$var reg 12 ># sum_final [11:0] $end
$var reg 12 ?# sum_out_r [11:0] $end
$var reg 12 @# sum_r [11:0] $end
$var reg 20 A# sumsq_final [19:0] $end
$var reg 20 B# sumsq_out_r [19:0] $end
$var reg 20 C# sumsq_r [19:0] $end
$var reg 1 q tile_err_r $end
$var reg 16 D# tx_out_r [15:0] $end
$var reg 16 E# ty_out_r [15:0] $end
$var reg 1 n v_out_r $end
$var reg 12 F# y_ext_sum [11:0] $end
$var reg 20 G# y_sq [19:0] $end
$var reg 16 H# ycur_out_r [15:0] $end
$scope begin G_ASSERT $end
$upscope $end
$upscope $end
$upscope $end
$scope task accept_and_check $end
$upscope $end
$scope task compute_expected_edge_mode0 $end
$upscope $end
$scope task drive_pix $end
$upscope $end
$scope task drive_tile $end
$upscope $end
$scope task expect_eq_bit $end
$upscope $end
$scope task expect_eq_int $end
$upscope $end
$scope task reset_dut $end
$upscope $end
$scope task tc1_basic $end
$upscope $end
$scope task tc2_backpressure $end
$upscope $end
$scope task tc3_two_tiles $end
$upscope $end
$scope task wait_out_valid_or_timeout $end
$upscope $end
$upscope $end
$enddefinitions $end
$comment Show the parameter values. $end
$dumpall
b1000 +#
b100 *#
b10000 )#
b100 (#
1'#
b1100 &#
b1100 %#
b111111110000 $#
b10100 ##
b10100 "#
b11111110000000010000 !#
0~"
0}"
b100 |"
0{"
1z"
b1000 P"
b100 O"
b10000 N"
b100 M"
b1000 L"
1K"
1J"
b0 I"
b100000 H"
b100000 G"
b1000 F"
0E"
b1000 6"
b100 5"
b10000 4"
b100 3"
12"
11"
10"
b1100 /"
b111111110000 ."
b10100 -"
b11111110000000010000 ,"
b100000 +"
b1000 *"
b0 )"
0("
b1000 '"
1&"
0%"
b1000 ;
b100 :
b10000 9
b100 8
b1000 7
b1100 6
b111111110000 5
b100000 4
b1000 3
$end
#0
$dumpvars
bx H#
b0 G#
b0 F#
bx E#
bx D#
bx C#
bx B#
b0 A#
bx @#
bx ?#
b0 >#
bx =#
bx <#
b0 ;#
bx :#
x9#
x8#
x7#
x6#
bx 5#
bx 4#
b0 3#
b0xxxxxxxx 2#
bx 1#
bx 0#
b0 /#
x.#
bx -#
bx ,#
bx y"
bx x"
bx w"
bx v"
bx u"
bx t"
bx s"
bx r"
bx q"
bx p"
b0 o"
b0 n"
b0 m"
b0 l"
b0 k"
b0 j"
bx i"
0h"
xg"
1f"
bx e"
b0 d"
bx c"
bx b"
b0 a"
x`"
bx _"
bx ^"
bx ]"
bx \"
bx ["
b0 Z"
0Y"
b0 X"
b0 W"
b0 V"
b0 U"
b0 T"
b0 S"
bx R"
b0 Q"
bx D"
bx C"
bx B"
bx A"
b0 @"
b0 ?"
b0 >"
b0 ="
b0 <"
1;"
1:"
19"
08"
07"
bx $"
bx #"
bx ""
bx !"
x~
x}
bx |
bx {
bx z
bx y
bx x
xw
xv
bx u
bx t
bx s
bx r
xq
bx p
bx o
xn
bx m
b0 l
b0 k
bx j
b0 i
b0 h
b0 g
b0 f
bx e
b0 d
bx c
b0 b
bx a
x`
bx _
x^
bx ]
bx \
bx [
bx Z
bx Y
xX
bx W
b0 V
xU
bx T
bx S
bx R
bx Q
xP
bx O
bx N
bx M
b10000 L
b0 K
b0 J
b0 I
b0 H
b0 G
b0 F
0E
b0 D
b0 C
0B
0A
1@
1?
1>
b0 =
0<
bx 2
bx 1
bx 0
bx /
bx .
bx -
bx ,
bx +
x*
bx )
bx (
bx '
x&
bx %
bx $
bx #
x"
bx !
$end
#5000
1"
b0 )
b0 \
b0 t
b0 t"
b0 ,
b0 Z
b0 y
b0 w"
0g"
0U
0^
b0 =#
b0 2#
0X
0`
0*
0P
0v
08#
0w
06#
b0 '
b0 _
b0 u
b0 u"
b0 <#
b0 (
b0 ]
b0 |
b0 y"
b0 ,#
0&
0q
0n
b0 .
b0 W
b0 {
b0 e"
b0 -#
b0 #
b0 e
b0 o
b0 q"
b0 E#
b0 $
b0 c
b0 p
b0 r"
b0 D#
b0 !
b0 j
b0 m
b0 p"
b0 H#
b0 s
b0 i"
b0 B#
b0 -
b0 Y
b0 z
b0 x"
b0 0#
b0 +
b0 [
b0 x
b0 v"
b0 4#
b0 %
b0 a
b0 r
b0 s"
b0 ?#
09#
07#
b0 :#
0.#
b0 C#
b0 1#
b11111111 5#
b0 @#
b0 0
b0 S
b0 ""
b0 B"
b0 ^"
b0 2
b0 Q
b0 $"
b0 D"
b0 \"
b0 1
b0 R
b0 #"
b0 C"
b0 ]"
b0 /
b0 T
b0 !"
b0 A"
b0 _"
1~
0}
0`"
b0 R"
b0 ["
b0 b"
1<
#10000
0<
#15000
1<
#20000
0<
#25000
1<
#30000
0<
#35000
1<
#40000
0<
#45000
0@
1<
#50000
0<
#55000
1<
#60000
0<
#65000
b1101111 I
b1101111 i
b1101111 m"
b111 =
b111 V
b111 d"
b101 D
b101 d
b101 k"
b11 C
b11 b
b11 j"
b100 M
b0 N
b0 O
1<
#70000
b1 /#
b1 3#
b1 >#
b1 F#
17"
1h"
1B
b1 K
b1 l
b1 @"
b1 H
b1 h
b1 >"
b1 G
b1 g
b1 ="
b1 n"
1E
0<
#75000
b111 .
b111 W
b111 {
b111 e"
b111 -#
b101 #
b101 e
b101 o
b101 q"
b101 E#
b11 $
b11 c
b11 p
b11 r"
b11 D#
b1 1#
b1 5#
b1 @#
1.#
1<
#80000
07"
0h"
b0 N
0B
0E
0<
#85000
1<
#90000
b1 Z"
b1 a"
b1 W"
b1 V"
b1 X"
b1 U"
09"
b10 /#
b11 >#
b1 ;#
b10 F#
b1 S"
0:"
0f"
17"
1h"
b10 K
b10 l
b10 @"
b10 G
b10 g
b10 ="
b10 n"
b1 F
b1 f
b1 <"
b1 l"
1E
0<
#95000
b10 a"
b101 >#
b10 ;#
b1 ["
b1 b"
b10 1#
b11 @#
b1 :#
1<
#100000
07"
0h"
b1 N
0E
0<
#105000
1<
#110000
b11 /#
b110 >#
b11 F#
17"
1h"
b11 K
b11 l
b11 @"
b10 H
b10 h
b10 >"
b11 G
b11 g
b11 ="
b11 n"
b10 F
b10 f
b10 <"
b10 l"
1E
0<
#115000
b11 a"
b1001 >#
b11 ;#
b10 b"
b11 1#
b110 @#
b10 :#
1<
#120000
07"
0h"
b10 N
0E
0<
#125000
1<
#130000
b100 /#
b1010 >#
b100 F#
17"
1h"
b100 K
b100 l
b100 @"
b11 H
b11 h
b11 >"
b100 G
b100 g
b100 ="
b100 n"
b11 F
b11 f
b11 <"
b11 l"
1E
0<
#135000
b100 a"
b1110 >#
b100 ;#
b11 b"
b100 1#
b1010 @#
b11 :#
1<
#140000
07"
0h"
b0 N
b0 O
0E
0<
#145000
1<
#150000
b100 Z"
b111 a"
b100 W"
b100 V"
b10000 X"
b100 U"
b101 /#
b1111 >#
b101 F#
b100 T"
b0 S"
17"
1h"
b1 K
b1 l
b1 @"
b101 H
b101 h
b101 >"
b101 G
b101 g
b101 ="
b101 n"
b1 J
b1 k
b1 ?"
b1 o"
b0 F
b0 f
b0 <"
b0 l"
1E
0<
#155000
b1011 a"
b10100 >#
b101 ;#
b100 ["
b111 b"
b101 1#
b1111 @#
b100 :#
1<
#160000
07"
0h"
b1 N
b0 O
0E
0<
#165000
1<
#170000
b101 Z"
b1100 a"
b101 W"
b101 V"
b10001 X"
b101 U"
b110 /#
b10101 >#
b110 F#
b1 S"
17"
1h"
b10 K
b10 l
b10 @"
b110 G
b110 g
b110 ="
b110 n"
b1 F
b1 f
b1 <"
b1 l"
1E
0<
#175000
b10001 a"
b11011 >#
b110 ;#
b101 ["
b1100 b"
b110 1#
b10101 @#
b101 :#
1<
#180000
07"
0h"
b10 N
b0 O
0E
0<
#185000
1<
#190000
b111 /#
b11100 >#
b111 F#
17"
1h"
b11 K
b11 l
b11 @"
b110 H
b110 h
b110 >"
b111 G
b111 g
b111 ="
b111 n"
b10 F
b10 f
b10 <"
b10 l"
1E
0<
#195000
b10110 a"
b100011 >#
b111 ;#
b10001 b"
b111 1#
b11100 @#
b110 :#
1<
#200000
07"
0h"
b11 N
b0 O
0E
0<
#205000
1<
#210000
b1000 /#
b100100 >#
b1000 F#
17"
1h"
b100 K
b100 l
b100 @"
b111 H
b111 h
b111 >"
b1000 G
b1000 g
b1000 ="
b1000 n"
b11 F
b11 f
b11 <"
b11 l"
1E
0<
#215000
b11011 a"
b101100 >#
b1000 ;#
b10110 b"
b1000 1#
b100100 @#
b111 :#
1<
#220000
07"
0h"
b0 N
b1 O
0E
0<
#225000
1<
#230000
b11010 a"
b100 W"
b100 V"
b10000 X"
b100 U"
b1001 /#
b101101 >#
b1001 F#
b0 S"
17"
1h"
b101 K
b101 l
b101 @"
b1001 H
b1001 h
b1001 >"
b1001 G
b1001 g
b1001 ="
b1001 n"
b10 J
b10 k
b10 ?"
b10 o"
b0 F
b0 f
b0 <"
b0 l"
1E
0<
#235000
b11110 a"
b110110 >#
b1001 ;#
b11010 b"
b1001 1#
b101101 @#
b1000 :#
1<
#240000
07"
0h"
b1 N
b1 O
0E
0<
#245000
1<
#250000
b11111 a"
b101 W"
b101 V"
b10001 X"
b101 U"
b1010 /#
b110111 >#
b1010 F#
b1 S"
17"
1h"
b110 K
b110 l
b110 @"
b1010 G
b1010 g
b1010 ="
b1010 n"
b1 F
b1 f
b1 <"
b1 l"
1E
0<
#255000
b100100 a"
b1000001 >#
b1010 ;#
b11111 b"
b1010 1#
b110111 @#
b1001 :#
1<
#260000
07"
0h"
b10 N
b1 O
0E
0<
#265000
1<
#270000
b1011 /#
b1000010 >#
b1011 F#
17"
1h"
b111 K
b111 l
b111 @"
b1010 H
b1010 h
b1010 >"
b1011 G
b1011 g
b1011 ="
b1011 n"
b10 F
b10 f
b10 <"
b10 l"
1E
0<
#275000
b101001 a"
b1001101 >#
b1011 ;#
b100100 b"
b1011 1#
b1000010 @#
b1010 :#
1<
#280000
07"
0h"
b11 N
b1 O
0E
0<
#285000
1<
#290000
b1100 /#
b1001110 >#
b1100 F#
17"
1h"
b1000 K
b1000 l
b1000 @"
b1011 H
b1011 h
b1011 >"
b1100 G
b1100 g
b1100 ="
b1100 n"
b11 F
b11 f
b11 <"
b11 l"
1E
0<
#295000
b101110 a"
b1011010 >#
b1100 ;#
b101001 b"
b1100 1#
b1001110 @#
b1011 :#
1<
#300000
07"
0h"
b0 N
b10 O
0E
0<
#305000
1<
#310000
b101101 a"
b100 W"
b100 V"
b10000 X"
b100 U"
b1101 /#
b1011011 >#
b1101 F#
b0 S"
17"
1h"
b1001 K
b1001 l
b1001 @"
b1101 H
b1101 h
b1101 >"
b1101 G
b1101 g
b1101 ="
b1101 n"
b11 J
b11 k
b11 ?"
b11 o"
b0 F
b0 f
b0 <"
b0 l"
1E
0<
#315000
b110001 a"
b1101000 >#
b1101 ;#
b101101 b"
b1101 1#
b1011011 @#
b1100 :#
1<
#320000
07"
0h"
b1 N
b10 O
0E
0<
#325000
1<
#330000
b110010 a"
b101 W"
b101 V"
b10001 X"
b101 U"
b1110 /#
b1101001 >#
b1110 F#
b1 S"
17"
1h"
b1010 K
b1010 l
b1010 @"
b1110 G
b1110 g
b1110 ="
b1110 n"
b1 F
b1 f
b1 <"
b1 l"
1E
0<
#335000
b110111 a"
b1110111 >#
b1110 ;#
b110010 b"
b1110 1#
b1101001 @#
b1101 :#
1<
#340000
07"
0h"
b10 N
b10 O
0E
0<
#345000
1<
#350000
b1111 /#
b1111000 >#
b1111 F#
17"
1h"
b1011 K
b1011 l
b1011 @"
b1110 H
b1110 h
b1110 >"
b1111 G
b1111 g
b1111 ="
b1111 n"
b10 F
b10 f
b10 <"
b10 l"
1E
0<
#355000
b111100 a"
b10000111 >#
b1111 ;#
b110111 b"
b1111 1#
b1111000 @#
b1110 :#
1<
#360000
07"
0h"
b11 N
b10 O
0E
0<
#365000
1<
#370000
b10000 /#
b10001000 >#
b10000 F#
17"
1h"
1A
b1100 K
b1100 l
b1100 @"
b1111 H
b1111 h
b1111 >"
b10000 G
b10000 g
b10000 ="
b10000 n"
b11 F
b11 f
b11 <"
b11 l"
1E
0<
#375000
0"
b1111 )
b1111 \
b1111 t
b1111 t"
b1000 ,
b1000 Z
b1000 y
b1000 w"
07"
1`
b101 a"
0g"
1U
1*
1P
0^
b1111 =#
b1000 2#
b10011000 >#
b1 ;#
b0 ["
0~
1}
1`"
b11 0
b11 S
b11 ""
b11 B"
b11 ^"
b101 1
b101 R
b101 #"
b101 C"
b101 ]"
b111100 /
b111100 T
b111100 !"
b111100 A"
b111100 _"
b0 b"
0.#
1n
b1111 '
b1111 _
b1111 u
b1111 u"
b1111 <#
b1101111 !
b1101111 j
b1101111 m
b1101111 p"
b1101111 H#
b10000 -
b10000 Y
b10000 z
b10000 x"
b10000 0#
b1 +
b1 [
b1 x
b1 v"
b1 4#
b10001000 %
b10001000 a
b10001000 r
b10001000 s"
b10001000 ?#
b10000 1#
b10001000 @#
b0 :#
1<
#380000
0h"
0A
0E
0<
#385000
1"
0U
0`
0*
0P
0n
1~
0}
0`"
1<
#390000
0<
#395000
b0 Z"
b0 a"
19"
b0 /#
b0 ;#
b0 W"
b0 V"
b0 X"
b0 U"
1:"
1f"
b0 T"
b0 S"
b0 3#
b0 >#
b0 F#
b0 I
b0 i
b0 m"
b0 =
b0 V
b0 d"
b0 D
b0 d
b0 k"
b0 C
b0 b
b0 j"
b0 J
b0 k
b0 ?"
b0 o"
b0 F
b0 f
b0 <"
b0 l"
b0 K
b0 l
b0 @"
b0 H
b0 h
b0 >"
b0 G
b0 g
b0 ="
b0 n"
1@
1<
#400000
0<
#405000
b0 )
b0 \
b0 t
b0 t"
b0 ,
b0 Z
b0 y
b0 w"
b0 =#
b0 2#
b0 '
b0 _
b0 u
b0 u"
b0 <#
b0 .
b0 W
b0 {
b0 e"
b0 -#
b0 #
b0 e
b0 o
b0 q"
b0 E#
b0 $
b0 c
b0 p
b0 r"
b0 D#
b0 !
b0 j
b0 m
b0 p"
b0 H#
b0 -
b0 Y
b0 z
b0 x"
b0 0#
b0 +
b0 [
b0 x
b0 v"
b0 4#
b0 %
b0 a
b0 r
b0 s"
b0 ?#
b0 1#
b11111111 5#
b0 @#
b0 0
b0 S
b0 ""
b0 B"
b0 ^"
b0 1
b0 R
b0 #"
b0 C"
b0 ]"
b0 /
b0 T
b0 !"
b0 A"
b0 _"
1<
#410000
0<
#415000
1<
#420000
0<
#425000
1<
#430000
0<
#435000
1<
#440000
0<
#445000
0@
1<
#450000
0<
#455000
1<
#460000
0<
#465000
b11011110 I
b11011110 i
b11011110 m"
b110 =
b110 V
b110 d"
b1000 D
b1000 d
b1000 k"
b1001 C
b1001 b
b1001 j"
b100 M
b0 N
b0 O
1<
#470000
b1 /#
b1 3#
b1 >#
b1 F#
17"
1h"
1B
b1 K
b1 l
b1 @"
b1 H
b1 h
b1 >"
b1 G
b1 g
b1 ="
b1 n"
1E
0<
#475000
b110 .
b110 W
b110 {
b110 e"
b110 -#
b1000 #
b1000 e
b1000 o
b1000 q"
b1000 E#
b1001 $
b1001 c
b1001 p
b1001 r"
b1001 D#
b1 1#
b1 5#
b1 @#
1.#
1<
#480000
07"
0h"
b0 N
0B
0E
0<
#485000
1<
#490000
b1 Z"
b1 a"
b1 W"
b1 V"
b1 X"
b1 U"
09"
b10 /#
b11 >#
b1 ;#
b10 F#
b1 S"
0:"
0f"
17"
1h"
b10 K
b10 l
b10 @"
b10 G
b10 g
b10 ="
b10 n"
b1 F
b1 f
b1 <"
b1 l"
1E
0<
#495000
b10 a"
b101 >#
b10 ;#
b1 ["
b1 b"
b10 1#
b11 @#
b1 :#
1<
#500000
07"
0h"
b1 N
0E
0<
#505000
1<
#510000
b11 /#
b110 >#
b11 F#
17"
1h"
b11 K
b11 l
b11 @"
b10 H
b10 h
b10 >"
b11 G
b11 g
b11 ="
b11 n"
b10 F
b10 f
b10 <"
b10 l"
1E
0<
#515000
b11 a"
b1001 >#
b11 ;#
b10 b"
b11 1#
b110 @#
b10 :#
1<
#520000
07"
0h"
b10 N
0E
0<
#525000
1<
#530000
b100 /#
b1010 >#
b100 F#
17"
1h"
b100 K
b100 l
b100 @"
b11 H
b11 h
b11 >"
b100 G
b100 g
b100 ="
b100 n"
b11 F
b11 f
b11 <"
b11 l"
1E
0<
#535000
b100 a"
b1110 >#
b100 ;#
b11 b"
b100 1#
b1010 @#
b11 :#
1<
#540000
07"
0h"
b0 N
b0 O
0E
0<
#545000
1<
#550000
b100 Z"
b111 a"
b100 W"
b100 V"
b10000 X"
b100 U"
b101 /#
b1111 >#
b101 F#
b100 T"
b0 S"
17"
1h"
b1 K
b1 l
b1 @"
b101 H
b101 h
b101 >"
b101 G
b101 g
b101 ="
b101 n"
b1 J
b1 k
b1 ?"
b1 o"
b0 F
b0 f
b0 <"
b0 l"
1E
0<
#555000
b1011 a"
b10100 >#
b101 ;#
b100 ["
b111 b"
b101 1#
b1111 @#
b100 :#
1<
#560000
07"
0h"
b1 N
b0 O
0E
0<
#565000
1<
#570000
b101 Z"
b1100 a"
b101 W"
b101 V"
b10001 X"
b101 U"
b110 /#
b10101 >#
b110 F#
b1 S"
17"
1h"
b10 K
b10 l
b10 @"
b110 G
b110 g
b110 ="
b110 n"
b1 F
b1 f
b1 <"
b1 l"
1E
0<
#575000
b10001 a"
b11011 >#
b110 ;#
b101 ["
b1100 b"
b110 1#
b10101 @#
b101 :#
1<
#580000
07"
0h"
b10 N
b0 O
0E
0<
#585000
1<
#590000
b111 /#
b11100 >#
b111 F#
17"
1h"
b11 K
b11 l
b11 @"
b110 H
b110 h
b110 >"
b111 G
b111 g
b111 ="
b111 n"
b10 F
b10 f
b10 <"
b10 l"
1E
0<
#595000
b10110 a"
b100011 >#
b111 ;#
b10001 b"
b111 1#
b11100 @#
b110 :#
1<
#600000
07"
0h"
b11 N
b0 O
0E
0<
#605000
1<
#610000
b1000 /#
b100100 >#
b1000 F#
17"
1h"
b100 K
b100 l
b100 @"
b111 H
b111 h
b111 >"
b1000 G
b1000 g
b1000 ="
b1000 n"
b11 F
b11 f
b11 <"
b11 l"
1E
0<
#615000
b11011 a"
b101100 >#
b1000 ;#
b10110 b"
b1000 1#
b100100 @#
b111 :#
1<
#620000
07"
0h"
b0 N
b1 O
0E
0<
#625000
1<
#630000
b11010 a"
b100 W"
b100 V"
b10000 X"
b100 U"
b1001 /#
b101101 >#
b1001 F#
b0 S"
17"
1h"
b101 K
b101 l
b101 @"
b1001 H
b1001 h
b1001 >"
b1001 G
b1001 g
b1001 ="
b1001 n"
b10 J
b10 k
b10 ?"
b10 o"
b0 F
b0 f
b0 <"
b0 l"
1E
0<
#635000
b11110 a"
b110110 >#
b1001 ;#
b11010 b"
b1001 1#
b101101 @#
b1000 :#
1<
#640000
07"
0h"
b1 N
b1 O
0E
0<
#645000
1<
#650000
b11111 a"
b101 W"
b101 V"
b10001 X"
b101 U"
b1010 /#
b110111 >#
b1010 F#
b1 S"
17"
1h"
b110 K
b110 l
b110 @"
b1010 G
b1010 g
b1010 ="
b1010 n"
b1 F
b1 f
b1 <"
b1 l"
1E
0<
#655000
b100100 a"
b1000001 >#
b1010 ;#
b11111 b"
b1010 1#
b110111 @#
b1001 :#
1<
#660000
07"
0h"
b10 N
b1 O
0E
0<
#665000
1<
