tb_tile_stats_4x4.vcd
$date
	Fri Jan 30 12:44:49 2026
$end
$version
	Icarus Verilog
$end
$timescale
	1ps
$end
$scope module tb_tile_stats_4x4 $end
$var wire 16 ! y_cur_o [15:0] $end
$var wire 1 " v3_valid $end
$var wire 16 # tile_y_o [15:0] $end
$var wire 16 $ tile_x_o [15:0] $end
$var wire 1 % tile_err $end
$var wire 12 & sumY [11:0] $end
$var wire 32 ' sumSq [31:0] $end
$var wire 8 ( rangeY [7:0] $end
$var wire 5 ) pix_cnt_o [4:0] $end
$var wire 1 * overflow_sumsq $end
$var wire 1 + overflow_sum $end
$var wire 8 , minY [7:0] $end
$var wire 8 - meanY [7:0] $end
$var wire 8 . maxY [7:0] $end
$var wire 16 / frame_id_o [15:0] $end
$var wire 8 0 err_code [7:0] $end
$var parameter 32 1 TILE_H $end
$var parameter 32 2 TILE_PIX $end
$var parameter 32 3 TILE_W $end
$var parameter 32 4 Y_W $end
$var reg 1 5 clk $end
$var reg 16 6 frame_id [15:0] $end
$var reg 1 7 pix_in_tile_valid $end
$var reg 1 8 rst $end
$var reg 1 9 tile_last $end
$var reg 16 : tile_x_idx [15:0] $end
$var reg 16 ; tile_y_idx [15:0] $end
$var reg 1 < v2_valid $end
$var reg 1 = v3_ready $end
$var reg 2 > x_mod [1:0] $end
$var reg 16 ? y_cur [15:0] $end
$var reg 8 @ y_in [7:0] $end
$var reg 2 A y_mod [1:0] $end
$scope module dut $end
$var wire 1 5 clk $end
$var wire 8 B err_code [7:0] $end
$var wire 16 C frame_id [15:0] $end
$var wire 16 D frame_id_o [15:0] $end
$var wire 1 E is_tile_first $end
$var wire 8 F maxY [7:0] $end
$var wire 8 G minY [7:0] $end
$var wire 1 H out_hold $end
$var wire 1 + overflow_sum $end
$var wire 1 * overflow_sumsq $end
$var wire 5 I pix_cnt_o [4:0] $end
$var wire 1 7 pix_in_tile_valid $end
$var wire 1 J pix_ok $end
$var wire 1 8 rst $end
$var wire 12 K sumY [11:0] $end
$var wire 1 % tile_err $end
$var wire 1 9 tile_last $end
$var wire 16 L tile_x_idx [15:0] $end
$var wire 16 M tile_x_o [15:0] $end
$var wire 16 N tile_y_idx [15:0] $end
$var wire 16 O tile_y_o [15:0] $end
$var wire 1 < v2_valid $end
$var wire 1 = v3_ready $end
$var wire 2 P x_mod [1:0] $end
$var wire 16 Q y_cur [15:0] $end
$var wire 16 R y_cur_o [15:0] $end
$var wire 8 S y_in [7:0] $end
$var wire 2 T y_mod [1:0] $end
$var wire 1 " v3_valid $end
$var wire 20 U sumSq [19:0] $end
$var wire 8 V rangeY [7:0] $end
$var wire 8 W meanY [7:0] $end
$var parameter 1 X ASSERT_ON $end
$var parameter 1 Y DO_SUMSQ $end
$var parameter 32 Z MEAN_SHIFT $end
$var parameter 1 [ SATURATE_SUM $end
$var parameter 1 \ SATURATE_SUMSQ $end
$var parameter 32 ] SUMSQ_MAX $end
$var parameter 32 ^ SUMSQ_W $end
$var parameter 32 _ SUMSQ_W_LOCAL $end
$var parameter 32 ` SUM_MAX $end
$var parameter 32 a SUM_W $end
$var parameter 32 b SUM_W_LOCAL $end
$var parameter 1 c SUPPORT_PIX_VALID $end
$var parameter 32 d TILE_H $end
$var parameter 32 e TILE_PIXELS $end
$var parameter 32 f TILE_W $end
$var parameter 32 g Y_W $end
$var reg 8 h err_code_r [7:0] $end
$var reg 16 i fid_out_r [15:0] $end
$var reg 1 j in_tile $end
$var reg 8 k max_final [7:0] $end
$var reg 8 l max_out_r [7:0] $end
$var reg 8 m max_r [7:0] $end
$var reg 12 n mean_ext [11:0] $end
$var reg 8 o min_final [7:0] $end
$var reg 8 p min_out_r [7:0] $end
$var reg 8 q min_r [7:0] $end
$var reg 1 r ov_sum_out_r $end
$var reg 1 s ov_sum_r $end
$var reg 1 t ov_sumsq_out_r $end
$var reg 1 u ov_sumsq_r $end
$var reg 5 v pix_cnt [4:0] $end
$var reg 5 w pix_cnt_eff [4:0] $end
$var reg 5 x pix_cnt_out_r [4:0] $end
$var reg 9 y range_ext [8:0] $end
$var reg 12 z sum_final [11:0] $end
$var reg 12 { sum_out_r [11:0] $end
$var reg 12 | sum_r [11:0] $end
$var reg 20 } sumsq_final [19:0] $end
$var reg 20 ~ sumsq_out_r [19:0] $end
$var reg 20 !" sumsq_r [19:0] $end
$var reg 1 "" tile_err_r $end
$var reg 16 #" tx_out_r [15:0] $end
$var reg 16 $" ty_out_r [15:0] $end
$var reg 1 " v_out_r $end
$var reg 12 %" y_ext_sum [11:0] $end
$var reg 20 &" y_sq [19:0] $end
$var reg 16 '" ycur_out_r [15:0] $end
$scope begin G_ASSERT $end
$upscope $end
$upscope $end
$scope task bubble_cycle $end
$upscope $end
$scope task drive_pix $end
$upscope $end
$scope task expect_eq_bit $end
$upscope $end
$scope task expect_eq_int $end
$upscope $end
$scope task reset_dut $end
$upscope $end
$scope task tc1_basic $end
$scope begin $ivl_for_loop0 $end
$scope begin $ivl_for_loop1 $end
$upscope $end
$upscope $end
$upscope $end
$scope task tc2_bubbles $end
$scope begin $ivl_for_loop2 $end
$scope begin $ivl_for_loop3 $end
$upscope $end
$upscope $end
$upscope $end
$scope task tc3_missing_pixel_expect_err $end
$scope begin $ivl_for_loop4 $end
$scope begin $ivl_for_loop5 $end
$upscope $end
$upscope $end
$upscope $end
$scope task tc4_output_hold $end
$scope begin $ivl_for_loop6 $end
$scope begin $ivl_for_loop7 $end
$upscope $end
$upscope $end
$upscope $end
$scope task tc5_roi_expect_err_and_stats_match_valid_only $end
$scope begin $ivl_for_loop8 $end
$scope begin $ivl_for_loop9 $end
$scope begin $unm_blk_45 $end
$upscope $end
$upscope $end
$upscope $end
$upscope $end
$scope task wait_v3_valid_or_timeout $end
$upscope $end
$upscope $end
$enddefinitions $end
$comment Show the parameter values. $end
$dumpall
b1000 g
b100 f
b10000 e
b100 d
1c
b1100 b
b1100 a
b111111110000 `
b10100 _
b10100 ^
b11111110000000010000 ]
0\
0[
b100 Z
0Y
1X
b1000 4
b100 3
b10000 2
b100 1
$end
#0
$dumpvars
bx '"
b0 &"
b0 %"
bx $"
bx #"
x""
bx !"
bx ~
b0 }
bx |
bx {
b0 z
bx y
bx x
b0 w
bx v
xu
xt
xs
xr
bx q
bx p
b0 o
b0xxxxxxxx n
bx m
bx l
b0 k
xj
bx i
bx h
bx W
bx V
bx U
b0 T
b0 S
bx R
b0 Q
b0 P
bx O
b0 N
bx M
b0 L
bx K
0J
bx I
0H
bx G
bx F
1E
bx D
b0 C
bx B
b0 A
b0 @
b0 ?
b0 >
1=
0<
b0 ;
b0 :
09
18
17
b0 6
05
bx 0
bx /
bx .
bx -
bx ,
x+
x*
bx )
bx (
b0xxxxxxxxxxxxxxxxxxxx '
bx &
x%
bx $
bx #
x"
bx !
$end
#5000
b0 (
b0 V
b0 -
b0 W
b0 y
b0 n
0*
0t
0+
0r
b0 )
b0 I
b0 x
b0 0
b0 B
b0 h
0%
0""
0"
b0 /
b0 D
b0 i
b0 #
b0 O
b0 $"
b0 $
b0 M
b0 #"
b0 !
b0 R
b0 '"
b0 '
b0 U
b0 ~
b0 .
b0 F
b0 l
b0 ,
b0 G
b0 p
b0 &
b0 K
b0 {
0u
0s
b0 v
0j
b0 !"
b0 m
b11111111 q
b0 |
15
#10000
05
#15000
15
#20000
05
#25000
15
#30000
05
#35000
15
#40000
05
#45000
08
15
#50000
05
#55000
15
#60000
05
#65000
b111 6
b111 C
b101 ;
b101 N
b11 :
b11 L
15
#70000
b1 k
b1 o
b1 z
b1 %"
1J
b1101111 ?
b1101111 Q
b1 @
b1 S
1<
05
#75000
b111 /
b111 D
b111 i
b101 #
b101 O
b101 $"
b11 $
b11 M
b11 #"
b1 m
b1 q
b1 |
1j
15
#80000
0J
0<
05
#85000
15
#90000
b10 k
b11 z
b1 w
b10 %"
0E
1J
b10 @
b10 S
b1 >
b1 P
1<
05
#95000
b101 z
b10 w
b10 m
b11 |
b1 v
15
#100000
0J
0<
05
#105000
15
#110000
b11 k
b110 z
b11 %"
1J
b11 @
b11 S
b10 >
b10 P
1<
05
#115000
b1001 z
b11 w
b11 m
b110 |
b10 v
15
#120000
0J
0<
05
#125000
15
#130000
b100 k
b1010 z
b100 %"
1J
b100 @
b100 S
b11 >
b11 P
1<
05
#135000
b1110 z
b100 w
b100 m
b1010 |
b11 v
15
#140000
0J
0<
05
#145000
15
#150000
b101 k
b1111 z
b101 %"
1J
b101 @
b101 S
b1 A
b1 T
b0 >
b0 P
1<
05
#155000
b10100 z
b101 w
b101 m
b1111 |
b100 v
15
#160000
0J
0<
05
#165000
15
#170000
b110 k
b10101 z
b110 %"
1J
b110 @
b110 S
b1 >
b1 P
1<
05
#175000
b11011 z
b110 w
b110 m
b10101 |
b101 v
15
#180000
0J
0<
05
#185000
15
#190000
b111 k
b11100 z
b111 %"
1J
b111 @
b111 S
b10 >
b10 P
1<
05
#195000
b100011 z
b111 w
b111 m
b11100 |
b110 v
15
#200000
0J
0<
05
#205000
15
#210000
b1000 k
b100100 z
b1000 %"
1J
b1000 @
b1000 S
b11 >
b11 P
1<
05
#215000
b101100 z
b1000 w
b1000 m
b100100 |
b111 v
15
#220000
0J
0<
05
#225000
15
#230000
b1001 k
b101101 z
b1001 %"
1J
b1001 @
b1001 S
b10 A
b10 T
b0 >
b0 P
1<
05
#235000
b110110 z
b1001 w
b1001 m
b101101 |
b1000 v
15
#240000
0J
0<
05
#245000
15
#250000
b1010 k
b110111 z
b1010 %"
1J
b1010 @
b1010 S
b1 >
b1 P
1<
05
#255000
b1000001 z
b1010 w
b1010 m
b110111 |
b1001 v
15
#260000
0J
0<
05
#265000
15
#270000
b1011 k
b1000010 z
b1011 %"
1J
b1011 @
b1011 S
b10 >
b10 P
1<
05
#275000
b1001101 z
b1011 w
b1011 m
b1000010 |
b1010 v
15
#280000
0J
0<
05
#285000
15
#290000
b1100 k
b1001110 z
b1100 %"
1J
b1100 @
b1100 S
b11 >
b11 P
1<
05
#295000
b1011010 z
b1100 w
b1100 m
b1001110 |
b1011 v
15
#300000
0J
0<
05
#305000
15
#310000
b1101 k
b1011011 z
b1101 %"
1J
b1101 @
b1101 S
b11 A
b11 T
b0 >
b0 P
1<
05
#315000
b1101000 z
b1101 w
b1101 m
b1011011 |
b1100 v
15
#320000
0J
0<
05
#325000
15
#330000
b1110 k
b1101001 z
b1110 %"
1J
b1110 @
b1110 S
b1 >
b1 P
1<
05
#335000
b1110111 z
b1110 w
b1110 m
b1101001 |
b1101 v
15
#340000
0J
0<
05
#345000
15
#350000
b1111 k
b1111000 z
b1111 %"
1J
b1111 @
b1111 S
b10 >
b10 P
1<
05
#355000
b10000111 z
b1111 w
b1111 m
b1111000 |
b1110 v
15
#360000
0J
0<
05
#365000
15
#370000
b10000 k
b10001000 z
b10000 %"
1J
19
b10000 @
b10000 S
b11 >
b11 P
1<
05
#375000
b1111 (
b1111 V
b1000 -
b1000 W
b1111 y
b1000 n
b10011000 z
b1 w
0j
1"
b1111 )
b1111 I
b1111 x
b1101111 !
b1101111 R
b1101111 '"
b10000 .
b10000 F
b10000 l
b1 ,
b1 G
b1 p
b10001000 &
b10001000 K
b10001000 {
b10000 m
b10001000 |
b0 v
15
#380000
b0 k
b0 o
b0 z
b0 w
b0 %"
1E
0J
b0 6
b0 C
b0 ;
b0 N
b0 :
b0 L
b0 ?
b0 Q
b0 @
b0 S
b0 A
b0 T
b0 >
b0 P
18
09
0<
05
#385000
b0 (
b0 V
b0 -
b0 W
b0 y
b0 n
b0 )
b0 I
b0 x
0"
b0 /
b0 D
b0 i
b0 #
b0 O
b0 $"
b0 $
b0 M
b0 #"
b0 !
b0 R
b0 '"
b0 .
b0 F
b0 l
b0 ,
b0 G
b0 p
b0 &
b0 K
b0 {
b0 m
b11111111 q
b0 |
15
#390000
05
#395000
15
#400000
05
#405000
15
#410000
05
#415000
15
#420000
05
#425000
08
15
#430000
05
#435000
15
#440000
05
#445000
b1001 6
b1001 C
b10 ;
b10 N
b1 :
b1 L
15
#450000
b1 k
b1 o
b1 z
b1 %"
1J
b11011110 ?
b11011110 Q
b1 @
b1 S
1<
05
#455000
b1001 /
b1001 D
b1001 i
b10 #
b10 O
b10 $"
b1 $
b1 M
b1 #"
b1 m
b1 q
b1 |
1j
15
#460000
0J
0<
05
#465000
15
#470000
b10 k
b11 z
b1 w
b10 %"
0E
1J
b10 @
b10 S
b1 >
b1 P
1<
05
#475000
b101 z
b10 w
b10 m
b11 |
b1 v
15
#480000
0J
0<
05
#485000
15
#490000
b11 k
b110 z
b11 %"
1J
b11 @
b11 S
b10 >
b10 P
1<
05
#495000
b1001 z
b11 w
b11 m
b110 |
b10 v
15
#500000
0J
0<
05
#505000
15
#510000
b100 k
b1010 z
b100 %"
1J
b100 @
b100 S
b11 >
b11 P
1<
05
#515000
b1110 z
b100 w
b100 m
b1010 |
b11 v
15
#520000
0J
0<
05
#525000
15
#530000
b101 k
b1111 z
b101 %"
1J
b101 @
b101 S
b1 A
b1 T
b0 >
b0 P
1<
05
#535000
b10100 z
b101 w
b101 m
b1111 |
b100 v
15
#540000
0J
0<
05
#545000
15
#550000
b110 k
b10101 z
b110 %"
1J
b110 @
b110 S
b1 >
b1 P
1<
05
#555000
b11011 z
b110 w
b110 m
b10101 |
b101 v
15
#560000
0J
0<
05
#565000
15
#570000
b111 k
b11100 z
b111 %"
1J
b111 @
b111 S
b10 >
b10 P
1<
05
#575000
b100011 z
b111 w
b111 m
b11100 |
b110 v
15
#580000
0J
0<
05
#585000
15
#590000
b1000 k
b100100 z
b1000 %"
1J
b1000 @
b1000 S
b11 >
b11 P
1<
05
#595000
b101100 z
b1000 w
b1000 m
b100100 |
b111 v
15
#600000
0J
0<
05
#605000
15
#610000
b1001 k
b101101 z
b1001 %"
1J
b1001 @
b1001 S
b10 A
b10 T
b0 >
b0 P
1<
05
#615000
b110110 z
b1001 w
b1001 m
b101101 |
b1000 v
15
#620000
0J
0<
05
#625000
15
#630000
b1010 k
b110111 z
b1010 %"
1J
b1010 @
b1010 S
b1 >
b1 P
1<
05
#635000
b1000001 z
b1010 w
b1010 m
b110111 |
b1001 v
15
#640000
0J
0<
05
#645000
15
#650000
b1011 k
b1000010 z
b1011 %"
1J
b1011 @
b1011 S
b10 >
b10 P
1<
05
#655000
b1001101 z
b1011 w
b1011 m
b1000010 |
b1010 v
15
#660000
0J
0<
05
#665000
15
#670000
b1100 k
b1001110 z
b1100 %"
1J
b1100 @
b1100 S
b11 >
b11 P
1<
05
#675000
b1011010 z
b1100 w
b1100 m
b1001110 |
b1011 v
15
#680000
0J
0<
05
#685000
15
#690000
b1101 k
b1011011 z
b1101 %"
1J
b1101 @
b1101 S
b11 A
b11 T
b0 >
b0 P
1<
05
#695000
b1101000 z
b1101 w
b1101 m
b1011011 |
b1100 v
15
#700000
0J
0<
05
#705000
15
#710000
b1110 k
b1101001 z
b1110 %"
1J
b1110 @
b1110 S
b1 >
b1 P
1<
05
#715000
b1110111 z
b1110 w
b1110 m
b1101001 |
b1101 v
15
#720000
0J
0<
05
#725000
15
#730000
b1111 k
b1111000 z
b1111 %"
1J
b1111 @
b1111 S
b10 >
b10 P
1<
05
#735000
b10000111 z
b1111 w
b1111 m
b1111000 |
b1110 v
15
#740000
0J
0<
05
#745000
15
#750000
b10000 k
b10001000 z
b10000 %"
1J
19
b10000 @
b10000 S
b11 >
b11 P
1<
05
#755000
b1111 (
b1111 V
b1000 -
b1000 W
b1111 y
b1000 n
b10011000 z
b1 w
0j
1"
b1111 )
b1111 I
b1111 x
b11011110 !
b11011110 R
b11011110 '"
b10000 .
b10000 F
b10000 l
b1 ,
b1 G
b1 p
b10001000 &
b10001000 K
b10001000 {
b10000 m
b10001000 |
b0 v
15
#760000
0J
09
0<
05
#765000
0"
b0 k
b0 o
b0 z
b0 w
b0 %"
1E
b0 6
b0 C
b0 ;
b0 N
b0 :
b0 L
b0 ?
b0 Q
b0 @
b0 S
b0 A
b0 T
b0 >
b0 P
18
15
#770000
05
#775000
b0 (
b0 V
b0 -
b0 W
b0 y
b0 n
b0 )
b0 I
b0 x
b0 /
b0 D
b0 i
b0 #
b0 O
b0 $"
b0 $
b0 M
b0 #"
b0 !
b0 R
b0 '"
b0 .
b0 F
b0 l
b0 ,
b0 G
b0 p
b0 &
b0 K
b0 {
b0 m
b11111111 q
b0 |
15
#780000
05
#785000
15
#790000
05
#795000
15
#800000
05
#805000
15
#810000
05
#815000
08
15
#820000
05
#825000
15
#830000
05
#835000
b100 6
b100 C
b100 ;
b100 N
b100 :
b100 L
15
#840000
b1 k
b1 o
b1 z
b1 %"
1J
b101001101 ?
b101001101 Q
b1 @
b1 S
1<
05
#845000
b100 /
b100 D
b100 i
b100 #
b100 O
b100 $"
b100 $
b100 M
b100 #"
b1 m
b1 q
b1 |
1j
15
#850000
0J
0<
05
#855000
15
#860000
b10 k
b11 z
b1 w
b10 %"
0E
1J
b10 @
b10 S
b1 >
b1 P
1<
05
#865000
b101 z
b10 w
b10 m
b11 |
b1 v
15
#870000
0J
0<
05
#875000
15
#880000
b11 k
b110 z
b11 %"
1J
b11 @
b11 S
b10 >
b10 P
1<
05
#885000
b1001 z
b11 w
b11 m
b110 |
b10 v
15
#890000
0J
0<
05
#895000
15
#900000
b100 k
b1010 z
b100 %"
1J
b100 @
b100 S
b11 >
b11 P
1<
05
#905000
b1110 z
b100 w
b100 m
b1010 |
b11 v
15
#910000
0J
0<
05
#915000
15
#920000
b101 k
b1111 z
b101 %"
1J
b101 @
b101 S
b1 A
b1 T
b0 >
b0 P
1<
05
#925000
b10100 z
b101 w
b101 m
b1111 |
b100 v
15
#930000
0J
0<
05
#935000
15
#940000
b110 k
b10101 z
b110 %"
1J
b110 @
b110 S
b1 >
b1 P
1<
05
#945000
b11011 z
b110 w
b110 m
b10101 |
b101 v
15
#950000
0J
0<
05
#955000
15
#960000
b111 k
b11100 z
b111 %"
1J
b111 @
b111 S
b10 >
b10 P
1<
05
#965000
b100011 z
b111 w
b111 m
b11100 |
b110 v
15
#970000
0J
0<
05
#975000
15
#980000
b1000 k
b100100 z
b1000 %"
1J
b1000 @
b1000 S
b11 >
b11 P
1<
05
#985000
b101100 z
b1000 w
b1000 m
b100100 |
b111 v
15
#990000
0J
0<
05
#995000
15
#1000000
b1001 k
b101101 z
b1001 %"
1J
b1001 @
b1001 S
b10 A
b10 T
b0 >
b0 P
1<
05
#1005000
b110110 z
b1001 w
b1001 m
b101101 |
b1000 v
15
#1010000
0J
0<
05
#1015000
15
#1020000
b1011 k
b111000 z
b1011 %"
1J
b1011 @
b1011 S
b10 >
b10 P
1<
05
#1025000
b1000011 z
b1010 w
b1011 m
b111000 |
b1001 v
15
#1030000
0J
0<
05
#1035000
15
#1040000
b1100 k
b1000100 z
b1100 %"
1J
b1100 @
b1100 S
b11 >
b11 P
1<
05
#1045000
b1010000 z
b1011 w
b1100 m
b1000100 |
b1010 v
15
#1050000
0J
0<
05
#1055000
15
#1060000
b1101 k
b1010001 z
b1101 %"
1J
b1101 @
b1101 S
b11 A
b11 T
b0 >
b0 P
1<
05
#1065000
b1011110 z
b1100 w
b1101 m
b1010001 |
b1011 v
15
#1070000
0J
0<
05
#1075000
15
#1080000
b1110 k
b1011111 z
b1110 %"
1J
b1110 @
b1110 S
b1 >
b1 P
1<
05
#1085000
b1101101 z
b1101 w
b1110 m
b1011111 |
b1100 v
15
#1090000
0J
0<
05
#1095000
15
#1100000
b1111 k
b1101110 z
b1111 %"
1J
b1111 @
b1111 S
b10 >
b10 P
1<
05
#1105000
b1111101 z
b1110 w
b1111 m
b1101110 |
b1101 v
15
#1110000
0J
0<
05
#1115000
15
#1120000
b10000 k
b1111110 z
b10000 %"
1J
19
b10000 @
b10000 S
b11 >
b11 P
1<
05
#1125000
b1111 (
b1111 V
b111 -
b111 W
b1111 y
b111 n
b10001110 z
b1 w
0j
1"
b1110 )
b1110 I
b1110 x
b101001101 !
b101001101 R
b101001101 '"
b10000 .
b10000 F
b10000 l
b1 ,
b1 G
b1 p
b1111110 &
b1111110 K
b1111110 {
b11 0
b11 B
b11 h
1%
1""
b10000 m
b1111110 |
b0 v
15
#1130000
b0 k
b0 o
b0 z
b0 w
b0 %"
1E
0J
b0 6
b0 C
b0 ;
b0 N
b0 :
b0 L
b0 ?
b0 Q
b0 @
b0 S
b0 A
b0 T
b0 >
b0 P
18
09
0<
05
#1135000
b0 (
b0 V
b0 -
b0 W
b0 y
b0 n
b0 )
b0 I
b0 x
b0 0
b0 B
b0 h
0%
0""
0"
b0 /
b0 D
b0 i
b0 #
b0 O
b0 $"
b0 $
b0 M
b0 #"
b0 !
b0 R
b0 '"
b0 .
b0 F
b0 l
b0 ,
b0 G
b0 p
b0 &
b0 K
b0 {
b0 m
b11111111 q
b0 |
15
#1140000
05
#1145000
15
#1150000
05
#1155000
15
#1160000
05
#1165000
15
#1170000
05
#1175000
08
15
#1180000
05
#1185000
15
#1190000
05
#1195000
15
#1200000
b1 k
b1 o
b1 z
b1 %"
1J
b110111100 ?
b110111100 Q
b1 @
b1 S
1<
05
#1205000
b1 m
b1 q
b1 |
1j
15
#1210000
0J
0<
05
#1215000
15
#1220000
b10 k
b11 z
b1 w
b10 %"
0E
1J
b10 @
b10 S
b1 >
b1 P
1<
05
#1225000
b101 z
b10 w
b10 m
b11 |
b1 v
15
#1230000
0J
0<
05
#1235000
15
#1240000
b11 k
b110 z
b11 %"
1J
b11 @
b11 S
b10 >
b10 P
1<
05
#1245000
b1001 z
b11 w
b11 m
b110 |
b10 v
15
#1250000
0J
0<
05
#1255000
15
#1260000
b100 k
b1010 z
b100 %"
1J
b100 @
b100 S
b11 >
b11 P
1<
05
#1265000
b1110 z
b100 w
b100 m
b1010 |
b11 v
15
#1270000
0J
0<
05
#1275000
15
#1280000
b101 k
b1111 z
b101 %"
1J
b101 @
b101 S
b1 A
b1 T
b0 >
b0 P
1<
05
#1285000
b10100 z
b101 w
b101 m
b1111 |
b100 v
15
#1290000
0J
0<
05
#1295000
15
#1300000
b110 k
b10101 z
b110 %"
1J
b110 @
b110 S
b1 >
b1 P
1<
05
#1305000
b11011 z
b110 w
b110 m
b10101 |
b101 v
15
#1310000
0J
0<
05
#1315000
15
#1320000
b111 k
b11100 z
b111 %"
1J
b111 @
b111 S
b10 >
b10 P
1<
05
#1325000
b100011 z
b111 w
b111 m
b11100 |
b110 v
15
#1330000
0J
0<
05
#1335000
15
#1340000
b1000 k
b100100 z
b1000 %"
1J
b1000 @
b1000 S
b11 >
b11 P
1<
05
#1345000
b101100 z
b1000 w
b1000 m
b100100 |
b111 v
15
#1350000
0J
0<
05
#1355000
15
#1360000
b1001 k
b101101 z
b1001 %"
1J
b1001 @
b1001 S
b10 A
b10 T
b0 >
b0 P
1<
05
#1365000
b110110 z
b1001 w
b1001 m
b101101 |
b1000 v
15
#1370000
0J
0<
05
#1375000
15
#1380000
b1010 k
b110111 z
b1010 %"
1J
b1010 @
b1010 S
b1 >
b1 P
1<
05
#1385000
b1000001 z
b1010 w
b1010 m
b110111 |
b1001 v
15
#1390000
0J
0<
05
#1395000
15
#1400000
b1011 k
b1000010 z
b1011 %"
1J
b1011 @
b1011 S
b10 >
b10 P
1<
05
#1405000
b1001101 z
b1011 w
b1011 m
b1000010 |
b1010 v
15
#1410000
0J
0<
05
#1415000
15
#1420000
b1100 k
b1001110 z
b1100 %"
1J
b1100 @
b1100 S
b11 >
b11 P
1<
05
#1425000
b1011010 z
b1100 w
b1100 m
b1001110 |
b1011 v
15
#1430000
0J
0<
05
#1435000
15
#1440000
b1101 k
b1011011 z
b1101 %"
1J
b1101 @
b1101 S
b11 A
b11 T
b0 >
b0 P
1<
05
#1445000
b1101000 z
b1101 w
b1101 m
b1011011 |
b1100 v
15
#1450000
0J
0<
05
#1455000
15
#1460000
b1110 k
b1101001 z
b1110 %"
1J
b1110 @
b1110 S
b1 >
b1 P
1<
05
#1465000
b1110111 z
b1110 w
b1110 m
b1101001 |
b1101 v
15
#1470000
0J
0<
05
#1475000
15
#1480000
b1111 k
b1111000 z
b1111 %"
1J
b1111 @
b1111 S
b10 >
b10 P
1<
05
#1485000
b10000111 z
b1111 w
b1111 m
b1111000 |
b1110 v
15
#1490000
0J
0<
05
#1495000
15
#1500000
b10000 k
b10001000 z
b10000 %"
1J
19
b10000 @
b10000 S
b11 >
b11 P
1<
05
#1505000
b1111 (
b1111 V
b1000 -
b1000 W
b1111 y
b1000 n
b10011000 z
b1 w
0j
1"
b1111 )
b1111 I
b1111 x
b110111100 !
b110111100 R
b110111100 '"
b10000 .
b10000 F
b10000 l
b1 ,
b1 G
b1 p
b10001000 &
b10001000 K
b10001000 {
b10000 m
b10001000 |
b0 v
15
#1510000
1H
0J
0=
09
0<
05
#1515000
15
#1520000
05
#1525000
15
#1530000
05
#1535000
15
#1540000
05
#1545000
15
#1550000
05
#1555000
0H
1=
15
#1560000
05
#1565000
0"
b0 k
b0 o
b0 z
b0 w
b0 %"
1E
b0 ?
b0 Q
b0 @
b0 S
b0 A
b0 T
b0 >
b0 P
18
15
#1570000
05
#1575000
b0 (
b0 V
b0 -
b0 W
b0 y
b0 n
b0 )
b0 I
b0 x
b0 !
b0 R
b0 '"
b0 .
b0 F
b0 l
b0 ,
b0 G
b0 p
b0 &
b0 K
b0 {
b0 m
b11111111 q
b0 |
15
#1580000
05
#1585000
15
#1590000
05
#1595000
15
#1600000
05
#1605000
15
#1610000
05
#1615000
08
15
#1620000
05
#1625000
15
#1630000
05
#1635000
15
#1640000
b1 k
b1 o
b1 z
b1 %"
1J
b1000101011 ?
b1000101011 Q
b1 @
b1 S
1<
05
#1645000
b1 m
b1 q
b1 |
1j
15
#1650000
0J
0<
05
#1655000
15
#1660000
b10 k
b11 z
b1 w
b10 %"
0E
1J
b10 @
b10 S
b1 >
b1 P
1<
05
#1665000
b101 z
b10 w
b10 m
b11 |
b1 v
15
#1670000
0J
0<
05
#1675000
15
#1680000
b11 k
b110 z
b11 %"
1J
b11 @
b11 S
b10 >
b10 P
1<
05
#1685000
b1001 z
b11 w
b11 m
b110 |
b10 v
15
#1690000
0J
0<
05
#1695000
15
#1700000
b100 k
b1010 z
b100 %"
1J
b100 @
b100 S
b11 >
b11 P
1<
05
#1705000
b1110 z
b100 w
b100 m
b1010 |
b11 v
15
#1710000
0J
0<
05
#1715000
15
#1720000
b101 k
b1111 z
b101 %"
1J
b101 @
b101 S
b1 A
b1 T
b0 >
b0 P
1<
05
#1725000
b10100 z
b101 w
b101 m
b1111 |
b100 v
15
#1730000
0J
0<
05
#1735000
15
#1740000
b110 k
b10101 z
b110 %"
1J
b110 @
b110 S
b1 >
b1 P
1<
05
#1745000
b11011 z
b110 w
b110 m
b10101 |
b101 v
15
#1750000
0J
0<
05
#1755000
15
#1760000
b111 k
b11100 z
b111 %"
1J
b111 @
b111 S
b10 >
b10 P
1<
05
#1765000
b100011 z
b111 w
b111 m
b11100 |
b110 v
15
#1770000
0J
0<
05
#1775000
15
#1780000
b1000 k
b100100 z
b1000 %"
1J
b1000 @
b1000 S
b11 >
b11 P
1<
05
#1785000
b101100 z
b1000 w
b1000 m
b100100 |
b111 v
15
#1790000
0J
0<
05
#1795000
15
#1800000
b1001 k
b101101 z
b1001 %"
1J
b1001 @
b1001 S
b10 A
b10 T
b0 >
b0 P
1<
05
#1805000
b110110 z
b1001 w
b1001 m
b101101 |
b1000 v
15
#1810000
0J
0<
05
#1815000
15
#1820000
b1010 k
b110111 z
b1010 %"
1J
19
b1010 @
b1010 S
b1 >
b1 P
1<
05
#1825000
b1001 (
b1001 V
b11 -
b11 W
b1001 y
b11 n
b1000001 z
b1 w
0j
1"
b1001 )
b1001 I
b1001 x
b1000101011 !
b1000101011 R
b1000101011 '"
b1010 .
b1010 F
b1010 l
b1 ,
b1 G
b1 p
b110111 &
b110111 K
b110111 {
b11 0
b11 B
b11 h
1%
1""
b1010 m
b110111 |
b0 v
15
#1830000
b0 k
b0 o
b0 z
b0 w
b0 %"
1E
0J
b0 ?
b0 Q
b0 @
b0 S
b0 A
b0 T
b0 >
b0 P
18
09
0<
05
#1835000
b0 (
b0 V
b0 -
b0 W
b0 y
b0 n
b0 )
b0 I
b0 x
b0 0
b0 B
b0 h
0%
0""
0"
b0 !
b0 R
b0 '"
b0 .
b0 F
b0 l
b0 ,
b0 G
b0 p
b0 &
b0 K
b0 {
b0 m
b11111111 q
b0 |
15
#1840000
05
#1845000
15
#1850000
05
#1855000
15
#1860000
05
#1865000
15
#1870000
05
#1875000
08
15
