tb_tile_feat_join_4x4_top.vcd
$date
	Fri Jan 30 21:34:41 2026
$end
$version
	Icarus Verilog
$end
$timescale
	1ps
$end
$scope module tb_tile_stats_edge_4x4 $end
$var wire 16 ! y_meta_o [15:0] $end
$var wire 1 " v2_ready $end
$var wire 16 # tile_y_o [15:0] $end
$var wire 16 $ tile_x_o [15:0] $end
$var wire 12 % sumY [11:0] $end
$var wire 1 & stats_tile_err $end
$var wire 5 ' stats_pix_cnt_o [4:0] $end
$var wire 8 ( stats_err_code [7:0] $end
$var wire 8 ) rangeY [7:0] $end
$var wire 1 * out_valid $end
$var wire 8 + minY [7:0] $end
$var wire 8 , meanY [7:0] $end
$var wire 8 - maxY [7:0] $end
$var wire 16 . frame_id_o [15:0] $end
$var wire 32 / edge_sum [31:0] $end
$var wire 32 0 edge_mean [31:0] $end
$var wire 32 1 edge_max [31:0] $end
$var wire 8 2 edge_cnt [7:0] $end
$var parameter 32 3 CNT_W $end
$var parameter 32 4 EDGE_W $end
$var parameter 32 5 THR $end
$var parameter 32 6 TILE_H $end
$var parameter 32 7 TILE_PIX $end
$var parameter 32 8 TILE_W $end
$var parameter 32 9 Y_W $end
$var reg 1 : clk $end
$var reg 16 ; frame_id [15:0] $end
$var reg 1 < out_ready $end
$var reg 1 = pix_in_tile_valid $end
$var reg 1 > rst $end
$var reg 1 ? tile_last $end
$var reg 1 @ tile_start $end
$var reg 16 A tile_x_idx [15:0] $end
$var reg 16 B tile_y_idx [15:0] $end
$var reg 1 C v2_valid $end
$var reg 2 D x_mod [1:0] $end
$var reg 8 E y_cur [7:0] $end
$var reg 8 F y_left [7:0] $end
$var reg 16 G y_meta [15:0] $end
$var reg 2 H y_mod [1:0] $end
$var reg 8 I y_up [7:0] $end
$var integer 32 J i [31:0] $end
$scope function iabs $end
$var integer 32 K a [31:0] $end
$upscope $end
$scope function idx $end
$var integer 32 L xm [31:0] $end
$var integer 32 M ym [31:0] $end
$upscope $end
$scope module dut $end
$var wire 1 N bundle_valid $end
$var wire 1 : clk $end
$var wire 8 O edge_cnt [7:0] $end
$var wire 32 P edge_max [31:0] $end
$var wire 32 Q edge_mean [31:0] $end
$var wire 32 R edge_sum [31:0] $end
$var wire 1 S edge_v4_ready $end
$var wire 16 T frame_id [15:0] $end
$var wire 16 U frame_id_o [15:0] $end
$var wire 1 V join_hold $end
$var wire 8 W maxY [7:0] $end
$var wire 8 X meanY [7:0] $end
$var wire 8 Y minY [7:0] $end
$var wire 1 < out_ready $end
$var wire 1 * out_valid $end
$var wire 1 = pix_in_tile_valid $end
$var wire 8 Z rangeY [7:0] $end
$var wire 1 > rst $end
$var wire 8 [ stats_err_code [7:0] $end
$var wire 1 \ stats_hold $end
$var wire 5 ] stats_pix_cnt_o [4:0] $end
$var wire 1 & stats_tile_err $end
$var wire 1 ^ stats_v3_ready $end
$var wire 12 _ sumY [11:0] $end
$var wire 1 ? tile_last $end
$var wire 1 @ tile_start $end
$var wire 16 ` tile_x_idx [15:0] $end
$var wire 16 a tile_x_o [15:0] $end
$var wire 16 b tile_y_idx [15:0] $end
$var wire 16 c tile_y_o [15:0] $end
$var wire 1 " v2_ready $end
$var wire 1 C v2_valid $end
$var wire 2 d x_mod [1:0] $end
$var wire 8 e y_cur [7:0] $end
$var wire 8 f y_left [7:0] $end
$var wire 16 g y_meta [15:0] $end
$var wire 16 h y_meta_o [15:0] $end
$var wire 2 i y_mod [1:0] $end
$var wire 8 j y_up [7:0] $end
$var wire 16 k stats_y_meta_o [15:0] $end
$var wire 1 l stats_v3_valid $end
$var wire 16 m stats_tile_y_o [15:0] $end
$var wire 16 n stats_tile_x_o [15:0] $end
$var wire 1 o stats_tile_err_i $end
$var wire 12 p stats_sumY [11:0] $end
$var wire 20 q stats_sumSq [19:0] $end
$var wire 8 r stats_rangeY [7:0] $end
$var wire 5 s stats_pix_cnt_i [4:0] $end
$var wire 1 t stats_ov_sumsq $end
$var wire 1 u stats_ov_sum $end
$var wire 8 v stats_minY [7:0] $end
$var wire 8 w stats_meanY [7:0] $end
$var wire 8 x stats_maxY [7:0] $end
$var wire 16 y stats_frame_id_o [15:0] $end
$var wire 8 z stats_err_code_i [7:0] $end
$var wire 1 { edge_v4_valid $end
$var wire 1 | edge_v2_ready $end
$var wire 32 } edge_sum_i [31:0] $end
$var wire 32 ~ edge_mean_i [31:0] $end
$var wire 32 !" edge_max_i [31:0] $end
$var wire 8 "" edge_cnt_i [7:0] $end
$var parameter 1 #" ASSERT_ON_EDGE $end
$var parameter 1 $" ASSERT_ON_STATS $end
$var parameter 32 %" CNT_W $end
$var parameter 1 &" DO_SUMSQ_STATS $end
$var parameter 32 '" EDGE_MODE $end
$var parameter 32 (" EDGE_THR $end
$var parameter 32 )" EDGE_W $end
$var parameter 32 *" SUMSQ_MAX $end
$var parameter 32 +" SUMSQ_W $end
$var parameter 32 ," SUM_MAX $end
$var parameter 32 -" SUM_W $end
$var parameter 1 ." SUPPORT_PIX_VALID_EDGE $end
$var parameter 1 /" SUPPORT_PIX_VALID_STATS $end
$var parameter 1 0" SUPPORT_TILE_START_EDGE $end
$var parameter 32 1" TILE_H $end
$var parameter 32 2" TILE_PIXELS $end
$var parameter 32 3" TILE_W $end
$var parameter 32 4" Y_W $end
$scope module u_edge $end
$var wire 1 5" accept_in $end
$var wire 1 : clk $end
$var wire 1 6" hit_cnt $end
$var wire 1 7" is_tile_first $end
$var wire 1 8" is_tile_first_xy $end
$var wire 1 9" pix_eff $end
$var wire 1 = pix_in_tile_valid $end
$var wire 1 > rst $end
$var wire 1 ? tile_last $end
$var wire 1 @ tile_start $end
$var wire 1 C v2_valid $end
$var wire 1 S v4_ready $end
$var wire 1 { v4_valid $end
$var wire 2 :" x_mod [1:0] $end
$var wire 8 ;" y_cur [7:0] $end
$var wire 8 <" y_left [7:0] $end
$var wire 2 =" y_mod [1:0] $end
$var wire 8 >" y_up [7:0] $end
$var wire 1 | v2_ready $end
$var wire 32 ?" edge_sum [31:0] $end
$var wire 32 @" edge_mean [31:0] $end
$var wire 32 A" edge_max [31:0] $end
$var wire 8 B" edge_cnt [7:0] $end
$var parameter 1 C" ASSERT_ON $end
$var parameter 32 D" CNT_W $end
$var parameter 32 E" EDGE_W $end
$var parameter 32 F" MEAN_W $end
$var parameter 32 G" MODE $end
$var parameter 1 H" SUPPORT_PIX_VALID $end
$var parameter 1 I" SUPPORT_TILE_START $end
$var parameter 32 J" THR $end
$var parameter 32 K" TILE_H $end
$var parameter 32 L" TILE_PIXELS $end
$var parameter 32 M" TILE_W $end
$var parameter 32 N" Y_W $end
$var reg 8 O" cnt_next [7:0] $end
$var reg 8 P" cnt_r [7:0] $end
$var reg 8 Q" dx_abs [7:0] $end
$var reg 8 R" dy_abs [7:0] $end
$var reg 9 S" e_abs_sum [8:0] $end
$var reg 32 T" e_for_max [31:0] $end
$var reg 32 U" e_pix_ext [31:0] $end
$var reg 17 V" e_sq_sum [16:0] $end
$var reg 1 W" e_thr_hit $end
$var reg 32 X" max_next [31:0] $end
$var reg 32 Y" max_r [31:0] $end
$var reg 8 Z" out_cnt [7:0] $end
$var reg 32 [" out_max [31:0] $end
$var reg 32 \" out_mean [31:0] $end
$var reg 32 ]" out_sum [31:0] $end
$var reg 1 ^" out_v $end
$var reg 32 _" sum_next [31:0] $end
$var reg 32 `" sum_r [31:0] $end
$scope function calc_mean $end
$upscope $end
$scope begin $unm_blk_23 $end
$var reg 8 a" m [7:0] $end
$upscope $end
$upscope $end
$scope module u_stats $end
$var wire 1 : clk $end
$var wire 16 b" frame_id [15:0] $end
$var wire 16 c" frame_id_o [15:0] $end
$var wire 1 d" is_tile_first $end
$var wire 1 e" out_hold $end
$var wire 1 u overflow_sum $end
$var wire 1 t overflow_sumsq $end
$var wire 1 = pix_in_tile_valid $end
$var wire 1 f" pix_ok $end
$var wire 1 > rst $end
$var wire 20 g" sumSq [19:0] $end
$var wire 1 ? tile_last $end
$var wire 16 h" tile_x_idx [15:0] $end
$var wire 16 i" tile_y_idx [15:0] $end
$var wire 1 C v2_valid $end
$var wire 1 ^ v3_ready $end
$var wire 2 j" x_mod [1:0] $end
$var wire 16 k" y_cur [15:0] $end
$var wire 8 l" y_in [7:0] $end
$var wire 2 m" y_mod [1:0] $end
$var wire 16 n" y_cur_o [15:0] $end
$var wire 1 l v3_valid $end
$var wire 16 o" tile_y_o [15:0] $end
$var wire 16 p" tile_x_o [15:0] $end
$var wire 1 o tile_err $end
$var wire 12 q" sumY [11:0] $end
$var wire 8 r" rangeY [7:0] $end
$var wire 5 s" pix_cnt_o [4:0] $end
$var wire 8 t" minY [7:0] $end
$var wire 8 u" meanY [7:0] $end
$var wire 8 v" maxY [7:0] $end
$var wire 8 w" err_code [7:0] $end
$var parameter 1 x" ASSERT_ON $end
$var parameter 1 y" DO_SUMSQ $end
$var parameter 32 z" MEAN_SHIFT $end
$var parameter 1 {" SATURATE_SUM $end
$var parameter 1 |" SATURATE_SUMSQ $end
$var parameter 32 }" SUMSQ_MAX $end
$var parameter 32 ~" SUMSQ_W $end
$var parameter 32 !# SUMSQ_W_LOCAL $end
$var parameter 32 "# SUM_MAX $end
$var parameter 32 ## SUM_W $end
$var parameter 32 $# SUM_W_LOCAL $end
$var parameter 1 %# SUPPORT_PIX_VALID $end
$var parameter 32 &# TILE_H $end
$var parameter 32 '# TILE_PIXELS $end
$var parameter 32 (# TILE_W $end
$var parameter 32 )# Y_W $end
$var reg 8 *# err_code_r [7:0] $end
$var reg 16 +# fid_out_r [15:0] $end
$var reg 1 ,# in_tile $end
$var reg 8 -# max_final [7:0] $end
$var reg 8 .# max_out_r [7:0] $end
$var reg 8 /# max_r [7:0] $end
$var reg 12 0# mean_ext [11:0] $end
$var reg 8 1# min_final [7:0] $end
$var reg 8 2# min_out_r [7:0] $end
$var reg 8 3# min_r [7:0] $end
$var reg 1 4# ov_sum_out_r $end
$var reg 1 5# ov_sum_r $end
$var reg 1 6# ov_sumsq_out_r $end
$var reg 1 7# ov_sumsq_r $end
$var reg 5 8# pix_cnt [4:0] $end
$var reg 5 9# pix_cnt_eff [4:0] $end
$var reg 5 :# pix_cnt_out_r [4:0] $end
$var reg 9 ;# range_ext [8:0] $end
$var reg 12 <# sum_final [11:0] $end
$var reg 12 =# sum_out_r [11:0] $end
$var reg 12 ># sum_r [11:0] $end
$var reg 20 ?# sumsq_final [19:0] $end
$var reg 20 @# sumsq_out_r [19:0] $end
$var reg 20 A# sumsq_r [19:0] $end
$var reg 1 o tile_err_r $end
$var reg 16 B# tx_out_r [15:0] $end
$var reg 16 C# ty_out_r [15:0] $end
$var reg 1 l v_out_r $end
$var reg 12 D# y_ext_sum [11:0] $end
$var reg 20 E# y_sq [19:0] $end
$var reg 16 F# ycur_out_r [15:0] $end
$scope begin G_ASSERT $end
$upscope $end
$upscope $end
$upscope $end
$scope task check_tile_bundle_mode0 $end
$upscope $end
$scope task compute_expected_edge_mode0 $end
$upscope $end
$scope task drive_pix $end
$upscope $end
$scope task drive_tile $end
$upscope $end
$scope task expect_eq_bit $end
$upscope $end
$scope task expect_eq_int $end
$upscope $end
$scope task reset_dut $end
$upscope $end
$scope task tc1_basic_one_tile $end
$upscope $end
$scope task tc2_out_backpressure_hold $end
$upscope $end
$scope task tc3_two_tiles_back_to_back $end
$upscope $end
$scope task wait_out_valid_or_timeout $end
$upscope $end
$upscope $end
$enddefinitions $end
$comment Show the parameter values. $end
$dumpall
b1000 )#
b100 (#
b10000 '#
b100 &#
1%#
b1100 $#
b1100 ##
b111111110000 "#
b10100 !#
b10100 ~"
b11111110000000010000 }"
0|"
0{"
b100 z"
0y"
1x"
b1000 N"
b100 M"
b10000 L"
b100 K"
b1000 J"
1I"
1H"
b0 G"
b100000 F"
b100000 E"
b1000 D"
0C"
b1000 4"
b100 3"
b10000 2"
b100 1"
10"
1/"
1."
b1100 -"
b111111110000 ,"
b10100 +"
b11111110000000010000 *"
b100000 )"
b1000 ("
b0 '"
0&"
b1000 %"
1$"
0#"
b1000 9
b100 8
b10000 7
b100 6
b1000 5
b100000 4
b1000 3
$end
#0
$dumpvars
bx F#
b0 E#
b0 D#
bx C#
bx B#
bx A#
bx @#
b0 ?#
bx >#
bx =#
b0 <#
bx ;#
bx :#
b0 9#
bx 8#
x7#
x6#
x5#
x4#
bx 3#
bx 2#
b0 1#
b0xxxxxxxx 0#
bx /#
bx .#
b0 -#
x,#
bx +#
bx *#
bx w"
bx v"
bx u"
bx t"
bx s"
bx r"
bx q"
bx p"
bx o"
bx n"
b0 m"
b0 l"
b0 k"
b0 j"
b0 i"
b0 h"
bx g"
0f"
xe"
1d"
bx c"
b0 b"
bx a"
bx `"
b0 _"
x^"
bx ]"
bx \"
bx ["
bx Z"
bx Y"
b0 X"
0W"
b0 V"
b0 U"
b0 T"
b0 S"
b0 R"
b0 Q"
bx P"
b0 O"
bx B"
bx A"
bx @"
bx ?"
b0 >"
b0 ="
b0 <"
b0 ;"
b0 :"
19"
18"
17"
06"
05"
bx ""
bx !"
bx ~
bx }
x|
x{
bx z
bx y
bx x
bx w
bx v
xu
xt
bx s
bx r
bx q
bx p
xo
bx n
bx m
xl
bx k
b0 j
b0 i
bx h
b0 g
b0 f
b0 e
b0 d
bx c
b0 b
bx a
b0 `
bx _
x^
bx ]
x\
bx [
bx Z
bx Y
bx X
bx W
xV
bx U
b0 T
xS
bx R
bx Q
bx P
bx O
xN
bx M
bx L
bx K
b10000 J
b0 I
b0 H
b0 G
b0 F
b0 E
b0 D
0C
b0 B
b0 A
0@
0?
1>
1=
1<
b0 ;
0:
bx 2
bx 1
bx 0
bx /
bx .
bx -
bx ,
bx +
x*
bx )
bx (
bx '
x&
bx %
bx $
bx #
x"
bx !
$end
#5000
1"
b0 )
b0 Z
b0 r
b0 r"
b0 ,
b0 X
b0 w
b0 u"
0e"
0S
0\
b0 ;#
b0 0#
0V
0^
0*
0N
0t
06#
0u
04#
b0 '
b0 ]
b0 s
b0 s"
b0 :#
b0 (
b0 [
b0 z
b0 w"
b0 *#
0&
0o
0l
b0 .
b0 U
b0 y
b0 c"
b0 +#
b0 #
b0 c
b0 m
b0 o"
b0 C#
b0 $
b0 a
b0 n
b0 p"
b0 B#
b0 !
b0 h
b0 k
b0 n"
b0 F#
b0 q
b0 g"
b0 @#
b0 -
b0 W
b0 x
b0 v"
b0 .#
b0 +
b0 Y
b0 v
b0 t"
b0 2#
b0 %
b0 _
b0 p
b0 q"
b0 =#
07#
05#
b0 8#
0,#
b0 A#
b0 /#
b11111111 3#
b0 >#
b0 0
b0 Q
b0 ~
b0 @"
b0 \"
b0 2
b0 O
b0 ""
b0 B"
b0 Z"
b0 1
b0 P
b0 !"
b0 A"
b0 ["
b0 /
b0 R
b0 }
b0 ?"
b0 ]"
1|
0{
0^"
b0 P"
b0 Y"
b0 `"
1:
#10000
0:
#15000
1:
#20000
0:
#25000
1:
#30000
0:
#35000
1:
#40000
0:
#45000
0>
1:
#50000
0:
#55000
1:
#60000
0:
#65000
b1101111 G
b1101111 g
b1101111 k"
b111 ;
b111 T
b111 b"
b101 B
b101 b
b101 i"
b11 A
b11 `
b11 h"
b100 K
b0 L
b0 M
1:
#70000
b1 -#
b1 1#
b1 <#
b1 D#
15"
1f"
1@
b1 I
b1 j
b1 >"
b1 F
b1 f
b1 <"
b1 E
b1 e
b1 ;"
b1 l"
1C
0:
#75000
b111 .
b111 U
b111 y
b111 c"
b111 +#
b101 #
b101 c
b101 m
b101 o"
b101 C#
b11 $
b11 a
b11 n
b11 p"
b11 B#
b1 /#
b1 3#
b1 >#
1,#
1:
#80000
05"
0f"
b0 L
0@
0C
0:
#85000
1:
#90000
b1 X"
b1 _"
b1 U"
b1 T"
b1 V"
b1 S"
07"
b10 -#
b11 <#
b1 9#
b10 D#
b1 Q"
08"
0d"
15"
1f"
b10 I
b10 j
b10 >"
b10 E
b10 e
b10 ;"
b10 l"
b1 D
b1 d
b1 :"
b1 j"
1C
0:
#95000
b10 _"
b101 <#
b10 9#
b1 Y"
b1 `"
b10 /#
b11 >#
b1 8#
1:
#100000
05"
0f"
b1 L
0C
0:
#105000
1:
#110000
b11 -#
b110 <#
b11 D#
15"
1f"
b11 I
b11 j
b11 >"
b10 F
b10 f
b10 <"
b11 E
b11 e
b11 ;"
b11 l"
b10 D
b10 d
b10 :"
b10 j"
1C
0:
#115000
b11 _"
b1001 <#
b11 9#
b10 `"
b11 /#
b110 >#
b10 8#
1:
#120000
05"
0f"
b10 L
0C
0:
#125000
1:
#130000
b100 -#
b1010 <#
b100 D#
15"
1f"
b100 I
b100 j
b100 >"
b11 F
b11 f
b11 <"
b100 E
b100 e
b100 ;"
b100 l"
b11 D
b11 d
b11 :"
b11 j"
1C
0:
#135000
b100 _"
b1110 <#
b100 9#
b11 `"
b100 /#
b1010 >#
b11 8#
1:
#140000
05"
0f"
b0 L
b0 M
0C
0:
#145000
1:
#150000
b100 X"
b111 _"
b100 U"
b100 T"
b10000 V"
b100 S"
b101 -#
b1111 <#
b101 D#
b100 R"
b0 Q"
15"
1f"
b1 I
b1 j
b1 >"
b101 F
b101 f
b101 <"
b101 E
b101 e
b101 ;"
b101 l"
b1 H
b1 i
b1 ="
b1 m"
b0 D
b0 d
b0 :"
b0 j"
1C
0:
#155000
b1011 _"
b10100 <#
b101 9#
b100 Y"
b111 `"
b101 /#
b1111 >#
b100 8#
1:
#160000
05"
0f"
b1 L
b0 M
0C
0:
#165000
1:
#170000
b101 X"
b1100 _"
b101 U"
b101 T"
b10001 V"
b101 S"
b110 -#
b10101 <#
b110 D#
b1 Q"
15"
1f"
b10 I
b10 j
b10 >"
b110 E
b110 e
b110 ;"
b110 l"
b1 D
b1 d
b1 :"
b1 j"
1C
0:
#175000
b10001 _"
b11011 <#
b110 9#
b101 Y"
b1100 `"
b110 /#
b10101 >#
b101 8#
1:
#180000
05"
0f"
b10 L
b0 M
0C
0:
#185000
1:
#190000
b111 -#
b11100 <#
b111 D#
15"
1f"
b11 I
b11 j
b11 >"
b110 F
b110 f
b110 <"
b111 E
b111 e
b111 ;"
b111 l"
b10 D
b10 d
b10 :"
b10 j"
1C
0:
#195000
b10110 _"
b100011 <#
b111 9#
b10001 `"
b111 /#
b11100 >#
b110 8#
1:
#200000
05"
0f"
b11 L
b0 M
0C
0:
#205000
1:
#210000
b1000 -#
b100100 <#
b1000 D#
15"
1f"
b100 I
b100 j
b100 >"
b111 F
b111 f
b111 <"
b1000 E
b1000 e
b1000 ;"
b1000 l"
b11 D
b11 d
b11 :"
b11 j"
1C
0:
#215000
b11011 _"
b101100 <#
b1000 9#
b10110 `"
b1000 /#
b100100 >#
b111 8#
1:
#220000
05"
0f"
b0 L
b1 M
0C
0:
#225000
1:
#230000
b11010 _"
b100 U"
b100 T"
b10000 V"
b100 S"
b1001 -#
b101101 <#
b1001 D#
b0 Q"
15"
1f"
b101 I
b101 j
b101 >"
b1001 F
b1001 f
b1001 <"
b1001 E
b1001 e
b1001 ;"
b1001 l"
b10 H
b10 i
b10 ="
b10 m"
b0 D
b0 d
b0 :"
b0 j"
1C
0:
#235000
b11110 _"
b110110 <#
b1001 9#
b11010 `"
b1001 /#
b101101 >#
b1000 8#
1:
#240000
05"
0f"
b1 L
b1 M
0C
0:
#245000
1:
#250000
b11111 _"
b101 U"
b101 T"
b10001 V"
b101 S"
b1010 -#
b110111 <#
b1010 D#
b1 Q"
15"
1f"
b110 I
b110 j
b110 >"
b1010 E
b1010 e
b1010 ;"
b1010 l"
b1 D
b1 d
b1 :"
b1 j"
1C
0:
#255000
b100100 _"
b1000001 <#
b1010 9#
b11111 `"
b1010 /#
b110111 >#
b1001 8#
1:
#260000
05"
0f"
b10 L
b1 M
0C
0:
#265000
1:
#270000
b1011 -#
b1000010 <#
b1011 D#
15"
1f"
b111 I
b111 j
b111 >"
b1010 F
b1010 f
b1010 <"
b1011 E
b1011 e
b1011 ;"
b1011 l"
b10 D
b10 d
b10 :"
b10 j"
1C
0:
#275000
b101001 _"
b1001101 <#
b1011 9#
b100100 `"
b1011 /#
b1000010 >#
b1010 8#
1:
#280000
05"
0f"
b11 L
b1 M
0C
0:
#285000
1:
#290000
b1100 -#
b1001110 <#
b1100 D#
15"
1f"
b1000 I
b1000 j
b1000 >"
b1011 F
b1011 f
b1011 <"
b1100 E
b1100 e
b1100 ;"
b1100 l"
b11 D
b11 d
b11 :"
b11 j"
1C
0:
#295000
b101110 _"
b1011010 <#
b1100 9#
b101001 `"
b1100 /#
b1001110 >#
b1011 8#
1:
#300000
05"
0f"
b0 L
b10 M
0C
0:
#305000
1:
#310000
b101101 _"
b100 U"
b100 T"
b10000 V"
b100 S"
b1101 -#
b1011011 <#
b1101 D#
b0 Q"
15"
1f"
b1001 I
b1001 j
b1001 >"
b1101 F
b1101 f
b1101 <"
b1101 E
b1101 e
b1101 ;"
b1101 l"
b11 H
b11 i
b11 ="
b11 m"
b0 D
b0 d
b0 :"
b0 j"
1C
0:
#315000
b110001 _"
b1101000 <#
b1101 9#
b101101 `"
b1101 /#
b1011011 >#
b1100 8#
1:
#320000
05"
0f"
b1 L
b10 M
0C
0:
#325000
1:
#330000
b110010 _"
b101 U"
b101 T"
b10001 V"
b101 S"
b1110 -#
b1101001 <#
b1110 D#
b1 Q"
15"
1f"
b1010 I
b1010 j
b1010 >"
b1110 E
b1110 e
b1110 ;"
b1110 l"
b1 D
b1 d
b1 :"
b1 j"
1C
0:
#335000
b110111 _"
b1110111 <#
b1110 9#
b110010 `"
b1110 /#
b1101001 >#
b1101 8#
1:
#340000
05"
0f"
b10 L
b10 M
0C
0:
#345000
1:
#350000
b1111 -#
b1111000 <#
b1111 D#
15"
1f"
b1011 I
b1011 j
b1011 >"
b1110 F
b1110 f
b1110 <"
b1111 E
b1111 e
b1111 ;"
b1111 l"
b10 D
b10 d
b10 :"
b10 j"
1C
0:
#355000
b111100 _"
b10000111 <#
b1111 9#
b110111 `"
b1111 /#
b1111000 >#
b1110 8#
1:
#360000
05"
0f"
b11 L
b10 M
0C
0:
#365000
1:
#370000
b10000 -#
b10001000 <#
b10000 D#
15"
1f"
1?
b1100 I
b1100 j
b1100 >"
b1111 F
b1111 f
b1111 <"
b10000 E
b10000 e
b10000 ;"
b10000 l"
b11 D
b11 d
b11 :"
b11 j"
1C
0:
#375000
0"
b1111 )
b1111 Z
b1111 r
b1111 r"
b1000 ,
b1000 X
b1000 w
b1000 u"
05"
1^
b101 _"
0e"
1S
1*
1N
0\
b1111 ;#
b1000 0#
b10011000 <#
b1 9#
b0 Y"
0|
1{
1^"
b11 0
b11 Q
b11 ~
b11 @"
b11 \"
b101 1
b101 P
b101 !"
b101 A"
b101 ["
b111100 /
b111100 R
b111100 }
b111100 ?"
b111100 ]"
b0 `"
0,#
1l
b1111 '
b1111 ]
b1111 s
b1111 s"
b1111 :#
b1101111 !
b1101111 h
b1101111 k
b1101111 n"
b1101111 F#
b10000 -
b10000 W
b10000 x
b10000 v"
b10000 .#
b1 +
b1 Y
b1 v
b1 t"
b1 2#
b10001000 %
b10001000 _
b10001000 p
b10001000 q"
b10001000 =#
b10000 /#
b10001000 >#
b0 8#
1:
#380000
0f"
0?
0C
0:
#385000
1"
0S
0^
0*
0N
0l
1|
0{
0^"
1:
#390000
0:
#395000
1:
#400000
0:
#405000
b0 X"
b0 _"
17"
b0 -#
b0 9#
b0 U"
b0 T"
b0 V"
b0 S"
18"
1d"
b0 R"
b0 Q"
b0 1#
b0 <#
b0 D#
b0 G
b0 g
b0 k"
b0 ;
b0 T
b0 b"
b0 B
b0 b
b0 i"
b0 A
b0 `
b0 h"
b0 H
b0 i
b0 ="
b0 m"
b0 D
b0 d
b0 :"
b0 j"
b0 I
b0 j
b0 >"
b0 F
b0 f
b0 <"
b0 E
b0 e
b0 ;"
b0 l"
1>
1:
#410000
0:
#415000
b0 )
b0 Z
b0 r
b0 r"
b0 ,
b0 X
b0 w
b0 u"
b0 ;#
b0 0#
b0 0
b0 Q
b0 ~
b0 @"
b0 \"
b0 1
b0 P
b0 !"
b0 A"
b0 ["
b0 /
b0 R
b0 }
b0 ?"
b0 ]"
b0 '
b0 ]
b0 s
b0 s"
b0 :#
b0 .
b0 U
b0 y
b0 c"
b0 +#
b0 #
b0 c
b0 m
b0 o"
b0 C#
b0 $
b0 a
b0 n
b0 p"
b0 B#
b0 !
b0 h
b0 k
b0 n"
b0 F#
b0 -
b0 W
b0 x
b0 v"
b0 .#
b0 +
b0 Y
b0 v
b0 t"
b0 2#
b0 %
b0 _
b0 p
b0 q"
b0 =#
b0 /#
b11111111 3#
b0 >#
1:
#420000
0:
#425000
1:
#430000
0:
#435000
1:
#440000
0:
#445000
1:
#450000
0:
#455000
0>
1:
#460000
0:
#465000
1:
#470000
0:
#475000
b11011110 G
b11011110 g
b11011110 k"
b110 ;
b110 T
b110 b"
b1000 B
b1000 b
b1000 i"
b1001 A
b1001 `
b1001 h"
b100 K
b0 L
b0 M
1:
#480000
b1 -#
b1 1#
b1 <#
b1 D#
15"
1f"
1@
b1 I
b1 j
b1 >"
b1 F
b1 f
b1 <"
b1 E
b1 e
b1 ;"
b1 l"
1C
0:
#485000
b110 .
b110 U
b110 y
b110 c"
b110 +#
b1000 #
b1000 c
b1000 m
b1000 o"
b1000 C#
b1001 $
b1001 a
b1001 n
b1001 p"
b1001 B#
b1 /#
b1 3#
b1 >#
1,#
1:
#490000
05"
0f"
b0 L
0@
0C
0:
#495000
1:
#500000
b1 X"
b1 _"
b1 U"
b1 T"
b1 V"
b1 S"
07"
b10 -#
b11 <#
b1 9#
b10 D#
b1 Q"
08"
0d"
15"
1f"
b10 I
b10 j
b10 >"
b10 E
b10 e
b10 ;"
b10 l"
b1 D
b1 d
b1 :"
b1 j"
1C
0:
#505000
b101 <#
b10 9#
b10 _"
b10 /#
b11 >#
b1 8#
b1 Y"
b1 `"
1:
#510000
05"
0f"
b1 L
0C
0:
#515000
1:
#520000
b11 -#
b110 <#
b11 D#
15"
1f"
b11 I
b11 j
b11 >"
b10 F
b10 f
b10 <"
b11 E
b11 e
b11 ;"
b11 l"
b10 D
b10 d
b10 :"
b10 j"
1C
0:
#525000
b1001 <#
b11 9#
b11 _"
b11 /#
b110 >#
b10 8#
b10 `"
1:
#530000
05"
0f"
b10 L
0C
0:
#535000
1:
#540000
b100 -#
b1010 <#
b100 D#
15"
1f"
b100 I
b100 j
b100 >"
b11 F
b11 f
b11 <"
b100 E
b100 e
b100 ;"
b100 l"
b11 D
b11 d
b11 :"
b11 j"
1C
0:
#545000
b1110 <#
b100 9#
b100 _"
b100 /#
b1010 >#
b11 8#
b11 `"
1:
#550000
05"
0f"
b0 L
b0 M
0C
0:
#555000
1:
#560000
b100 X"
b111 _"
b100 U"
b100 T"
b10000 V"
b100 S"
b101 -#
b1111 <#
b101 D#
b100 R"
b0 Q"
15"
1f"
b1 I
b1 j
b1 >"
b101 F
b101 f
b101 <"
b101 E
b101 e
b101 ;"
b101 l"
b1 H
b1 i
b1 ="
b1 m"
b0 D
b0 d
b0 :"
b0 j"
1C
0:
#565000
b10100 <#
b101 9#
b1011 _"
b101 /#
b1111 >#
b100 8#
b100 Y"
b111 `"
1:
#570000
05"
0f"
b1 L
b0 M
0C
0:
#575000
1:
#580000
b101 X"
b1100 _"
b101 U"
b101 T"
b10001 V"
b101 S"
b110 -#
b10101 <#
b110 D#
b1 Q"
15"
1f"
b10 I
b10 j
b10 >"
b110 E
b110 e
b110 ;"
b110 l"
b1 D
b1 d
b1 :"
b1 j"
1C
0:
#585000
b11011 <#
b110 9#
b10001 _"
b110 /#
b10101 >#
b101 8#
b101 Y"
b1100 `"
1:
#590000
05"
0f"
b10 L
b0 M
0C
0:
#595000
1:
#600000
b111 -#
b11100 <#
b111 D#
15"
1f"
b11 I
b11 j
b11 >"
b110 F
b110 f
b110 <"
b111 E
b111 e
b111 ;"
b111 l"
b10 D
b10 d
b10 :"
b10 j"
1C
0:
#605000
b100011 <#
b111 9#
b10110 _"
b111 /#
b11100 >#
b110 8#
b10001 `"
1:
#610000
05"
0f"
b11 L
b0 M
0C
0:
#615000
1:
#620000
b1000 -#
b100100 <#
b1000 D#
15"
1f"
b100 I
b100 j
b100 >"
b111 F
b111 f
b111 <"
b1000 E
b1000 e
b1000 ;"
b1000 l"
b11 D
b11 d
b11 :"
b11 j"
1C
0:
#625000
b101100 <#
b1000 9#
b11011 _"
b1000 /#
b100100 >#
b111 8#
b10110 `"
1:
#630000
05"
0f"
b0 L
b1 M
0C
0:
#635000
1:
#640000
b11010 _"
b100 U"
b100 T"
b10000 V"
b100 S"
b1001 -#
b101101 <#
b1001 D#
b0 Q"
15"
1f"
b101 I
b101 j
b101 >"
b1001 F
b1001 f
b1001 <"
b1001 E
b1001 e
b1001 ;"
b1001 l"
b10 H
b10 i
b10 ="
b10 m"
b0 D
b0 d
b0 :"
b0 j"
1C
0:
#645000
b110110 <#
b1001 9#
b11110 _"
b1001 /#
b101101 >#
b1000 8#
b11010 `"
1:
#650000
05"
0f"
b1 L
b1 M
0C
0:
#655000
1:
#660000
b11111 _"
b101 U"
b101 T"
b10001 V"
b101 S"
b1010 -#
b110111 <#
b1010 D#
b1 Q"
15"
1f"
b110 I
b110 j
b110 >"
b1010 E
b1010 e
b1010 ;"
b1010 l"
b1 D
b1 d
b1 :"
b1 j"
1C
0:
#665000
b1000001 <#
b1010 9#
b100100 _"
b1010 /#
b110111 >#
b1001 8#
b11111 `"
1:
#670000
05"
0f"
b10 L
b1 M
0C
0:
#675000
1:
