tb_tile_nb_fetch_3x3_to_9req_inst.vcd
$date
	Sun Feb  8 23:34:48 2026
$end
$version
	Icarus Verilog
$end
$timescale
	1ps
$end
$scope module tb_tile_nb_fetch_3x3_to_9req_inst $end
$var wire 9 ! nb_is_center [8:0] $end
$var wire 1 " sched_done_pulse $end
$var wire 1 # sched_busy $end
$var wire 1 $ rd_valid $end
$var wire 3 % rd_tile_j [2:0] $end
$var wire 2 & rd_tile_i [1:0] $end
$var wire 16 ' rd_tag [15:0] $end
$var wire 1 ( center_ready $end
$var parameter 32 ) IDX_W $end
$var parameter 32 * IW $end
$var parameter 32 + JW $end
$var parameter 32 , TAG_W $end
$var parameter 32 - TILES_X $end
$var parameter 32 . TILES_Y $end
$var reg 2 / center_i [1:0] $end
$var reg 3 0 center_j [2:0] $end
$var reg 16 1 center_tag [15:0] $end
$var reg 1 2 center_valid $end
$var reg 1 3 clk $end
$var reg 1 4 done_seen $end
$var reg 1 5 en $end
$var reg 2 6 hold_i [1:0] $end
$var reg 3 7 hold_j [2:0] $end
$var reg 16 8 hold_tag [15:0] $end
$var reg 1 9 rd_ready $end
$var reg 1 : rst $end
$var integer 32 ; k [31:0] $end
$var integer 32 < rr [31:0] $end
$var integer 32 = seen_cnt [31:0] $end
$var integer 32 > stall_cycles [31:0] $end
$scope function clamp_int $end
$var integer 32 ? hi [31:0] $end
$var integer 32 @ lo [31:0] $end
$var integer 32 A v [31:0] $end
$upscope $end
$scope function pack_tag $end
$var reg 16 B base [15:0] $end
$var integer 32 C token [31:0] $end
$upscope $end
$scope module dut $end
$var wire 2 D center_i [1:0] $end
$var wire 3 E center_j [2:0] $end
$var wire 16 F center_tag [15:0] $end
$var wire 1 2 center_valid $end
$var wire 1 3 clk $end
$var wire 1 5 en $end
$var wire 9 G nb_is_center [8:0] $end
$var wire 1 9 rd_ready $end
$var wire 1 : rst $end
$var wire 1 " sched_done_pulse $end
$var wire 1 # sched_busy $end
$var wire 1 $ rd_valid $end
$var wire 3 H rd_tile_j [2:0] $end
$var wire 2 I rd_tile_i [1:0] $end
$var wire 16 J rd_tag [15:0] $end
$var wire 1 K nb_valid $end
$var wire 16 L nb_tag [15:0] $end
$var wire 1 M nb_ready $end
$var wire 3 N nb_j8 [2:0] $end
$var wire 3 O nb_j7 [2:0] $end
$var wire 3 P nb_j6 [2:0] $end
$var wire 3 Q nb_j5 [2:0] $end
$var wire 3 R nb_j4 [2:0] $end
$var wire 3 S nb_j3 [2:0] $end
$var wire 3 T nb_j2 [2:0] $end
$var wire 3 U nb_j1 [2:0] $end
$var wire 3 V nb_j0 [2:0] $end
$var wire 2 W nb_i8 [1:0] $end
$var wire 2 X nb_i7 [1:0] $end
$var wire 2 Y nb_i6 [1:0] $end
$var wire 2 Z nb_i5 [1:0] $end
$var wire 2 [ nb_i4 [1:0] $end
$var wire 2 \ nb_i3 [1:0] $end
$var wire 2 ] nb_i2 [1:0] $end
$var wire 2 ^ nb_i1 [1:0] $end
$var wire 2 _ nb_i0 [1:0] $end
$var wire 1 ( center_ready $end
$var parameter 32 ` IDX_W $end
$var parameter 32 a TAG_W $end
$var parameter 32 b TILES_X $end
$var parameter 32 c TILES_Y $end
$scope module u_clamp_3x3 $end
$var wire 2 d center_i [1:0] $end
$var wire 3 e center_j [2:0] $end
$var wire 16 f center_tag [15:0] $end
$var wire 1 2 center_valid $end
$var wire 1 3 clk $end
$var wire 1 5 en $end
$var wire 1 g go $end
$var wire 1 h in_fire $end
$var wire 9 i nb_is_center [8:0] $end
$var wire 1 j out_fire $end
$var wire 1 : rst $end
$var wire 1 M nb_ready $end
$var parameter 32 k I_MAX $end
$var parameter 32 l J_MAX $end
$var parameter 32 m TAG_W $end
$var parameter 32 n TILES_X $end
$var parameter 32 o TILES_Y $end
$var reg 1 ( center_ready $end
$var reg 1 p full $end
$var reg 2 q nb_i0 [1:0] $end
$var reg 2 r nb_i1 [1:0] $end
$var reg 2 s nb_i2 [1:0] $end
$var reg 2 t nb_i3 [1:0] $end
$var reg 2 u nb_i4 [1:0] $end
$var reg 2 v nb_i5 [1:0] $end
$var reg 2 w nb_i6 [1:0] $end
$var reg 2 x nb_i7 [1:0] $end
$var reg 2 y nb_i8 [1:0] $end
$var reg 3 z nb_j0 [2:0] $end
$var reg 3 { nb_j1 [2:0] $end
$var reg 3 | nb_j2 [2:0] $end
$var reg 3 } nb_j3 [2:0] $end
$var reg 3 ~ nb_j4 [2:0] $end
$var reg 3 !" nb_j5 [2:0] $end
$var reg 3 "" nb_j6 [2:0] $end
$var reg 3 #" nb_j7 [2:0] $end
$var reg 3 $" nb_j8 [2:0] $end
$var reg 16 %" nb_tag [15:0] $end
$var reg 1 K nb_valid $end
$var integer 32 &" ci [31:0] $end
$var integer 32 '" cj [31:0] $end
$var integer 32 (" i0 [31:0] $end
$var integer 32 )" i1 [31:0] $end
$var integer 32 *" i2 [31:0] $end
$var integer 32 +" i3 [31:0] $end
$var integer 32 ," i4 [31:0] $end
$var integer 32 -" i5 [31:0] $end
$var integer 32 ." i6 [31:0] $end
$var integer 32 /" i7 [31:0] $end
$var integer 32 0" i8 [31:0] $end
$var integer 32 1" j0 [31:0] $end
$var integer 32 2" j1 [31:0] $end
$var integer 32 3" j2 [31:0] $end
$var integer 32 4" j3 [31:0] $end
$var integer 32 5" j4 [31:0] $end
$var integer 32 6" j5 [31:0] $end
$var integer 32 7" j6 [31:0] $end
$var integer 32 8" j7 [31:0] $end
$var integer 32 9" j8 [31:0] $end
$scope function clamp_i $end
$var integer 32 :" v [31:0] $end
$upscope $end
$scope function clamp_j $end
$var integer 32 ;" v [31:0] $end
$upscope $end
$upscope $end
$scope module u_sched_9req $end
$var wire 1 3 clk $end
$var wire 1 5 en $end
$var wire 1 <" finishing_last $end
$var wire 1 =" go $end
$var wire 1 >" nb_fire $end
$var wire 2 ?" nb_i0 [1:0] $end
$var wire 2 @" nb_i1 [1:0] $end
$var wire 2 A" nb_i2 [1:0] $end
$var wire 2 B" nb_i3 [1:0] $end
$var wire 2 C" nb_i4 [1:0] $end
$var wire 2 D" nb_i5 [1:0] $end
$var wire 2 E" nb_i6 [1:0] $end
$var wire 2 F" nb_i7 [1:0] $end
$var wire 2 G" nb_i8 [1:0] $end
$var wire 3 H" nb_j0 [2:0] $end
$var wire 3 I" nb_j1 [2:0] $end
$var wire 3 J" nb_j2 [2:0] $end
$var wire 3 K" nb_j3 [2:0] $end
$var wire 3 L" nb_j4 [2:0] $end
$var wire 3 M" nb_j5 [2:0] $end
$var wire 3 N" nb_j6 [2:0] $end
$var wire 3 O" nb_j7 [2:0] $end
$var wire 3 P" nb_j8 [2:0] $end
$var wire 16 Q" nb_tag [15:0] $end
$var wire 1 K nb_valid $end
$var wire 1 R" rd_fire $end
$var wire 1 9 rd_ready $end
$var wire 1 : rst $end
$var wire 16 S" tag_packed [15:0] $end
$var parameter 32 T" IDX_W $end
$var parameter 32 U" IW $end
$var parameter 32 V" JW $end
$var parameter 32 W" TAG_W $end
$var parameter 32 X" TILES_X $end
$var parameter 32 Y" TILES_Y $end
$var reg 2 Z" bi0 [1:0] $end
$var reg 2 [" bi1 [1:0] $end
$var reg 2 \" bi2 [1:0] $end
$var reg 2 ]" bi3 [1:0] $end
$var reg 2 ^" bi4 [1:0] $end
$var reg 2 _" bi5 [1:0] $end
$var reg 2 `" bi6 [1:0] $end
$var reg 2 a" bi7 [1:0] $end
$var reg 2 b" bi8 [1:0] $end
$var reg 3 c" bj0 [2:0] $end
$var reg 3 d" bj1 [2:0] $end
$var reg 3 e" bj2 [2:0] $end
$var reg 3 f" bj3 [2:0] $end
$var reg 3 g" bj4 [2:0] $end
$var reg 3 h" bj5 [2:0] $end
$var reg 3 i" bj6 [2:0] $end
$var reg 3 j" bj7 [2:0] $end
$var reg 3 k" bj8 [2:0] $end
$var reg 16 l" btag [15:0] $end
$var reg 1 m" busy $end
$var reg 4 n" idx [3:0] $end
$var reg 1 M nb_ready $end
$var reg 16 o" rd_tag [15:0] $end
$var reg 2 p" rd_tile_i [1:0] $end
$var reg 3 q" rd_tile_j [2:0] $end
$var reg 1 $ rd_valid $end
$var reg 1 # sched_busy $end
$var reg 1 " sched_done_pulse $end
$upscope $end
$upscope $end
$scope begin CONSUME_A $end
$upscope $end
$scope begin INJECT_B $end
$var reg 16 r" btag [15:0] $end
$var integer 32 s" bi [31:0] $end
$var integer 32 t" bj [31:0] $end
$upscope $end
$scope task consume_9req_for_center $end
$var reg 16 u" tag_in [15:0] $end
$var integer 32 v" ci [31:0] $end
$var integer 32 w" cj [31:0] $end
$var integer 32 x" ei [31:0] $end
$var integer 32 y" ej [31:0] $end
$var integer 32 z" token [31:0] $end
$upscope $end
$scope task expect_eq_hex $end
$var reg 16 {" exp [15:0] $end
$var reg 16 |" got [15:0] $end
$var reg 1760 }" msg [1759:0] $end
$upscope $end
$scope task expect_eq_int $end
$var reg 1760 ~" msg [1759:0] $end
$var integer 32 !# exp [31:0] $end
$var integer 32 "# got [31:0] $end
$upscope $end
$scope task expect_rd_held $end
$var reg 1760 ## msg [1759:0] $end
$upscope $end
$scope task fatal_msg $end
$var reg 1760 $# msg [1759:0] $end
$upscope $end
$scope task send_center $end
$var reg 16 %# tag_in [15:0] $end
$var integer 32 &# i [31:0] $end
$var integer 32 '# j [31:0] $end
$upscope $end
$scope task snap_rd $end
$upscope $end
$scope task wait_busy_drop $end
$var reg 1760 (# msg [1759:0] $end
$var integer 32 )# k [31:0] $end
$var integer 32 *# max_cycles [31:0] $end
$upscope $end
$upscope $end
$enddefinitions $end
$comment Show the parameter values. $end
$dumpall
b100 Y"
b1000 X"
b10000 W"
b11 V"
b10 U"
b100 T"
b100 o
b1000 n
b10000 m
b111 l
b11 k
b100 c
b1000 b
b10000 a
b100 `
b100 .
b1000 -
b10000 ,
b11 +
b10 *
b100 )
$end
#0
$dumpvars
bx *#
bx )#
bx (#
bx '#
bx &#
bx %#
bx $#
bx ##
bx "#
bx !#
bx ~"
bx }"
bx |"
bx {"
bx z"
bx y"
bx x"
bx w"
bx v"
bx u"
bx t"
bx s"
bx r"
bx q"
bx p"
bx o"
bx n"
xm"
bx l"
bx k"
bx j"
bx i"
bx h"
bx g"
bx f"
bx e"
bx d"
bx c"
bx b"
bx a"
bx `"
bx _"
bx ^"
bx ]"
bx \"
bx ["
bx Z"
bx S"
0R"
bx Q"
bx P"
bx O"
bx N"
bx M"
bx L"
bx K"
bx J"
bx I"
bx H"
bx G"
bx F"
bx E"
bx D"
bx C"
bx B"
bx A"
bx @"
bx ?"
0>"
0="
0<"
b1 ;"
b1 :"
b1 9"
b0 8"
b0 7"
b1 6"
b0 5"
b0 4"
b1 3"
b0 2"
b0 1"
b1 0"
b1 /"
b1 ."
b0 -"
b0 ,"
b0 +"
b0 *"
b0 )"
b0 ("
b0 '"
b0 &"
bx %"
bx $"
bx #"
bx ""
bx !"
bx ~
bx }
bx |
bx {
bx z
bx y
bx x
bx w
bx v
bx u
bx t
bx s
bx r
bx q
xp
0j
b10000 i
0h
0g
b0 f
b0 e
b0 d
bx _
bx ^
bx ]
bx \
bx [
bx Z
bx Y
bx X
bx W
bx V
bx U
bx T
bx S
bx R
bx Q
bx P
bx O
bx N
0M
bx L
0K
bx J
bx I
bx H
b10000 G
b0 F
b0 E
b0 D
bx C
bx B
bx A
bx @
bx ?
bx >
bx =
bx <
bx ;
1:
09
bx 8
bx 7
bx 6
05
x4
03
02
b0 1
b0 0
b0 /
0(
bx '
bx &
bx %
0$
0#
0"
b10000 !
$end
#5000
b0 '
b0 J
b0 o"
b0 %
b0 H
b0 q"
b0 &
b0 I
b0 p"
b0 N
b0 $"
b0 P"
b0 W
b0 y
b0 G"
b0 O
b0 #"
b0 O"
b0 X
b0 x
b0 F"
b0 P
b0 ""
b0 N"
b0 Y
b0 w
b0 E"
b0 Q
b0 !"
b0 M"
b0 Z
b0 v
b0 D"
b0 R
b0 ~
b0 L"
b0 [
b0 u
b0 C"
b0 S
b0 }
b0 K"
b0 \
b0 t
b0 B"
b0 T
b0 |
b0 J"
b0 ]
b0 s
b0 A"
b0 U
b0 {
b0 I"
b0 ^
b0 r
b0 @"
b0 V
b0 z
b0 H"
b0 _
b0 q
b0 ?"
b0 L
b0 %"
b0 Q"
0p
b0 l"
b0 k"
b0 b"
b0 j"
b0 a"
b0 i"
b0 `"
b0 h"
b0 _"
b0 g"
b0 ^"
b0 f"
b0 ]"
b0 e"
b0 \"
b0 d"
b0 ["
b0 c"
b0 Z"
b0 S"
b0 n"
0m"
13
#10000
03
#15000
13
#20000
03
#25000
13
#30000
03
#35000
13
#40000
03
#45000
1(
1M
1g
1="
b1001000110000 %#
b11 '#
b10 &#
0:
15
13
#50000
1h
b100 9"
b11 0"
b11 8"
b11 /"
b10 7"
b11 ."
b100 6"
b10 -"
b11 5"
b10 ,"
b10 4"
b10 +"
b11 :"
b100 3"
b1 *"
b11 2"
b1 )"
b10 1"
b100 ;"
b1 ("
b11 '"
b10 &"
12
b1001000110000 1
b1001000110000 F
b1001000110000 f
b11 0
b11 E
b11 e
b10 /
b10 D
b10 d
03
#55000
1>"
1j
1h
1K
1(
b100 N
b100 $"
b100 P"
b11 W
b11 y
b11 G"
b11 O
b11 #"
b11 O"
b11 X
b11 x
b11 F"
b10 P
b10 ""
b10 N"
b11 Y
b11 w
b11 E"
b100 Q
b100 !"
b100 M"
b10 Z
b10 v
b10 D"
b11 R
b11 ~
b11 L"
b10 [
b10 u
b10 C"
b10 S
b10 }
b10 K"
b10 \
b10 t
b10 B"
b100 T
b100 |
b100 J"
b1 ]
b1 s
b1 A"
b11 U
b11 {
b11 I"
b1 ^
b1 r
b1 @"
b10 V
b10 z
b10 H"
b1 _
b1 q
b1 ?"
b1001000110000 L
b1001000110000 %"
b1001000110000 Q"
1p
13
#60000
0h
02
03
#65000
0>"
0j
b1001000110000 '
b1001000110000 J
b1001000110000 o"
0K
1$
1#
0M
b1001000110000 S"
b10 %
b10 H
b10 q"
b1 &
b1 I
b1 p"
0p
1m"
b1001000110000 l"
b100 k"
b11 b"
b11 j"
b11 a"
b10 i"
b11 `"
b100 h"
b10 _"
b11 g"
b10 ^"
b10 f"
b10 ]"
b100 e"
b1 \"
b11 d"
b1 ["
b10 c"
b1 Z"
13
#70000
03
#75000
04
b0 >
b0 =
b1001000110000 u"
b11 w"
b10 v"
13
#80000
03
#85000
b1 >
b1001000110000 8
b10 7
b1 6
b10010000101010011010100100100 <
13
#90000
03
#95000
1R"
19
b10 >
b1110010011001000010000001101000011011110110110001100100 ##
b11000000100010010101111010000001 <
13
#100000
03
#105000
b11 %
b11 H
b11 q"
b1 &
b1 I
b1 p"
b1001000110001 '
b1001000110001 J
b1001000110001 o"
b1001000110001 S"
b1 n"
b1 =
b11100100110010001011111011101000110000101100111001000000110110101101001011100110110110101100001011101000110001101101000 }"
b1001000110000 {"
b1001000110000 B
b0 C
b1001000110000 |"
b11100100110010001011111011101000110100101101100011001010101111101101010001000000110110101101001011100110110110101100001011101000110001101101000 ~"
b10 !#
b10 "#
b10 y"
b1 x"
b10 A
b0 @
b111 ?
b0 z"
b0 >
b10000100100001001101011000001001 <
13
#110000
03
#115000
b100 %
b100 H
b100 q"
b1 &
b1 I
b1 p"
b1001000110010 '
b1001000110010 J
b1001000110010 o"
b1001000110010 S"
b10 n"
b10 =
b1001000110001 {"
b1 C
b1001000110001 |"
b11100100110010001011111011101000110100101101100011001010101111101101010001000000110110101101001011100110110110101100001011101000110001101101000 ~"
b11 !#
b11 "#
b11 y"
b11 A
b111 ?
b1 z"
b10110001111100000101011001100011 <
13
#120000
03
#125000
b10 %
b10 H
b10 q"
b10 &
b10 I
b10 p"
b1001000110011 '
b1001000110011 J
b1001000110011 o"
0R"
b1001000110011 S"
b11 n"
09
b11 =
b1001000110010 {"
b10 C
b1001000110010 |"
b11100100110010001011111011101000110100101101100011001010101111101101010001000000110110101101001011100110110110101100001011101000110001101101000 ~"
b100 !#
b100 "#
b100 y"
b100 A
b111 ?
b10 z"
b110101110010111101100001101 <
13
#130000
03
#135000
b1 >
b1001000110011 8
b10 6
b1000110110111111001100110001101 <
13
#140000
03
#145000
1R"
19
b10 >
b10110010110000101000010001100101 <
13
#150000
03
#155000
b11 %
b11 H
b11 q"
b10 &
b10 I
b10 p"
b1001000110100 '
b1001000110100 J
b1001000110100 o"
b1001000110100 S"
b100 n"
b100 =
b1001000110011 {"
b11 C
b1001000110011 |"
b11100100110010001011111011101000110100101101100011001010101111101101010001000000110110101101001011100110110110101100001011101000110001101101000 ~"
b10 !#
b10 "#
b10 y"
b10 x"
b10 A
b111 ?
b11 z"
b0 >
b10001001001101110101001000010010 <
13
#160000
03
#165000
b100 %
b100 H
b100 q"
b10 &
b10 I
b10 p"
b1001000110101 '
b1001000110101 J
b1001000110101 o"
b1001000110101 S"
b101 n"
b101 =
b1001000110100 {"
b100 C
b1001000110100 |"
b11 !#
b11 "#
b11100100110010001011111011101000110100101101100011001010101111101101010001000000110110101101001011100110110110101100001011101000110001101101000 ~"
b11 y"
b11 A
b111 ?
b100 z"
b111100111110001100000001 <
13
#170000
03
#175000
b10 %
b10 H
b10 q"
b11 &
b11 I
b11 p"
b1001000110110 '
b1001000110110 J
b1001000110110 o"
0R"
b1001000110110 S"
b110 n"
09
b110 =
b1001000110101 {"
b101 C
b1001000110101 |"
b11100100110010001011111011101000110100101101100011001010101111101101010001000000110110101101001011100110110110101100001011101000110001101101000 ~"
b100 !#
b100 "#
b100 y"
b100 A
b111 ?
b101 z"
b110110101111100110100001101 <
13
#180000
03
#185000
b1 >
b1001000110110 8
b11 6
b111011001000111111000101110110 <
13
#190000
03
#195000
b10 >
b11110100011011100110100111101 <
13
#200000
03
#205000
b11 >
b1110110110101000101011111101101 <
13
#210000
03
#215000
1R"
19
b100 >
b1000110001011011111011110001100 <
13
#220000
03
#225000
b11 %
b11 H
b11 q"
b11 &
b11 I
b11 p"
b1001000110111 '
b1001000110111 J
b1001000110111 o"
0R"
b1001000110111 S"
b111 n"
09
b111 =
b1001000110110 {"
b110 C
b1001000110110 |"
b11100100110010001011111011101000110100101101100011001010101111101101010001000000110110101101001011100110110110101100001011101000110001101101000 ~"
b10 !#
b10 "#
b10 y"
b11 x"
b10 A
b111 ?
b110 z"
b0 >
b1111100111111011110100111111001 <
13
#230000
03
#235000
1R"
19
b1 >
b1001000110111 8
b11 7
b11100011001101110010010011000110 <
13
#240000
03
#245000
1M
1"
b100 %
b100 H
b100 q"
b11 &
b11 I
b11 p"
1<"
b1001000111000 '
b1001000111000 J
b1001000111000 o"
b1001000111000 S"
b1000 n"
b1000 =
b1001000110111 {"
b111 C
b1001000110111 |"
b11100100110010001011111011101000110100101101100011001010101111101101010001000000110110101101001011100110110110101100001011101000110001101101000 ~"
b11 !#
b11 "#
b11 y"
b11 A
b111 ?
b111 z"
b0 >
b11100010111101111000010011000101 <
13
#250000
03
#255000
0R"
0<"
b1001000110000 '
b1001000110000 J
b1001000110000 o"
0"
0#
0$
b0 %
b0 H
b0 q"
b0 &
b0 I
b0 p"
09
b1001000110000 S"
b0 n"
0m"
b0 )#
b110000101100110011101000110010101110010001000000111010001100101011100110111010000110001 (#
b110010 *#
b1001 =
b1001000111000 {"
b1000 C
b1001000111000 |"
b100 !#
b100 "#
b11100100110010001011111011101000110100101101100011001010101111101101010001000000110110101101001011100110110110101100001011101000110001101101000 ~"
b100 y"
b100 A
b111 ?
b1000 z"
b0 <
14
13
#260000
03
#265000
b10100000 %#
b0 '#
b0 &#
b1 )#
13
#270000
1h
b1 9"
b1 0"
b0 8"
b1 /"
b0 7"
b1 ."
b1 6"
b0 -"
b0 5"
b0 ,"
b0 4"
b0 +"
b1 3"
b0 *"
b0 2"
b0 )"
b0 1"
b1 ;"
b0 ("
b1 :"
b0 '"
b0 &"
12
b10100000 1
b10100000 F
b10100000 f
b0 0
b0 E
b0 e
b0 /
b0 D
b0 d
03
#275000
1>"
1j
1h
1K
1(
b1 N
b1 $"
b1 P"
b1 W
b1 y
b1 G"
b0 O
b0 #"
b0 O"
b1 X
b1 x
b1 F"
b0 P
b0 ""
b0 N"
b1 Y
b1 w
b1 E"
b1 Q
b1 !"
b1 M"
b0 Z
b0 v
b0 D"
b0 R
b0 ~
b0 L"
b0 [
b0 u
b0 C"
b0 S
b0 }
b0 K"
b0 \
b0 t
b0 B"
b1 T
b1 |
b1 J"
b0 ]
b0 s
b0 A"
b0 U
b0 {
b0 I"
b0 ^
b0 r
b0 @"
b0 V
b0 z
b0 H"
b0 _
b0 q
b0 ?"
b10100000 L
b10100000 %"
b10100000 Q"
1p
13
#280000
0h
04
b0 =
b10100000 u"
b0 w"
b0 v"
02
03
#285000
1R"
0>"
0j
b10100000 '
b10100000 J
b10100000 o"
0K
1$
1#
0M
b10100000 S"
0p
1m"
b10100000 l"
b1 k"
b1 b"
b0 j"
b1 a"
b0 i"
b1 `"
b1 h"
b0 _"
b0 g"
b0 ^"
b0 f"
b0 ]"
b1 e"
b0 \"
b0 d"
b0 ["
b0 c"
b0 Z"
19
b1110010101011111111011111100101 <
13
#290000
03
#295000
b10100001 '
b10100001 J
b10100001 o"
b10100001 S"
b1 n"
b1 =
b10100000 {"
b10100000 B
b0 C
b10100000 |"
b11100100110010001011111011101000110100101101100011001010101111101101010001000000110110101101001011100110110110101100001011101000110001101101000 ~"
b0 !#
b0 "#
b0 y"
b0 x"
b11111111111111111111111111111111 A
b111 ?
b0 z"
b10111011110100100111001001110111 <
13
#300000
03
#305000
b1 %
b1 H
b1 q"
b10100010 '
b10100010 J
b10100010 o"
b10100010 S"
b10 n"
b10 =
b10100001 {"
b1 C
b10100001 |"
b11100100110010001011111011101000110100101101100011001010101111101101010001000000110110101101001011100110110110101100001011101000110001101101000 ~"
b0 A
b111 ?
b1 z"
b10001001001100101101011000010010 <
13
#310000
03
#315000
b0 %
b0 H
b0 q"
b10100011 '
b10100011 J
b10100011 o"
0R"
b10100011 S"
b11 n"
09
b11 =
b10100010 {"
b10 C
b10100010 |"
b1 !#
b1 "#
b11100100110010001011111011101000110100101101100011001010101111101101010001000000110110101101001011100110110110101100001011101000110001101101000 ~"
b1 y"
b1 A
b111 ?
b10 z"
b1000111111011001101101110001111 <
13
#320000
03
#325000
1R"
19
b1 >
b10100011 8
b0 7
b0 6
b1111001001100000110100111110010 <
13
#330000
03
#335000
b10100100 '
b10100100 J
b10100100 o"
b10100100 S"
b100 n"
b100 =
b10100011 {"
b11 C
b10100011 |"
b11100100110010001011111011101000110100101101100011001010101111101101010001000000110110101101001011100110110110101100001011101000110001101101000 ~"
b0 !#
b0 "#
b0 y"
b11111111111111111111111111111111 A
b111 ?
b11 z"
b0 >
b11100111011101101001011011001110 <
13
#340000
03
#345000
b1 %
b1 H
b1 q"
b10100101 '
b10100101 J
b10100101 o"
b10100101 S"
b101 n"
b101 =
b10100100 {"
b100 C
b10100100 |"
b11100100110010001011111011101000110100101101100011001010101111101101010001000000110110101101001011100110110110101100001011101000110001101101000 ~"
b0 A
b111 ?
b100 z"
b11110100000000000111101011101000 <
13
#350000
03
#355000
b1 &
b1 I
b1 p"
b0 %
b0 H
b0 q"
b10100110 '
b10100110 J
b10100110 o"
b10100110 S"
b110 n"
b110 =
b10100101 {"
b101 C
b10100101 |"
b1 !#
b1 "#
b11100100110010001011111011101000110100101101100011001010101111101101010001000000110110101101001011100110110110101100001011101000110001101101000 ~"
b1 y"
b1 A
b111 ?
b101 z"
b11100010110010100100111011000101 <
13
#360000
03
#365000
b1 &
b1 I
b1 p"
b10100111 '
b10100111 J
b10100111 o"
b10100111 S"
b111 n"
b111 =
b10100110 {"
b110 C
b10100110 |"
b0 !#
b0 "#
b11100100110010001011111011101000110100101101100011001010101111101101010001000000110110101101001011100110110110101100001011101000110001101101000 ~"
b0 y"
b11111111111111111111111111111111 A
b1 x"
b111 ?
b110 z"
b101110010110000100100101011100 <
13
#370000
03
#375000
1M
1"
b1 %
b1 H
b1 q"
b1 &
b1 I
b1 p"
1<"
b10101000 '
b10101000 J
b10101000 o"
b10101000 S"
b1000 n"
b1000 =
b10100111 {"
b111 C
b10100111 |"
b11100100110010001011111011101000110100101101100011001010101111101101010001000000110110101101001011100110110110101100001011101000110001101101000 ~"
b0 !#
b0 "#
b0 A
b111 ?
b111 z"
b11011110100011100010100010111101 <
13
#380000
03
#385000
0R"
0<"
b10100000 '
b10100000 J
b10100000 o"
0"
0#
0$
b0 %
b0 H
b0 q"
b0 &
b0 I
b0 p"
09
b10100000 S"
b0 n"
0m"
b0 )#
b110000101100110011101000110010101110010001000000111010001100101011100110111010000110010 (#
b1001 =
b10101000 {"
b1000 C
b10101000 |"
b11100100110010001011111011101000110100101101100011001010101111101101010001000000110110101101001011100110110110101100001011101000110001101101000 ~"
b1 !#
b1 "#
b1 y"
b1 A
b111 ?
b1000 z"
b0 <
14
13
#390000
03
#395000
b1011111011100000 %#
b111 '#
b11 &#
b1 )#
13
#400000
1h
b111 9"
b11 0"
b111 8"
b11 /"
b110 7"
b11 ."
b111 6"
b11 -"
b111 5"
b11 ,"
b110 4"
b11 +"
b111 3"
b10 *"
b111 2"
b10 )"
b110 1"
b1000 ;"
b10 ("
b100 :"
b111 '"
b11 &"
12
b1011111011100000 1
b1011111011100000 F
b1011111011100000 f
b111 0
b111 E
b111 e
b11 /
b11 D
b11 d
03
#405000
1>"
1j
1h
1K
1(
b111 N
b111 $"
b111 P"
b11 W
b11 y
b11 G"
b111 O
b111 #"
b111 O"
b11 X
b11 x
b11 F"
b110 P
b110 ""
b110 N"
b11 Y
b11 w
b11 E"
b111 Q
b111 !"
b111 M"
b11 Z
b11 v
b11 D"
b111 R
b111 ~
b111 L"
b11 [
b11 u
b11 C"
b110 S
b110 }
b110 K"
b11 \
b11 t
b11 B"
b111 T
b111 |
b111 J"
b10 ]
b10 s
b10 A"
b111 U
b111 {
b111 I"
b10 ^
b10 r
b10 @"
b110 V
b110 z
b110 H"
b10 _
b10 q
b10 ?"
b1011111011100000 L
b1011111011100000 %"
b1011111011100000 Q"
1p
13
#410000
0h
04
b0 =
b1011111011100000 u"
b111 w"
b11 v"
02
03
#415000
1R"
b1011111011100000 '
b1011111011100000 J
b1011111011100000 o"
0>"
0j
1$
1#
0M
b1011111011100000 S"
b110 %
b110 H
b110 q"
b10 &
b10 I
b10 p"
0K
1m"
b1011111011100000 l"
b111 k"
b11 b"
b111 j"
b11 a"
b110 i"
b11 `"
b111 h"
b11 _"
b111 g"
b11 ^"
b110 f"
b11 ]"
b111 e"
b10 \"
b111 d"
b10 ["
b110 c"
b10 Z"
0p
19
b10110010101001110010011001100101 <
13
#420000
03
#425000
b111 %
b111 H
b111 q"
b10 &
b10 I
b10 p"
b1011111011100001 '
b1011111011100001 J
b1011111011100001 o"
b1011111011100001 S"
b1 n"
b1 =
b1011111011100000 {"
b1011111011100000 B
b0 C
b1011111011100000 |"
b11100100110010001011111011101000110100101101100011001010101111101101010001000000110110101101001011100110110110101100001011101000110001101101000 ~"
b110 !#
b110 "#
b110 y"
b10 x"
b110 A
b111 ?
b0 z"
b10110001111011110110001001100011 <
13
#430000
03
#435000
b111 %
b111 H
b111 q"
b10 &
b10 I
b10 p"
b1011111011100010 '
b1011111011100010 J
b1011111011100010 o"
b1011111011100010 S"
b10 n"
b10 =
b1011111011100001 {"
b1 C
b1011111011100001 |"
b11100100110010001011111011101000110100101101100011001010101111101101010001000000110110101101001011100110110110101100001011101000110001101101000 ~"
b111 !#
b111 "#
b111 y"
b111 A
b111 ?
b1 z"
b101011100111000011100001010 <
13
#440000
03
#445000
b110 %
b110 H
b110 q"
b11 &
b11 I
b11 p"
b1011111011100011 '
b1011111011100011 J
b1011111011100011 o"
b1011111011100011 S"
b11 n"
b11 =
b1011111011100010 {"
b10 C
b1011111011100010 |"
b11100100110010001011111011101000110100101101100011001010101111101101010001000000110110101101001011100110110110101100001011101000110001101101000 ~"
b111 !#
b111 "#
b1000 A
b111 ?
b10 z"
b11000000001110110010001010000000 <
13
#450000
03
#455000
b111 %
b111 H
b111 q"
b11 &
b11 I
b11 p"
b1011111011100100 '
b1011111011100100 J
b1011111011100100 o"
b1011111011100100 S"
b100 n"
b100 =
b1011111011100011 {"
b11 C
b1011111011100011 |"
b11100100110010001011111011101000110100101101100011001010101111101101010001000000110110101101001011100110110110101100001011101000110001101101000 ~"
b110 !#
b110 "#
b110 y"
b11 x"
b110 A
b111 ?
b11 z"
b10000011001000010000100100000 <
13
#460000
03
#465000
b111 %
b111 H
b111 q"
b11 &
b11 I
b11 p"
b1011111011100101 '
b1011111011100101 J
b1011111011100101 o"
b1011111011100101 S"
b101 n"
b101 =
b1011111011100100 {"
b100 C
b1011111011100100 |"
b11100100110010001011111011101000110100101101100011001010101111101101010001000000110110101101001011100110110110101100001011101000110001101101000 ~"
b111 !#
b111 "#
b111 y"
b111 A
b111 ?
b100 z"
b1010101011110000100010110101010 <
13
#470000
03
#475000
b110 %
b110 H
b110 q"
b11 &
b11 I
b11 p"
b1011111011100110 '
b1011111011100110 J
b1011111011100110 o"
b1011111011100110 S"
b110 n"
b110 =
b1011111011100101 {"
b101 C
b1011111011100101 |"
b11100100110010001011111011101000110100101101100011001010101111101101010001000000110110101101001011100110110110101100001011101000110001101101000 ~"
b111 !#
b111 "#
b1000 A
b111 ?
b101 z"
b11001110110011001100110010011101 <
13
#480000
03
